<?xml version="1.0" encoding="utf-8"?>
<!-- Generator: Adobe Illustrator 21.0.2, SVG Export Plug-In . SVG Version: 6.00 Build 0)  -->
<svg version="1.1" id="Layer_1" xmlns="http://www.w3.org/2000/svg" xmlns:xlink="http://www.w3.org/1999/xlink" x="0px" y="0px"
	 viewBox="0 0 960 300" style="enable-background:new 0 0 960 300;" xml:space="preserve">
<style type="text/css">
	.st0{fill:#A7A9AC;}
	.st1{fill:#F1F2F2;}
	.st2{opacity:0.4;fill:#FFFFFF;}
	.st3{fill:#E6E7E8;}
	.st4{fill:#BCBEC0;}
	.st5{fill:#FFFFFF;}
	.st6{fill:#808285;}
	.st7{fill:#58595B;}
	.st8{fill:#D1D3D4;}
	.st9{opacity:0;}
	.st10{fill:#414042;}
	.st11{fill:#6D6E71;}
	.st12{fill:#939598;}
	.st13{fill:#1F4288;}
	.st14{fill:#C8CACC;}
	.st15{opacity:0.2;fill:#EC2127;}
	.st16{opacity:0.4;}
	.st17{fill:#EC2127;}
	.st18{fill-rule:evenodd;clip-rule:evenodd;fill:#39498C;}
	.st19{fill-rule:evenodd;clip-rule:evenodd;fill:url(#SVGID_1_);}
	.st20{fill:none;stroke:#000000;stroke-width:0.25;stroke-miterlimit:10;}
	.st21{fill-rule:evenodd;clip-rule:evenodd;fill:url(#SVGID_2_);}
	.st22{fill-rule:evenodd;clip-rule:evenodd;fill:url(#SVGID_3_);}
	.st23{fill:#221F1F;}
	.st24{fill:#E1E3E3;}
	.st25{fill:#CCCCCC;}
	.st26{fill-rule:evenodd;clip-rule:evenodd;fill:url(#SVGID_4_);}
	.st27{clip-path:url(#SVGID_6_);}
	.st28{clip-path:url(#SVGID_6_);fill:#F1F2F2;}
	.st29{clip-path:url(#SVGID_6_);fill:#E6E7E8;}
	.st30{clip-path:url(#SVGID_6_);fill:#BCBEC0;}
	.st31{clip-path:url(#SVGID_6_);fill:#FFFFFF;}
	.st32{clip-path:url(#SVGID_6_);fill:#808285;}
	.st33{clip-path:url(#SVGID_6_);fill:#58595B;}
	.st34{fill-rule:evenodd;clip-rule:evenodd;fill:url(#SVGID_7_);}
	.st35{fill:#808080;}
	.st36{fill:#4D4D4D;}
	.st37{fill:#414042;stroke:#000000;stroke-width:0.25;stroke-miterlimit:10;}
	.st38{fill:#FFFFFF;stroke:#000000;stroke-miterlimit:10;}
	.st39{fill:none;stroke:#58595B;stroke-miterlimit:10;stroke-dasharray:2,2;}
	.st40{fill:none;stroke:#58595B;stroke-width:0.5;stroke-miterlimit:10;stroke-dasharray:1,1;}
	.st41{fill:none;stroke:#414042;stroke-miterlimit:10;}
	.st42{fill:none;stroke:#000000;stroke-miterlimit:10;stroke-dasharray:1,1;}
	.st43{fill:#E6E6E6;}
	.st44{fill:#231F20;}
	.st45{font-family:'Helvetica';}
	.st46{font-size:14.3491px;}
	.st47{fill-rule:evenodd;clip-rule:evenodd;fill:url(#SVGID_8_);}
	.st48{fill:none;}
	.st49{font-family:'Helvetica-Bold';}
	.st50{font-size:11.1448px;}
	.st51{fill:#F2F2F2;}
	.st52{font-size:9.5277px;}
	.st53{font-family:'Helvetica-Light';}
	.st54{font-size:6.3518px;}
	.st55{fill:#999999;}
	.st56{font-size:8.3586px;}
	.st57{font-size:4.3783px;}
	.st58{opacity:0.2;fill:#ED1D24;}
	.st59{opacity:0.7;fill:#ED1D24;}
	.st60{opacity:0.5;fill:#221F1F;}
	.st61{clip-path:url(#SVGID_10_);}
	.st62{font-size:10.3354px;}
	.st63{fill:#B3B3B3;}
	.st64{font-size:4.3727px;}
	.st65{clip-path:url(#SVGID_12_);}
	.st66{clip-path:url(#SVGID_12_);fill:#FFFFFF;}
	.st67{opacity:0.2;fill:#ED1C24;}
	.st68{fill:#E82429;}
	.st69{clip-path:url(#SVGID_12_);fill:#666666;}
	.st70{clip-path:url(#SVGID_12_);fill:#4D4D4D;}
	.st71{clip-path:url(#SVGID_12_);fill:#999999;}
	.st72{font-size:10.292px;}
	.st73{font-size:11.0836px;}
	.st74{font-size:8.3127px;}
	.st75{clip-path:url(#SVGID_12_);fill:#F2F2F2;}
	.st76{font-size:9.5003px;}
	.st77{font-size:6.3335px;}
	.st78{clip-path:url(#SVGID_12_);fill:#B3B3B3;}
	.st79{font-size:4.3543px;}
	.st80{font-size:7.1252px;}
	.st81{font-size:11.0925px;}
	.st82{font-size:9.5079px;}
	.st83{font-size:7.1309px;}
	.st84{font-size:14.3192px;}
	.st85{fill-rule:evenodd;clip-rule:evenodd;fill:url(#SVGID_13_);}
	.st86{fill:none;stroke:#A6A8AB;stroke-width:0.5;stroke-miterlimit:10;}
	.st87{fill-rule:evenodd;clip-rule:evenodd;fill:url(#SVGID_14_);}
	.st88{opacity:0;clip-path:url(#SVGID_16_);}
	.st89{clip-path:url(#SVGID_16_);fill:#FFFFFF;stroke:#FFFFFF;stroke-width:5;stroke-linecap:round;stroke-miterlimit:10;}
	.st90{clip-path:url(#SVGID_16_);fill:#58595B;}
	.st91{clip-path:url(#SVGID_16_);}
	.st92{fill-rule:evenodd;clip-rule:evenodd;fill:url(#SVGID_17_);}
	.st93{clip-path:url(#SVGID_16_);fill:#FFFFFF;stroke:#FFFFFF;stroke-linecap:round;stroke-miterlimit:10;}
	.st94{clip-path:url(#SVGID_16_);fill:#414042;}
	.st95{font-size:14.3665px;}
	.st96{fill:#231F20;stroke:#231F20;stroke-width:2;stroke-linecap:round;stroke-miterlimit:10;}
	.st97{fill:none;stroke:#FFFFFF;stroke-miterlimit:10;}
	.st98{fill:none;stroke:#F2F2F2;stroke-miterlimit:10;}
	.st99{font-size:11.1291px;}
	.st100{font-size:7.1544px;}
	.st101{fill:none;stroke:#000000;stroke-miterlimit:10;}
	.st102{font-size:5.5646px;}
	.st103{fill-rule:evenodd;clip-rule:evenodd;fill:url(#SVGID_18_);}
</style>
<g>
	<rect x="20.1" y="218.7" class="st43" width="127.4" height="44.6"/>
	<rect x="107.3" y="36.7" class="st25" width="19.8" height="19.8"/>
	<rect x="127.3" y="36.7" class="st25" width="20" height="19.8"/>
	<g>
		<g>
			<g>
				<g>
					<path class="st44" d="M120.3,44.8c0-2.5-2-4.5-4.5-4.5c-2.5,0-4.5,2-4.5,4.5s2,4.5,4.5,4.5C118.3,49.3,120.3,47.3,120.3,44.8z
						 M115.8,48.2c-1.8,0-3.3-1.5-3.3-3.3s1.5-3.3,3.3-3.3c1.8,0,3.3,1.5,3.3,3.3S117.6,48.2,115.8,48.2z"/>
					<path class="st44" d="M122.9,50.4l-2.7-2.7c-0.4,0.6-0.9,1.2-1.6,1.6l2.7,2.7c0.4,0.4,1.1,0.4,1.6,0
						C123.3,51.5,123.3,50.8,122.9,50.4z"/>
				</g>
			</g>
		</g>
	</g>
	<text transform="matrix(0.9934 0 0 1 129.6188 51.6035)" class="st44 st45 st46">Fr</text>
	<g>
		<rect x="20.1" y="36.7" class="st25" width="19.8" height="19.8"/>
		<path d="M35.2,43.2H25.1c-0.4,0-0.7-0.3-0.7-0.7c0-0.4,0.3-0.7,0.7-0.7h10.1c0.4,0,0.7,0.3,0.7,0.7C35.9,42.9,35.6,43.2,35.2,43.2
			z"/>
		<path d="M35.2,46.6H25.1c-0.4,0-0.7-0.3-0.7-0.7s0.3-0.7,0.7-0.7h10.1c0.4,0,0.7,0.3,0.7,0.7S35.6,46.6,35.2,46.6z"/>
		<path d="M35.2,50H25.1c-0.4,0-0.7-0.3-0.7-0.7c0-0.4,0.3-0.7,0.7-0.7h10.1c0.4,0,0.7,0.3,0.7,0.7C35.9,49.7,35.6,50,35.2,50z"/>
	</g>
	<g>
		<path class="st13" d="M103,45.2c0.1,0.2,0.2,0.4,0.2,0.6h-2.1c0-0.2,0.1-0.4,0.2-0.6c0.2-0.3,0.5-0.4,0.9-0.4
			C102.6,44.8,102.8,45,103,45.2L103,45.2z M104.2,46.5v-0.2c0-0.7-0.2-1.2-0.5-1.6c-0.3-0.4-0.9-0.6-1.5-0.6c-0.6,0-1,0.2-1.4,0.4
			c-0.6,0.4-0.9,1.1-0.9,2.2c0,1,0.2,1.8,0.7,2.3c0.5,0.5,1.1,0.7,1.9,0.7c0.4,0,0.9-0.1,1.4-0.2v-0.8c-0.4,0.1-0.7,0.2-1,0.2
			c-0.7,0-1.2-0.3-1.5-0.8c-0.3-0.5-0.4-1-0.4-1.6H104.2L104.2,46.5z"/>
		<path class="st13" d="M100.1,45.2V44c-0.5,0-0.9,0.2-1.2,0.5c-0.2,0.2-0.4,0.5-0.5,0.8h0v-1.1h-1v5.4h1v-2.3
			C98.4,45.9,99,45.2,100.1,45.2L100.1,45.2z"/>
		<path class="st13" d="M96.8,49.6v-5.4h-1v2.3c0,0.6-0.1,1.1-0.4,1.5c-0.3,0.5-0.6,0.7-1,0.7c-0.3,0-0.6-0.2-0.6-0.4
			c-0.1-0.2-0.1-0.6-0.1-1.2v-3h-1v3.8c0,0.5,0.1,0.8,0.2,1.1c0.2,0.4,0.6,0.6,1.2,0.6c0.8,0,1.4-0.4,1.7-1.3h0v1.2H96.8L96.8,49.6z
			"/>
		<path class="st13" d="M86.6,45.2c0.2,0.2,0.2,0.4,0.2,0.6h-2.1c0-0.2,0.1-0.4,0.2-0.6c0.2-0.3,0.5-0.4,0.9-0.4
			C86.2,44.8,86.5,45,86.6,45.2L86.6,45.2z M84.5,44.5c-0.6,0.4-0.8,1.1-0.8,2.2c0,1,0.2,1.8,0.7,2.3c0.5,0.5,1.1,0.7,1.9,0.7
			c0.4,0,0.8-0.1,1.4-0.2v-0.8c-0.4,0.1-0.7,0.2-1,0.2c-0.7,0-1.2-0.3-1.5-0.8c-0.3-0.5-0.5-1-0.5-1.6h3.1v-0.2
			c0-0.7-0.2-1.2-0.5-1.6C87,44.3,86.5,44,85.9,44C85.4,44,84.9,44.2,84.5,44.5L84.5,44.5z"/>
		<path class="st13" d="M82,44.8c0.4,0,0.8,0.1,1.3,0.3v-0.9l-0.5-0.1C82.5,44.1,82.2,44,82,44c-0.6,0-1,0.2-1.4,0.4
			c-0.4,0.3-0.6,0.6-0.6,1.1c0,0.4,0.2,0.7,0.4,0.9c0.2,0.2,0.4,0.3,0.7,0.6l1.1,0.7c0.2,0.2,0.3,0.3,0.3,0.5c0,0.5-0.3,0.7-1.1,0.7
			c-0.4,0-0.9-0.1-1.4-0.3v0.9c0.6,0.2,1,0.2,1.5,0.2c0.6,0,1.1-0.1,1.4-0.4c0.4-0.3,0.6-0.7,0.6-1.2c0-0.4-0.1-0.7-0.4-1
			c-0.2-0.1-0.4-0.3-0.8-0.6l-0.4-0.2c-0.3-0.2-0.5-0.3-0.5-0.3c-0.2-0.2-0.2-0.3-0.2-0.5c0-0.2,0.1-0.3,0.3-0.4
			C81.5,44.9,81.8,44.8,82,44.8L82,44.8z"/>
		<path class="st13" d="M91.1,45.9h1.2c0-0.5-0.1-0.9-0.4-1.3c-0.3-0.4-0.8-0.6-1.5-0.6c-0.8,0-1.4,0.3-1.8,0.8
			c-0.4,0.5-0.6,1.1-0.6,1.9c0,0.8,0.2,1.5,0.6,2c0.5,0.7,1.2,1,2.1,1c0.6,0,1.1-0.1,1.5-0.2v-0.7c-0.2,0.1-0.5,0.1-0.9,0.1
			c-0.8,0-1.4-0.3-1.7-0.8c-0.3-0.4-0.4-1-0.4-1.6c0-0.5,0.1-0.9,0.3-1.2c0.2-0.3,0.5-0.5,0.8-0.5C90.9,44.8,91.1,45.2,91.1,45.9
			L91.1,45.9z"/>
		<path class="st14" d="M79.7,45.2c0-0.3-0.1-0.6-0.3-0.8c-0.2-0.2-0.4-0.3-0.7-0.3c-0.4,0-0.9,0.2-1.2,0.5
			c-0.2,0.2-0.5,0.5-0.6,0.8h0v-0.2c0-0.2-0.1-0.4-0.2-0.6c-0.2-0.3-0.5-0.4-0.8-0.4c-0.5,0-0.9,0.2-1.2,0.5
			c-0.2,0.2-0.4,0.5-0.6,0.8l0,0l0.2-1.1h-0.8l-1,5.3h0.8l0.5-2.3c0.1-0.6,0.3-1,0.5-1.5c0.4-0.6,0.8-0.9,1.3-0.9
			c0.2,0,0.3,0.1,0.4,0.2c0.1,0.1,0.2,0.3,0.2,0.5c0,0.1,0,0.3-0.1,0.8l-0.6,3.3H76l0.5-2.3c0.1-0.5,0.3-1,0.5-1.4
			c0.3-0.7,0.8-1,1.3-1c0.2,0,0.3,0.1,0.5,0.2c0.1,0.1,0.2,0.2,0.2,0.4c0,0.2,0,0.5-0.1,0.8l-0.6,3.4h0.8l0.7-3.7
			C79.7,45.7,79.7,45.5,79.7,45.2L79.7,45.2z"/>
		<polygon class="st14" points="66.5,41.9 65.6,41.9 64.2,49.6 65,49.6 66.5,41.9 		"/>
		<polygon class="st14" points="73,41.9 72,41.9 71.8,42.9 72.8,42.9 73,41.9 		"/>
		<path class="st14" d="M60.8,45.2c-0.5,0.6-0.7,1.4-0.7,2.3c0,1.5,0.8,2.2,2.2,2.2c0.3,0,0.7-0.1,1.1-0.2l0.1-0.5
			c-0.4,0.1-0.7,0.2-1,0.2c-0.6,0-1-0.2-1.3-0.6c-0.2-0.3-0.3-0.8-0.3-1.4c0-0.7,0.2-1.3,0.4-1.8c0.3-0.5,0.7-0.7,1.1-0.7
			c0.5,0,0.8,0.3,0.8,0.8c0,0.1,0,0.2,0,0.4h1c0-0.2,0-0.3,0-0.5c0-0.4-0.1-0.7-0.4-0.9c-0.3-0.2-0.7-0.4-1.2-0.4
			C61.9,44.2,61.3,44.5,60.8,45.2L60.8,45.2z"/>
		<polygon class="st14" points="72.5,44.3 71.6,44.3 70.6,49.6 71.4,49.6 72.5,44.3 		"/>
		<path class="st14" d="M68.5,44.7c0.3,0,0.6,0.2,0.8,0.6c0.1,0.3,0.2,0.6,0.2,0.9c0,0.6-0.1,1.2-0.3,1.8c-0.3,0.8-0.8,1.2-1.4,1.2
			c-0.6,0-0.8-0.5-0.8-1.4c0-0.7,0.1-1.4,0.3-2C67.6,45.1,68,44.7,68.5,44.7L68.5,44.7z M69.7,45.2c-0.3-0.6-0.7-1-1.4-1
			c-0.8,0-1.4,0.4-1.8,1.2c-0.4,0.7-0.6,1.5-0.6,2.4c0,0.6,0.1,1,0.3,1.4c0.2,0.4,0.6,0.6,1.1,0.6c0.7,0,1.3-0.4,1.6-1l0,0l-0.2,0.9
			h0.8l1-5.3h-0.8L69.7,45.2L69.7,45.2L69.7,45.2z"/>
		<path class="st14" d="M79.7,45.2c0-0.3-0.1-0.6-0.3-0.8c-0.2-0.2-0.4-0.3-0.7-0.3c-0.4,0-0.9,0.2-1.2,0.5
			c-0.2,0.2-0.5,0.5-0.6,0.8h0v-0.2c0-0.2-0.1-0.4-0.2-0.6c-0.2-0.3-0.5-0.4-0.8-0.4c-0.5,0-0.9,0.2-1.2,0.5
			c-0.2,0.2-0.4,0.5-0.6,0.8l0,0l0.2-1.1h-0.8l-1,5.3h0.8l0.5-2.3c0.1-0.6,0.3-1,0.5-1.5c0.4-0.6,0.8-0.9,1.3-0.9
			c0.2,0,0.3,0.1,0.4,0.2c0.1,0.1,0.2,0.3,0.2,0.5c0,0.1,0,0.3-0.1,0.8l-0.6,3.3H76l0.5-2.3c0.1-0.5,0.3-1,0.5-1.4
			c0.3-0.7,0.8-1,1.3-1c0.2,0,0.3,0.1,0.5,0.2c0.1,0.1,0.2,0.2,0.2,0.4c0,0.2,0,0.5-0.1,0.8l-0.6,3.4h0.8l0.7-3.7
			C79.7,45.7,79.7,45.5,79.7,45.2L79.7,45.2z"/>
		<polygon class="st14" points="66.5,41.9 65.6,41.9 64.2,49.6 65,49.6 66.5,41.9 		"/>
		<polygon class="st14" points="73,41.9 72,41.9 71.8,42.9 72.8,42.9 73,41.9 		"/>
		<path class="st14" d="M60.8,45.2c-0.5,0.6-0.7,1.4-0.7,2.3c0,1.5,0.8,2.2,2.2,2.2c0.3,0,0.7-0.1,1.1-0.2l0.1-0.5
			c-0.4,0.1-0.7,0.2-1,0.2c-0.6,0-1-0.2-1.3-0.6c-0.2-0.3-0.3-0.8-0.3-1.4c0-0.7,0.2-1.3,0.4-1.8c0.3-0.5,0.7-0.7,1.1-0.7
			c0.5,0,0.8,0.3,0.8,0.8c0,0.1,0,0.2,0,0.4h1c0-0.2,0-0.3,0-0.5c0-0.4-0.1-0.7-0.4-0.9c-0.3-0.2-0.7-0.4-1.2-0.4
			C61.9,44.2,61.3,44.5,60.8,45.2L60.8,45.2z"/>
		<polygon class="st14" points="72.5,44.3 71.6,44.3 70.6,49.6 71.4,49.6 72.5,44.3 		"/>
		<path class="st14" d="M68.5,44.7c0.3,0,0.6,0.2,0.8,0.6c0.1,0.3,0.2,0.6,0.2,0.9c0,0.6-0.1,1.2-0.3,1.8c-0.3,0.8-0.8,1.2-1.4,1.2
			c-0.6,0-0.8-0.5-0.8-1.4c0-0.7,0.1-1.4,0.3-2C67.6,45.1,68,44.7,68.5,44.7L68.5,44.7z M69.7,45.2c-0.3-0.6-0.7-1-1.4-1
			c-0.8,0-1.4,0.4-1.8,1.2c-0.4,0.7-0.6,1.5-0.6,2.4c0,0.6,0.1,1,0.3,1.4c0.2,0.4,0.6,0.6,1.1,0.6c0.7,0,1.3-0.4,1.6-1l0,0l-0.2,0.9
			h0.8l1-5.3h-0.8L69.7,45.2L69.7,45.2L69.7,45.2z"/>
		<g>
			<path class="st18" d="M57.2,43c-3.1-3.7-11.8-2.5-11.8,1.4c0,1.5,1.7,2.8,4.1,3.2c3.2,0.6,2.5,3.1,0.5,3
				c-3.9-0.1-7.1-2.5-7.1-5.4C43,39.4,54,38,57.2,43L57.2,43z"/>
			<linearGradient id="SVGID_1_" gradientUnits="userSpaceOnUse" x1="44.1238" y1="47.9656" x2="58.3519" y2="47.9656">
				<stop  offset="0.3011" style="stop-color:#262424"/>
				<stop  offset="0.6187" style="stop-color:#282626"/>
				<stop  offset="0.7417" style="stop-color:#2E2D2D"/>
				<stop  offset="0.8309" style="stop-color:#3A3839"/>
				<stop  offset="0.9039" style="stop-color:#4A494A"/>
				<stop  offset="0.9661" style="stop-color:#5F5F60"/>
				<stop  offset="1" style="stop-color:#6E6E70"/>
			</linearGradient>
			<path class="st19" d="M44.1,50.3c3.1,3.7,11.8,2.5,11.8-1.4c0-1.5-1.7-2.8-4.1-3.2c-3.2-0.6-2.5-3.1-0.5-3
				c3.9,0.1,7.1,2.5,7.1,5.4C58.4,53.9,47.4,55.2,44.1,50.3L44.1,50.3z"/>
		</g>
	</g>
	<g>
		<rect x="23.8" y="150.7" class="st48" width="118.6" height="12.4"/>
		<text transform="matrix(1 0 0 1 23.82 158.6782)" class="st49 st50">Customer Support</text>
	</g>
	<rect x="20.1" y="56.5" class="st51" width="127.2" height="67.5"/>
	<rect x="24" y="68.5" class="st48" width="119.1" height="47.7"/>
	<text transform="matrix(1 0 0 1 24.0343 75.3701)"><tspan x="0" y="0" class="st49 st52">Ask David...not Goliath</tspan><tspan x="0" y="9.5" class="st53 st54">Lorem ipsum dolor sit amet, consectetur </tspan><tspan x="0" y="16.7" class="st53 st54">adipiscing elit, sed do eiusmod tempor </tspan><tspan x="0" y="23.8" class="st53 st54">incididunt ut labore et dolore magna </tspan><tspan x="0" y="31" class="st53 st54">aliqua. Ut enim ad minim veniam, quis </tspan><tspan x="0" y="38.1" class="st53 st54">nostrud exercitation ullamco laboris nisi.</tspan></text>
	<circle class="st55" cx="75.4" cy="128.4" r="2"/>
	<path class="st55" d="M81,130.6c-1.2,0-2.2-1-2.2-2.2c0-1.2,1-2.2,2.2-2.2c1.2,0,2.2,1,2.2,2.2C83.2,129.6,82.2,130.6,81,130.6z
		 M81,126.6c-1,0-1.8,0.8-1.8,1.8c0,1,0.8,1.8,1.8,1.8c1,0,1.8-0.8,1.8-1.8C82.8,127.4,82,126.6,81,126.6z"/>
	<path class="st55" d="M86.5,130.6c-1.2,0-2.2-1-2.2-2.2c0-1.2,1-2.2,2.2-2.2s2.2,1,2.2,2.2C88.7,129.6,87.7,130.6,86.5,130.6z
		 M86.5,126.6c-1,0-1.8,0.8-1.8,1.8c0,1,0.8,1.8,1.8,1.8c1,0,1.8-0.8,1.8-1.8C88.3,127.4,87.5,126.6,86.5,126.6z"/>
	<path class="st55" d="M92.1,130.6c-1.2,0-2.2-1-2.2-2.2c0-1.2,1-2.2,2.2-2.2s2.2,1,2.2,2.2C94.3,129.6,93.3,130.6,92.1,130.6z
		 M92.1,126.6c-1,0-1.8,0.8-1.8,1.8c0,1,0.8,1.8,1.8,1.8c1,0,1.8-0.8,1.8-1.8C93.9,127.4,93.1,126.6,92.1,126.6z"/>
	<path d="M139.6,181.8H27.9c-2.3,0-4.2-1.9-4.2-4.2v-10c0-2.3,1.9-4.2,4.2-4.2h111.7c2.3,0,4.2,1.9,4.2,4.2v10
		C143.8,179.9,141.9,181.8,139.6,181.8z M27.9,163.8c-2.1,0-3.8,1.7-3.8,3.8v10c0,2.1,1.7,3.8,3.8,3.8h111.7c2.1,0,3.8-1.7,3.8-3.8
		v-10c0-2.1-1.7-3.8-3.8-3.8H27.9z"/>
	<path d="M139.8,205.5H28.2c-2.3,0-4.2-1.9-4.2-4.2v-10c0-2.3,1.9-4.2,4.2-4.2h111.7c2.3,0,4.2,1.9,4.2,4.2v10
		C144,203.6,142.1,205.5,139.8,205.5z M28.2,187.5c-2.1,0-3.8,1.7-3.8,3.8v10c0,2.1,1.7,3.8,3.8,3.8h111.7c2.1,0,3.8-1.7,3.8-3.8
		v-10c0-2.1-1.7-3.8-3.8-3.8H28.2z"/>
	<g>
		<path d="M36.2,175.5l0-0.1c-0.1-0.3-0.5-0.7-0.8-0.8l-1.3-0.3c-0.3-0.1-0.8,0-1.1,0.3l-0.5,0.5c-1.7-0.5-3-1.8-3.5-3.5l0.5-0.5
			c0.3-0.3,0.4-0.7,0.3-1.1l-0.3-1.3c-0.1-0.3-0.5-0.7-0.8-0.8l-0.1,0c-0.3-0.1-0.8,0-1.1,0.3l-0.7,0.7c-0.1,0.1-0.2,0.5-0.2,0.5
			c0,2.2,0.8,4.3,2.4,5.9c1.6,1.6,3.7,2.4,5.9,2.4c0,0,0.4-0.1,0.5-0.2l0.7-0.7C36.2,176.3,36.3,175.8,36.2,175.5z"/>
	</g>
	<path d="M31.9,192.4h-5.4v6.7h5.4h5.4v-6.7H31.9z M31.9,193.1h3.8l-3.8,2.7l-3.8-2.7H31.9z M27.2,193.2l2.3,1.6l-2.3,2.5V193.2z
		 M31.9,198.4H28l1.9-3.3l2,1.3l2-1.3l1.9,3.3H31.9z M36.6,197.3l-2.3-2.5l2.3-1.6V197.3z"/>
	<rect x="35.4" y="169.8" class="st48" width="109" height="11.8"/>
	<text transform="matrix(1.0583 0 0 1 38.4465 175.7827)" class="st45 st56">Toll Free: 1-888-513-4464</text>
	<rect x="36.2" y="193.2" class="st48" width="109" height="11.8"/>
	<text transform="matrix(0.9856 0 0 1 42.5905 199.2563)" class="st45 st56">service@claimsecure.com</text>
	<g>
		<rect x="136.7" y="163.4" class="st55" width="0.4" height="0.4"/>
		<path class="st55" d="M137.1,162.6h-0.4v-0.8h0.4V162.6z M137.1,161h-0.4v-0.8h0.4V161z M137.1,159.4h-0.4v-0.8h0.4V159.4z
			 M137.1,157.8h-0.4V157h0.4V157.8z M137.1,156.2h-0.4v-0.8h0.4V156.2z M137.1,154.6h-0.4v-0.8h0.4V154.6z M137.1,153.1h-0.4v-0.8
			h0.4V153.1z M137.1,151.5h-0.4v-0.8h0.4V151.5z M137.1,149.9h-0.4v-0.8h0.4V149.9z M137.1,148.3h-0.4v-0.8h0.4V148.3z
			 M137.1,146.7h-0.4v-0.8h0.4V146.7z M137.1,145.1h-0.4v-0.8h0.4V145.1z M137.1,143.5h-0.4v-0.8h0.4V143.5z M137.1,141.9h-0.4v-0.8
			h0.4V141.9z"/>
		<rect x="136.7" y="139.9" class="st55" width="0.4" height="0.4"/>
	</g>
	<g>
		<rect x="89.3" y="136.1" class="st48" width="54.8" height="5.3"/>
		<text transform="matrix(1.0583 0 0 1 99.0534 139.2886)" class="st35 st53 st57">Call to action buttons.</text>
	</g>
	<path d="M83.7,235.7c-15.7,0-28.7,12-29.9,27.2h0.4c1.2-14.9,13.9-26.7,29.3-26.8v27.3h0.3v-27.3c15.4,0.1,28.1,11.9,29.3,26.8h0.4
		C112.3,247.7,99.4,235.7,83.7,235.7z"/>
	<g>
		<circle class="st58" cx="35.2" cy="50.9" r="11"/>
		<circle class="st59" cx="35.2" cy="50.9" r="4.7"/>
		<path class="st60" d="M29,65.1c0,0,0.2-0.4,1.1-0.4s3.1,2,3.9,4c0.4,1,0.1,1.6,0.3,2.1c0.1,0.2,0.4,1.1,0.6,1.9
			c0.3,1.2,0.6,2.2,0.8,2.2c0.3,0.1,1.3,0,1.7-1.9c0.4-1.9,0.8-6.1,0.6-8.1c-0.3-2-2.4-6.4-2.9-8.3s-1-3.5-1.1-4.9s0.7-2.2,1.4-2.2
			s1.2-0.2,2.2,1.5c1,1.6,2.8,4.7,3.3,5.7c0.5,1,0.6,1.7,0.8,1.7c0.1,0,1.4-1.4,2-2s1.5-1.3,2.2-1.3c0.8-0.1,2.8,0.4,3.2,4.6
			c0,0,0.4-0.1,1.1,0.1c0.7,0.2,1.8,1.4,2.4,3.8c0,0,0.3-0.2,0.9-0.2s1.4,0.5,2,1.7c0.6,1.2,0.6,1.9,1.1,3.1
			c0.5,1.2,0.8,1.3,0.9,1.9c0.1,0.6,0.4,5.3,0.4,7.6s-0.1,3.8,0.1,5c0.1,0.9,1.5,3,1.7,3.5c0.2,0.5-0.3,2.5-1.1,3.2
			c-0.8,0.7-3.8,2.9-6.4,3.8c-2.6,0.8-5.1,0.9-6.2,0.4s-2-1.6-2.6-2.6s-0.8-1.6-1.3-2.2C41.4,88,40,87.7,38.9,87
			c-1-0.5-7.2-5.6-7.6-6.6s-0.6-1.9-1.4-4.8c-0.7-2.4-1.2-3.2-1.1-4.1c0.1-1.2,0.4-1.7,0.4-2.5c-0.1-0.8-0.5-1.6-0.5-2.1
			C28.6,66.4,28.6,65.6,29,65.1z"/>
	</g>
	<g>
		<path class="st24" d="M83.5,267.5c-6.4,0-11.5,5.2-11.5,11.5c0,6.4,5.2,11.5,11.5,11.5c6.4,0,11.5-5.2,11.5-11.5
			C95,272.7,89.8,267.5,83.5,267.5z M83.5,289.6c-5.8,0-10.5-4.7-10.5-10.5s4.7-10.5,10.5-10.5c5.8,0,10.5,4.7,10.5,10.5
			S89.2,289.6,83.5,289.6z"/>
		<circle class="st24" cx="83.5" cy="10.1" r="1.7"/>
		<circle class="st24" cx="60.8" cy="19.8" r="2.6"/>
		<path class="st24" d="M93.7,21H73.3c-0.7,0-1.2-0.5-1.2-1.2v-0.1c0-0.7,0.5-1.2,1.2-1.2h20.4c0.7,0,1.2,0.5,1.2,1.2v0.1
			C94.9,20.5,94.4,21,93.7,21z"/>
		<path class="st24" d="M157,64h-1.2V20.8C155.8,9.3,146.5,0,135,0H31.7C20.2,0,10.9,9.3,10.9,20.8v17.3H10v12.1h0.9v13.9H10v22.2
			h0.9v4.9H10v22.3h0.9v165.7c0,11.5,9.3,20.8,20.8,20.8H135c11.5,0,20.8-9.3,20.8-20.8V86.4h1.2V64z M152.1,279.5
			c0,9.1-7.4,16.6-16.6,16.6H31.2c-9.1,0-16.6-7.4-16.6-16.6v-259c0-9.1,7.4-16.6,16.6-16.6h104.3c9.1,0,16.6,7.4,16.6,16.6V279.5z"
			/>
		<path class="st23" d="M147.5,263.4H19.6V36.2h127.9V263.4z M20.1,262.9h126.8V36.7H20.1V262.9z"/>
	</g>
</g>
<g>
	<g>
		<defs>
			<rect id="SVGID_9_" x="218.2" y="36.6" width="127.5" height="263.2"/>
		</defs>
		<clipPath id="SVGID_2_">
			<use xlink:href="#SVGID_9_"  style="overflow:visible;"/>
		</clipPath>
		<g style="clip-path:url(#SVGID_2_);">
			<rect x="281.8" y="212.1" class="st5" width="19.9" height="35.4"/>
			<path d="M301.9,247.7h-20.3v-35.8h20.3V247.7z M282,247.3h19.5v-35H282V247.3z"/>
		</g>
		<g style="clip-path:url(#SVGID_2_);">
			<g>
				<rect x="218.2" y="36.6" class="st35" width="89.5" height="35.5"/>
				<rect x="218.2" y="71.5" class="st35" width="109" height="35.5"/>
				<rect x="218.2" y="106.5" class="st35" width="109" height="35.5"/>
				<rect x="218.2" y="141.1" class="st35" width="109" height="121.8"/>
				<g>
					<text transform="matrix(0.999 0 0 1 223.2319 86.6626)"><tspan x="0" y="0" class="st5 st45 st62">Plan</tspan><tspan x="0" y="12.4" class="st5 st45 st62">Management</tspan></text>
				</g>
				<g>
					<text transform="matrix(0.999 0 0 1 223.2319 120.3105)"><tspan x="0" y="0" class="st5 st45 st62">Risk</tspan><tspan x="0" y="12.4" class="st5 st45 st62">Management</tspan></text>
				</g>
				<g>
					<text transform="matrix(0.999 0 0 1 223.2319 155.9434)" class="st5 st45 st62">eProfile</text>
					<text transform="matrix(0.5824 0 0 0.583 258.2387 152.5015)" class="st5 st45 st62">TM</text>
					<text transform="matrix(0.999 0 0 1 223.2319 168.3457)" class="st5 st45 st62">Services</text>
				</g>
				<g>
					<text transform="matrix(0.999 0 0 1 223.2319 192.2925)"><tspan x="0" y="0" class="st5 st45 st62">Cost Containment</tspan><tspan x="0" y="12.4" class="st5 st45 st62">Services</tspan></text>
				</g>
				<g>
					<text transform="matrix(0.999 0 0 1 223.2319 227.7539)"><tspan x="0" y="0" class="st5 st45 st62">Download</tspan><tspan x="0" y="12.4" class="st5 st45 st62">Forms</tspan></text>
				</g>
				<g>
					<text transform="matrix(0.999 0 0 1 223.2319 51.3784)"><tspan x="0" y="0" class="st5 st45 st62">Claims </tspan><tspan x="0" y="12.4" class="st5 st45 st62">Management</tspan></text>
				</g>
				<rect x="307.7" y="36.6" class="st36" width="19.5" height="36.8"/>
			</g>
			<g>
				<path class="st5" d="M319.8,124.6c0,0-0.1,0-0.1-0.1l-4.8-4.5c-0.1-0.1-0.1-0.2,0-0.3c0.1-0.1,0.2-0.1,0.3,0l4.8,4.5
					c0.1,0.1,0.1,0.2,0,0.3C319.9,124.6,319.9,124.6,319.8,124.6z"/>
				<path class="st5" d="M315,129.5c-0.1,0-0.1,0-0.1-0.1c-0.1-0.1-0.1-0.2,0-0.3l4.8-4.8c0.1-0.1,0.2-0.1,0.3,0
					c0.1,0.1,0.1,0.2,0,0.3l-4.8,4.8C315.1,129.4,315.1,129.5,315,129.5z"/>
			</g>
			<g>
				<path class="st5" d="M319.8,91c0,0-0.1,0-0.1-0.1l-4.8-4.5c-0.1-0.1-0.1-0.2,0-0.3c0.1-0.1,0.2-0.1,0.3,0l4.8,4.5
					c0.1,0.1,0.1,0.2,0,0.3C319.9,90.9,319.9,91,319.8,91z"/>
				<path class="st5" d="M315,95.8c-0.1,0-0.1,0-0.1-0.1c-0.1-0.1-0.1-0.2,0-0.3l4.8-4.8c0.1-0.1,0.2-0.1,0.3,0
					c0.1,0.1,0.1,0.2,0,0.3l-4.8,4.8C315.1,95.8,315.1,95.8,315,95.8z"/>
			</g>
			<g>
				<path class="st5" d="M319.8,55.5c0,0-0.1,0-0.1-0.1l-4.8-4.5c-0.1-0.1-0.1-0.2,0-0.3c0.1-0.1,0.2-0.1,0.3,0l4.8,4.5
					c0.1,0.1,0.1,0.2,0,0.3C319.9,55.5,319.9,55.5,319.8,55.5z"/>
				<path class="st5" d="M315,60.4c-0.1,0-0.1,0-0.1-0.1c-0.1-0.1-0.1-0.2,0-0.3l4.8-4.8c0.1-0.1,0.2-0.1,0.3,0
					c0.1,0.1,0.1,0.2,0,0.3l-4.8,4.8C315.1,60.4,315.1,60.4,315,60.4z"/>
			</g>
			<g>
				<path class="st5" d="M319.8,159.1c0,0-0.1,0-0.1-0.1l-4.8-4.5c-0.1-0.1-0.1-0.2,0-0.3c0.1-0.1,0.2-0.1,0.3,0l4.8,4.5
					c0.1,0.1,0.1,0.2,0,0.3C319.9,159.1,319.9,159.1,319.8,159.1z"/>
				<path class="st5" d="M315,164c-0.1,0-0.1,0-0.1-0.1c-0.1-0.1-0.1-0.2,0-0.3l4.8-4.8c0.1-0.1,0.2-0.1,0.3,0
					c0.1,0.1,0.1,0.2,0,0.3l-4.8,4.8C315.1,164,315.1,164,315,164z"/>
			</g>
			<g>
				<path class="st5" d="M319.8,194.6c0,0-0.1,0-0.1-0.1l-4.8-4.5c-0.1-0.1-0.1-0.2,0-0.3c0.1-0.1,0.2-0.1,0.3,0l4.8,4.5
					c0.1,0.1,0.1,0.2,0,0.3C319.9,194.6,319.9,194.6,319.8,194.6z"/>
				<path class="st5" d="M315,199.4c-0.1,0-0.1,0-0.1-0.1c-0.1-0.1-0.1-0.2,0-0.3l4.8-4.8c0.1-0.1,0.2-0.1,0.3,0
					c0.1,0.1,0.1,0.2,0,0.3l-4.8,4.8C315.1,199.4,315.1,199.4,315,199.4z"/>
			</g>
			<rect x="327.2" y="56.5" class="st51" width="19.9" height="67.6"/>
			<path d="M333.8,68.5h1.6l2.4,6.9h-1.6l-0.5-1.4h-2.5l-0.5,1.4h-1.5L333.8,68.5z M333.7,72.8h1.8l-0.9-2.7L333.7,72.8z"/>
			<path d="M339.6,73.7c0,0.2,0.1,0.4,0.2,0.5c0.2,0.2,0.5,0.3,0.9,0.3c0.3,0,0.5,0,0.6-0.1s0.2-0.2,0.2-0.3c0-0.1-0.1-0.3-0.2-0.3
				s-0.6-0.2-1.4-0.4c-0.6-0.1-1-0.3-1.2-0.5c-0.2-0.2-0.4-0.5-0.4-0.9c0-0.5,0.2-0.9,0.6-1.2c0.4-0.3,0.9-0.5,1.6-0.5
				c0.6,0,1.2,0.1,1.6,0.4c0.4,0.3,0.6,0.7,0.7,1.3h-1.3c0-0.2-0.1-0.3-0.1-0.4c-0.1-0.2-0.4-0.3-0.7-0.3c-0.3,0-0.5,0-0.6,0.1
				c-0.1,0.1-0.2,0.2-0.2,0.3c0,0.2,0.1,0.3,0.2,0.3c0.1,0.1,0.6,0.2,1.4,0.4c0.5,0.1,0.9,0.3,1.2,0.6c0.3,0.3,0.4,0.6,0.4,1
				c0,0.5-0.2,0.9-0.6,1.2c-0.4,0.3-1,0.5-1.7,0.5c-0.8,0-1.4-0.2-1.8-0.5c-0.4-0.3-0.6-0.8-0.6-1.3H339.6z"/>
			<path d="M343.9,68.5h1.3v3.7l1.7-1.9h1.7l-1.8,1.9l1.9,3.2H347l-1.2-2.2l-0.5,0.6v1.6h-1.3V68.5z"/>
			<path d="M331.6,84.9v-4.6h0.4v4.2h2.5v0.4H331.6z"/>
			<path d="M336.4,85c-0.2,0-0.4,0-0.6-0.1s-0.3-0.2-0.5-0.3c-0.1-0.1-0.2-0.3-0.3-0.5c-0.1-0.2-0.1-0.5-0.1-0.8
				c0-0.2,0-0.5,0.1-0.7c0.1-0.2,0.2-0.4,0.3-0.6c0.1-0.2,0.3-0.3,0.5-0.4c0.2-0.1,0.4-0.1,0.7-0.1c0.3,0,0.5,0,0.7,0.1
				c0.2,0.1,0.3,0.2,0.5,0.4s0.2,0.3,0.3,0.6c0.1,0.2,0.1,0.4,0.1,0.7c0,0.3,0,0.5-0.1,0.7c-0.1,0.2-0.2,0.4-0.3,0.5
				c-0.1,0.2-0.3,0.3-0.5,0.4C336.8,85,336.6,85,336.4,85z M337.5,83.3c0-0.2,0-0.4-0.1-0.5c0-0.2-0.1-0.3-0.2-0.4
				c-0.1-0.1-0.2-0.2-0.3-0.3c-0.1-0.1-0.3-0.1-0.5-0.1c-0.2,0-0.4,0-0.5,0.1c-0.1,0.1-0.3,0.2-0.3,0.3c-0.1,0.1-0.2,0.3-0.2,0.4
				c0,0.2-0.1,0.3-0.1,0.5c0,0.2,0,0.4,0.1,0.6c0,0.2,0.1,0.3,0.2,0.4c0.1,0.1,0.2,0.2,0.3,0.3c0.1,0.1,0.3,0.1,0.5,0.1
				c0.2,0,0.4,0,0.5-0.1c0.1-0.1,0.3-0.2,0.3-0.3c0.1-0.1,0.2-0.3,0.2-0.4C337.5,83.6,337.5,83.4,337.5,83.3z"/>
			<path d="M339,84.9h-0.4v-3.3h0.4v0.6h0c0.1-0.3,0.2-0.4,0.4-0.6c0.2-0.1,0.4-0.2,0.7-0.2v0.4c-0.2,0-0.4,0-0.5,0.1
				c-0.1,0.1-0.3,0.2-0.3,0.3c-0.1,0.1-0.1,0.3-0.2,0.4c0,0.2,0,0.3,0,0.5V84.9z"/>
			<path d="M340.9,83.4c0,0.2,0,0.3,0.1,0.5c0,0.2,0.1,0.3,0.2,0.4c0.1,0.1,0.2,0.2,0.3,0.3c0.1,0.1,0.3,0.1,0.5,0.1
				c0.2,0,0.5-0.1,0.6-0.2c0.2-0.1,0.3-0.3,0.4-0.6h0.4c0,0.2-0.1,0.3-0.2,0.4c-0.1,0.1-0.2,0.3-0.3,0.3c-0.1,0.1-0.3,0.2-0.4,0.2
				c-0.2,0.1-0.3,0.1-0.5,0.1c-0.3,0-0.5,0-0.7-0.1c-0.2-0.1-0.3-0.2-0.5-0.4c-0.1-0.2-0.2-0.3-0.3-0.5c-0.1-0.2-0.1-0.4-0.1-0.7
				s0-0.5,0.1-0.7c0.1-0.2,0.2-0.4,0.3-0.6c0.1-0.2,0.3-0.3,0.5-0.4c0.2-0.1,0.4-0.1,0.6-0.1c0.5,0,0.8,0.2,1.1,0.5
				c0.3,0.3,0.4,0.8,0.4,1.4H340.9z M343,83c0-0.2,0-0.3-0.1-0.5c0-0.1-0.1-0.3-0.2-0.4c-0.1-0.1-0.2-0.2-0.3-0.2
				c-0.1-0.1-0.3-0.1-0.5-0.1c-0.2,0-0.3,0-0.4,0.1c-0.1,0.1-0.2,0.1-0.3,0.3c-0.1,0.1-0.2,0.2-0.2,0.4c-0.1,0.1-0.1,0.3-0.1,0.4
				H343z"/>
			<path d="M344.5,84.9h-0.4v-3.3h0.4v0.5h0c0.1-0.2,0.2-0.3,0.4-0.4c0.2-0.1,0.4-0.1,0.6-0.1c0.2,0,0.3,0,0.4,0.1s0.2,0.1,0.3,0.1
				s0.1,0.1,0.2,0.2c0,0.1,0.1,0.2,0.1,0.2c0.1-0.2,0.3-0.4,0.4-0.5c0.2-0.1,0.4-0.2,0.6-0.2c0.2,0,0.4,0,0.5,0.1
				c0.1,0.1,0.2,0.2,0.3,0.3c0.1,0.1,0.1,0.3,0.1,0.4c0,0.2,0,0.3,0,0.5v2.1h-0.4v-2.3c0-0.2-0.1-0.4-0.1-0.6
				c-0.1-0.1-0.3-0.2-0.6-0.2c-0.1,0-0.3,0-0.4,0.1c-0.1,0.1-0.2,0.2-0.3,0.3c0,0.1-0.1,0.1-0.1,0.2c0,0.1,0,0.2-0.1,0.2
				c0,0.1,0,0.2,0,0.2c0,0.1,0,0.2,0,0.2v1.8h-0.4v-2.3c0-0.2,0-0.4-0.1-0.6c-0.1-0.1-0.3-0.2-0.6-0.2c-0.1,0-0.3,0-0.4,0.1
				c-0.1,0.1-0.2,0.2-0.3,0.3c0,0.1-0.1,0.1-0.1,0.2c0,0.1-0.1,0.2-0.1,0.2c0,0.1,0,0.2,0,0.2c0,0.1,0,0.2,0,0.2V84.9z"/>
			<path d="M333.1,90.1c0.1,0,0.2,0,0.3,0c0.1,0,0.2,0,0.2-0.1c0.1,0,0.1-0.1,0.1-0.1c0-0.1,0-0.1,0-0.2c0-0.2-0.1-0.4-0.2-0.5
				c-0.1-0.1-0.3-0.2-0.6-0.2c-0.1,0-0.3,0-0.4,0c-0.1,0-0.2,0.1-0.3,0.1c-0.1,0.1-0.2,0.1-0.2,0.2c-0.1,0.1-0.1,0.2-0.1,0.4h-0.4
				c0-0.2,0.1-0.4,0.1-0.5c0.1-0.1,0.2-0.3,0.3-0.3c0.1-0.1,0.3-0.2,0.4-0.2c0.2,0,0.3-0.1,0.5-0.1c0.2,0,0.3,0,0.5,0.1
				c0.1,0,0.3,0.1,0.4,0.2c0.1,0.1,0.2,0.2,0.3,0.3c0.1,0.1,0.1,0.3,0.1,0.5v1.8c0,0.1,0,0.2,0.1,0.3c0.1,0,0.2,0,0.3,0v0.3
				c0,0-0.1,0-0.1,0c-0.1,0-0.1,0-0.2,0c-0.1,0-0.1,0-0.2,0c-0.1,0-0.1,0-0.2-0.1c0,0-0.1-0.1-0.1-0.1s0-0.1,0-0.1
				c0-0.1,0-0.1,0-0.2c-0.2,0.2-0.3,0.3-0.6,0.4c-0.2,0.1-0.4,0.1-0.7,0.1c-0.1,0-0.3,0-0.4-0.1c-0.1,0-0.3-0.1-0.4-0.2
				c-0.1-0.1-0.2-0.2-0.2-0.3c-0.1-0.1-0.1-0.3-0.1-0.4c0-0.6,0.4-0.9,1.2-1L333.1,90.1z M333.7,90.3c-0.2,0.1-0.3,0.1-0.5,0.1
				c-0.2,0-0.3,0-0.5,0.1c-0.3,0-0.5,0.1-0.7,0.2c-0.2,0.1-0.2,0.3-0.2,0.5c0,0.1,0,0.2,0.1,0.3c0,0.1,0.1,0.1,0.2,0.2
				c0.1,0,0.1,0.1,0.2,0.1c0.1,0,0.2,0,0.3,0c0.2,0,0.3,0,0.4-0.1c0.1,0,0.3-0.1,0.4-0.2c0.1-0.1,0.2-0.2,0.3-0.3
				c0.1-0.1,0.1-0.3,0.1-0.4V90.3z"/>
			<path d="M337.6,87.5h0.4v4.6h-0.4v-0.6h0c-0.1,0.1-0.1,0.2-0.2,0.3c-0.1,0.1-0.2,0.2-0.3,0.2c-0.1,0.1-0.2,0.1-0.3,0.1
				c-0.1,0-0.2,0-0.3,0c-0.3,0-0.5,0-0.7-0.1c-0.2-0.1-0.3-0.2-0.5-0.4c-0.1-0.2-0.2-0.3-0.3-0.6s-0.1-0.4-0.1-0.7
				c0-0.2,0-0.4,0.1-0.7c0.1-0.2,0.1-0.4,0.3-0.6c0.1-0.2,0.3-0.3,0.5-0.4c0.2-0.1,0.4-0.1,0.7-0.1c0.2,0,0.5,0.1,0.7,0.2
				c0.2,0.1,0.4,0.3,0.5,0.5V87.5z M337.6,90.4c0-0.2,0-0.4-0.1-0.5c-0.1-0.2-0.1-0.3-0.2-0.4c-0.1-0.1-0.2-0.2-0.3-0.3
				c-0.1-0.1-0.3-0.1-0.5-0.1c-0.2,0-0.4,0-0.5,0.1c-0.1,0.1-0.3,0.2-0.4,0.3c-0.1,0.1-0.2,0.3-0.2,0.5c0,0.2-0.1,0.4-0.1,0.6
				c0,0.2,0,0.4,0.1,0.6c0.1,0.2,0.1,0.3,0.2,0.4c0.1,0.1,0.2,0.2,0.4,0.3c0.1,0.1,0.3,0.1,0.4,0.1c0.2,0,0.3,0,0.5-0.1
				c0.1-0.1,0.3-0.2,0.3-0.3c0.1-0.1,0.2-0.3,0.2-0.4C337.6,90.8,337.6,90.6,337.6,90.4z"/>
			<path d="M339,88.1v-0.6h0.4v0.6H339z M339,92.1v-3.3h0.4v3.3H339z"/>
			<path d="M340.8,93.4h-0.4v-4.6h0.4v0.6h0c0.1-0.1,0.1-0.2,0.2-0.3c0.1-0.1,0.2-0.2,0.3-0.2c0.1-0.1,0.2-0.1,0.3-0.1
				c0.1,0,0.2,0,0.3,0c0.3,0,0.5,0,0.7,0.1c0.2,0.1,0.3,0.2,0.5,0.4c0.1,0.2,0.2,0.3,0.3,0.6c0.1,0.2,0.1,0.4,0.1,0.7
				c0,0.2,0,0.4-0.1,0.7c-0.1,0.2-0.1,0.4-0.3,0.6c-0.1,0.2-0.3,0.3-0.5,0.4c-0.2,0.1-0.4,0.1-0.7,0.1c-0.2,0-0.5-0.1-0.7-0.2
				c-0.2-0.1-0.4-0.3-0.5-0.5V93.4z M340.8,90.4c0,0.2,0,0.4,0.1,0.5c0.1,0.2,0.1,0.3,0.2,0.4c0.1,0.1,0.2,0.2,0.3,0.3
				c0.1,0.1,0.3,0.1,0.5,0.1c0.2,0,0.4,0,0.5-0.1c0.1-0.1,0.3-0.2,0.4-0.3c0.1-0.1,0.2-0.3,0.2-0.5c0-0.2,0.1-0.4,0.1-0.6
				c0-0.2,0-0.4-0.1-0.6c-0.1-0.2-0.1-0.3-0.2-0.4c-0.1-0.1-0.2-0.2-0.4-0.3c-0.1-0.1-0.3-0.1-0.4-0.1c-0.2,0-0.3,0-0.5,0.1
				c-0.1,0.1-0.3,0.2-0.3,0.3c-0.1,0.1-0.2,0.3-0.2,0.4C340.8,90,340.8,90.2,340.8,90.4z"/>
			<path d="M344.3,88.1v-0.6h0.4v0.6H344.3z M344.3,92.1v-3.3h0.4v3.3H344.3z"/>
			<path d="M345.9,91c0.1,0.3,0.2,0.5,0.3,0.6c0.2,0.1,0.4,0.2,0.7,0.2c0.1,0,0.3,0,0.4-0.1c0.1,0,0.2-0.1,0.3-0.1
				c0.1-0.1,0.1-0.1,0.1-0.2c0-0.1,0.1-0.1,0.1-0.2c0-0.2-0.1-0.3-0.2-0.4c-0.1-0.1-0.2-0.1-0.4-0.2c-0.2,0-0.3-0.1-0.5-0.1
				c-0.2,0-0.4-0.1-0.5-0.1c-0.2-0.1-0.3-0.2-0.4-0.3c-0.1-0.1-0.2-0.3-0.2-0.5c0-0.3,0.1-0.5,0.3-0.7c0.2-0.2,0.5-0.3,0.9-0.3
				c0.4,0,0.6,0.1,0.9,0.2c0.2,0.2,0.4,0.4,0.4,0.8h-0.4c0-0.3-0.1-0.4-0.3-0.5c-0.2-0.1-0.4-0.2-0.6-0.2c-0.2,0-0.4,0.1-0.6,0.2
				c-0.1,0.1-0.2,0.2-0.2,0.4c0,0.1,0.1,0.3,0.2,0.3c0.1,0.1,0.2,0.1,0.4,0.2c0.2,0,0.3,0.1,0.5,0.1c0.2,0,0.4,0.1,0.5,0.2
				c0.2,0.1,0.3,0.2,0.4,0.3c0.1,0.1,0.2,0.3,0.2,0.5c0,0.2,0,0.3-0.1,0.4c-0.1,0.1-0.2,0.2-0.3,0.3c-0.1,0.1-0.3,0.1-0.4,0.2
				c-0.2,0-0.3,0.1-0.5,0.1c-0.2,0-0.4,0-0.5-0.1c-0.2-0.1-0.3-0.1-0.4-0.2s-0.2-0.2-0.2-0.4c-0.1-0.1-0.1-0.3-0.1-0.4H345.9z"/>
			<path d="M331.6,95.2v-0.6h0.4v0.6H331.6z M331.6,99.2v-3.3h0.4v3.3H331.6z"/>
			<path d="M333.4,99.2H333v-3.3h0.4v0.5c0.2-0.2,0.3-0.3,0.5-0.4c0.2-0.1,0.4-0.2,0.6-0.2c0.2,0,0.4,0,0.6,0.1
				c0.2,0.1,0.3,0.2,0.4,0.4c0.1,0.1,0.1,0.2,0.1,0.4c0,0.1,0,0.3,0,0.4v2.2h-0.4v-2.1c0-0.3-0.1-0.5-0.2-0.7
				c-0.1-0.1-0.3-0.2-0.7-0.2c-0.1,0-0.2,0-0.3,0.1c-0.1,0-0.2,0.1-0.3,0.1c-0.1,0.1-0.1,0.1-0.2,0.2s-0.1,0.2-0.1,0.2
				c0,0.1-0.1,0.2-0.1,0.3c0,0.1,0,0.2,0,0.3V99.2z"/>
			<path d="M338.8,97c-0.1-0.2-0.2-0.4-0.3-0.6c-0.2-0.1-0.4-0.2-0.6-0.2c-0.2,0-0.4,0-0.5,0.1c-0.1,0.1-0.3,0.2-0.3,0.3
				c-0.1,0.1-0.2,0.3-0.2,0.5c0,0.2-0.1,0.3-0.1,0.5c0,0.2,0,0.3,0.1,0.5c0,0.2,0.1,0.3,0.2,0.4c0.1,0.1,0.2,0.2,0.3,0.3
				c0.1,0.1,0.3,0.1,0.5,0.1c0.3,0,0.5-0.1,0.7-0.2c0.2-0.2,0.3-0.4,0.3-0.6h0.4c0,0.2-0.1,0.3-0.2,0.5c-0.1,0.2-0.2,0.3-0.3,0.4
				c-0.1,0.1-0.3,0.2-0.4,0.3c-0.2,0.1-0.3,0.1-0.6,0.1c-0.3,0-0.5,0-0.7-0.1c-0.2-0.1-0.3-0.2-0.5-0.4s-0.2-0.3-0.3-0.6
				c-0.1-0.2-0.1-0.4-0.1-0.7c0-0.2,0-0.4,0.1-0.7c0.1-0.2,0.2-0.4,0.3-0.6c0.1-0.2,0.3-0.3,0.5-0.4c0.2-0.1,0.4-0.1,0.7-0.1
				c0.4,0,0.7,0.1,0.9,0.3c0.2,0.2,0.4,0.5,0.4,0.9H338.8z"/>
			<path d="M340.1,95.2v-0.6h0.4v0.6H340.1z M340.1,99.2v-3.3h0.4v3.3H340.1z"/>
			<path d="M344,94.6h0.4v4.6H344v-0.6h0c-0.1,0.1-0.1,0.2-0.2,0.3c-0.1,0.1-0.2,0.2-0.3,0.2c-0.1,0.1-0.2,0.1-0.3,0.1
				c-0.1,0-0.2,0-0.3,0c-0.3,0-0.5,0-0.7-0.1c-0.2-0.1-0.3-0.2-0.5-0.4c-0.1-0.2-0.2-0.3-0.3-0.6s-0.1-0.4-0.1-0.7
				c0-0.2,0-0.4,0.1-0.7c0.1-0.2,0.1-0.4,0.3-0.6c0.1-0.2,0.3-0.3,0.5-0.4c0.2-0.1,0.4-0.1,0.7-0.1c0.2,0,0.5,0.1,0.7,0.2
				c0.2,0.1,0.4,0.3,0.5,0.5V94.6z M344,97.6c0-0.2,0-0.4-0.1-0.5c-0.1-0.2-0.1-0.3-0.2-0.4c-0.1-0.1-0.2-0.2-0.3-0.3
				c-0.1-0.1-0.3-0.1-0.5-0.1c-0.2,0-0.4,0-0.5,0.1c-0.1,0.1-0.3,0.2-0.4,0.3c-0.1,0.1-0.2,0.3-0.2,0.5c0,0.2-0.1,0.4-0.1,0.6
				c0,0.2,0,0.4,0.1,0.6c0.1,0.2,0.1,0.3,0.2,0.4c0.1,0.1,0.2,0.2,0.4,0.3c0.1,0.1,0.3,0.1,0.4,0.1c0.2,0,0.3,0,0.5-0.1
				c0.1-0.1,0.3-0.2,0.3-0.3c0.1-0.1,0.2-0.3,0.2-0.4C344,97.9,344,97.8,344,97.6z"/>
			<path d="M345.4,95.2v-0.6h0.4v0.6H345.4z M345.4,99.2v-3.3h0.4v3.3H345.4z"/>
			<path d="M333.1,104.5c0.1,0,0.2,0,0.3,0c0.1,0,0.2,0,0.2-0.1c0.1,0,0.1-0.1,0.1-0.1c0-0.1,0-0.1,0-0.2c0-0.2-0.1-0.4-0.2-0.5
				c-0.1-0.1-0.3-0.2-0.6-0.2c-0.1,0-0.3,0-0.4,0c-0.1,0-0.2,0.1-0.3,0.1c-0.1,0.1-0.2,0.1-0.2,0.2c-0.1,0.1-0.1,0.2-0.1,0.4h-0.4
				c0-0.2,0.1-0.4,0.1-0.5c0.1-0.1,0.2-0.3,0.3-0.3c0.1-0.1,0.3-0.2,0.4-0.2c0.2,0,0.3-0.1,0.5-0.1c0.2,0,0.3,0,0.5,0.1
				c0.1,0,0.3,0.1,0.4,0.2c0.1,0.1,0.2,0.2,0.3,0.3c0.1,0.1,0.1,0.3,0.1,0.5v1.8c0,0.1,0,0.2,0.1,0.3c0.1,0,0.2,0,0.3,0v0.3
				c0,0-0.1,0-0.1,0c-0.1,0-0.1,0-0.2,0c-0.1,0-0.1,0-0.2,0c-0.1,0-0.1,0-0.2-0.1c0,0-0.1-0.1-0.1-0.1s0-0.1,0-0.1
				c0-0.1,0-0.1,0-0.2c-0.2,0.2-0.3,0.3-0.6,0.4c-0.2,0.1-0.4,0.1-0.7,0.1c-0.1,0-0.3,0-0.4-0.1c-0.1,0-0.3-0.1-0.4-0.2
				c-0.1-0.1-0.2-0.2-0.2-0.3c-0.1-0.1-0.1-0.3-0.1-0.4c0-0.6,0.4-0.9,1.2-1L333.1,104.5z M333.7,104.6c-0.2,0.1-0.3,0.1-0.5,0.1
				c-0.2,0-0.3,0-0.5,0.1c-0.3,0-0.5,0.1-0.7,0.2c-0.2,0.1-0.2,0.3-0.2,0.5c0,0.1,0,0.2,0.1,0.3c0,0.1,0.1,0.1,0.2,0.2
				c0.1,0,0.1,0.1,0.2,0.1c0.1,0,0.2,0,0.3,0c0.2,0,0.3,0,0.4-0.1c0.1,0,0.3-0.1,0.4-0.2c0.1-0.1,0.2-0.2,0.3-0.3
				c0.1-0.1,0.1-0.3,0.1-0.4V104.6z"/>
			<path d="M335.2,106.4v-4.6h0.4v4.6H335.2z"/>
			<path d="M336.5,102.4v-0.6h0.4v0.6H336.5z M336.6,106.4v-3.3h0.4v3.3H336.6z"/>
			<path d="M340.5,103.1h0.4v4.6h-0.4v-1.8c-0.1,0.2-0.3,0.4-0.5,0.5c-0.2,0.1-0.4,0.2-0.7,0.2c-0.3,0-0.5,0-0.7-0.1
				c-0.2-0.1-0.3-0.2-0.5-0.4c-0.1-0.2-0.2-0.3-0.3-0.6c-0.1-0.2-0.1-0.4-0.1-0.7c0-0.2,0-0.5,0.1-0.7c0.1-0.2,0.1-0.4,0.3-0.6
				c0.1-0.2,0.3-0.3,0.5-0.4c0.2-0.1,0.4-0.1,0.7-0.1c0.1,0,0.2,0,0.3,0c0.1,0,0.2,0.1,0.3,0.1c0.1,0.1,0.2,0.1,0.3,0.2
				c0.1,0.1,0.2,0.2,0.2,0.3h0V103.1z M340.5,104.7c0-0.2,0-0.4-0.1-0.5c-0.1-0.2-0.1-0.3-0.2-0.4c-0.1-0.1-0.2-0.2-0.3-0.3
				c-0.1-0.1-0.3-0.1-0.5-0.1c-0.2,0-0.4,0-0.5,0.1c-0.1,0.1-0.3,0.2-0.4,0.3c-0.1,0.1-0.2,0.3-0.2,0.5c0,0.2-0.1,0.4-0.1,0.6
				c0,0.2,0,0.4,0.1,0.6s0.1,0.3,0.2,0.4c0.1,0.1,0.2,0.2,0.4,0.3c0.1,0.1,0.3,0.1,0.4,0.1c0.2,0,0.3,0,0.5-0.1
				c0.1-0.1,0.3-0.2,0.3-0.3c0.1-0.1,0.2-0.3,0.2-0.4C340.4,105.1,340.5,104.9,340.5,104.7z"/>
			<path d="M344,103.1h0.4v3.3H344v-0.5c-0.1,0.1-0.1,0.1-0.2,0.2c-0.1,0.1-0.1,0.1-0.2,0.2c-0.1,0.1-0.2,0.1-0.3,0.1
				c-0.1,0-0.2,0.1-0.4,0.1c-0.2,0-0.4,0-0.6-0.1c-0.1-0.1-0.3-0.1-0.4-0.3c-0.1-0.1-0.2-0.2-0.2-0.4c0-0.1-0.1-0.3-0.1-0.5v-2.2
				h0.4v2.2c0,0.3,0.1,0.5,0.2,0.7c0.1,0.2,0.3,0.2,0.6,0.2c0.2,0,0.3,0,0.4-0.1c0.1-0.1,0.2-0.1,0.3-0.3c0.1-0.1,0.2-0.2,0.2-0.4
				c0-0.2,0.1-0.3,0.1-0.5V103.1z"/>
			<path d="M346.9,104.5c0.1,0,0.2,0,0.3,0c0.1,0,0.2,0,0.2-0.1c0.1,0,0.1-0.1,0.1-0.1c0-0.1,0-0.1,0-0.2c0-0.2-0.1-0.4-0.2-0.5
				c-0.1-0.1-0.3-0.2-0.6-0.2c-0.1,0-0.3,0-0.4,0c-0.1,0-0.2,0.1-0.3,0.1c-0.1,0.1-0.2,0.1-0.2,0.2c-0.1,0.1-0.1,0.2-0.1,0.4h-0.4
				c0-0.2,0.1-0.4,0.1-0.5c0.1-0.1,0.2-0.3,0.3-0.3c0.1-0.1,0.3-0.2,0.4-0.2c0.2,0,0.3-0.1,0.5-0.1c0.2,0,0.3,0,0.5,0.1
				c0.1,0,0.3,0.1,0.4,0.2c0.1,0.1,0.2,0.2,0.3,0.3c0.1,0.1,0.1,0.3,0.1,0.5v1.8c0,0.1,0,0.2,0.1,0.3c0.1,0,0.2,0,0.3,0v0.3
				c0,0-0.1,0-0.1,0c-0.1,0-0.1,0-0.2,0c-0.1,0-0.1,0-0.2,0c-0.1,0-0.1,0-0.2-0.1c0,0-0.1-0.1-0.1-0.1s0-0.1,0-0.1
				c0-0.1,0-0.1,0-0.2c-0.2,0.2-0.3,0.3-0.6,0.4c-0.2,0.1-0.4,0.1-0.7,0.1c-0.1,0-0.3,0-0.4-0.1c-0.1,0-0.3-0.1-0.4-0.2
				c-0.1-0.1-0.2-0.2-0.2-0.3c-0.1-0.1-0.1-0.3-0.1-0.4c0-0.6,0.4-0.9,1.2-1L346.9,104.5z M347.5,104.6c-0.2,0.1-0.3,0.1-0.5,0.1
				c-0.2,0-0.3,0-0.5,0.1c-0.3,0-0.5,0.1-0.7,0.2c-0.2,0.1-0.2,0.3-0.2,0.5c0,0.1,0,0.2,0.1,0.3c0,0.1,0.1,0.1,0.2,0.2
				c0.1,0,0.1,0.1,0.2,0.1c0.1,0,0.2,0,0.3,0c0.2,0,0.3,0,0.4-0.1c0.1,0,0.3-0.1,0.4-0.2c0.1-0.1,0.2-0.2,0.3-0.3
				c0.1-0.1,0.1-0.3,0.1-0.4V104.6z"/>
			<path d="M331.9,113.5h-0.4v-3.3h0.4v0.5c0.2-0.2,0.3-0.3,0.5-0.4c0.2-0.1,0.4-0.2,0.6-0.2c0.2,0,0.4,0,0.6,0.1
				c0.2,0.1,0.3,0.2,0.4,0.4c0.1,0.1,0.1,0.2,0.1,0.4c0,0.1,0,0.3,0,0.4v2.2h-0.4v-2.1c0-0.3-0.1-0.5-0.2-0.7
				c-0.1-0.1-0.3-0.2-0.7-0.2c-0.1,0-0.2,0-0.3,0.1c-0.1,0-0.2,0.1-0.3,0.1c-0.1,0.1-0.1,0.1-0.2,0.2c-0.1,0.1-0.1,0.2-0.1,0.2
				c0,0.1-0.1,0.2-0.1,0.3c0,0.1,0,0.2,0,0.3V113.5z"/>
			<path d="M336.4,113.6c-0.2,0-0.4,0-0.6-0.1s-0.3-0.2-0.5-0.3c-0.1-0.1-0.2-0.3-0.3-0.5c-0.1-0.2-0.1-0.5-0.1-0.8
				c0-0.2,0-0.5,0.1-0.7c0.1-0.2,0.2-0.4,0.3-0.6s0.3-0.3,0.5-0.4c0.2-0.1,0.4-0.1,0.7-0.1c0.3,0,0.5,0,0.7,0.1
				c0.2,0.1,0.3,0.2,0.5,0.4s0.2,0.3,0.3,0.6c0.1,0.2,0.1,0.4,0.1,0.7c0,0.3,0,0.5-0.1,0.7c-0.1,0.2-0.2,0.4-0.3,0.5
				c-0.1,0.2-0.3,0.3-0.5,0.4C336.8,113.6,336.6,113.6,336.4,113.6z M337.5,111.9c0-0.2,0-0.4-0.1-0.5c0-0.2-0.1-0.3-0.2-0.4
				c-0.1-0.1-0.2-0.2-0.3-0.3c-0.1-0.1-0.3-0.1-0.5-0.1c-0.2,0-0.4,0-0.5,0.1c-0.1,0.1-0.3,0.2-0.3,0.3c-0.1,0.1-0.2,0.3-0.2,0.4
				c0,0.2-0.1,0.3-0.1,0.5c0,0.2,0,0.4,0.1,0.6c0,0.2,0.1,0.3,0.2,0.4c0.1,0.1,0.2,0.2,0.3,0.3c0.1,0.1,0.3,0.1,0.5,0.1
				c0.2,0,0.4,0,0.5-0.1c0.1-0.1,0.3-0.2,0.3-0.3c0.1-0.1,0.2-0.3,0.2-0.4C337.5,112.2,337.5,112.1,337.5,111.9z"/>
			<path d="M338.9,112.5c0.1,0.3,0.2,0.5,0.3,0.6c0.2,0.1,0.4,0.2,0.7,0.2c0.1,0,0.3,0,0.4-0.1c0.1,0,0.2-0.1,0.3-0.1
				c0.1-0.1,0.1-0.1,0.1-0.2c0-0.1,0.1-0.1,0.1-0.2c0-0.2-0.1-0.3-0.2-0.4c-0.1-0.1-0.2-0.1-0.4-0.2c-0.2,0-0.3-0.1-0.5-0.1
				c-0.2,0-0.4-0.1-0.5-0.1c-0.2-0.1-0.3-0.2-0.4-0.3c-0.1-0.1-0.2-0.3-0.2-0.5c0-0.3,0.1-0.5,0.3-0.7c0.2-0.2,0.5-0.3,0.9-0.3
				c0.4,0,0.6,0.1,0.9,0.2c0.2,0.2,0.4,0.4,0.4,0.8h-0.4c0-0.3-0.1-0.4-0.3-0.5c-0.2-0.1-0.4-0.2-0.6-0.2c-0.2,0-0.4,0.1-0.6,0.2
				c-0.1,0.1-0.2,0.2-0.2,0.4c0,0.1,0.1,0.3,0.2,0.3c0.1,0.1,0.2,0.1,0.4,0.2c0.2,0,0.3,0.1,0.5,0.1c0.2,0,0.4,0.1,0.5,0.2
				c0.2,0.1,0.3,0.2,0.4,0.3c0.1,0.1,0.2,0.3,0.2,0.5c0,0.2,0,0.3-0.1,0.4c-0.1,0.1-0.2,0.2-0.3,0.3c-0.1,0.1-0.3,0.1-0.4,0.2
				c-0.2,0-0.3,0.1-0.5,0.1c-0.2,0-0.4,0-0.5-0.1c-0.2-0.1-0.3-0.1-0.4-0.2s-0.2-0.2-0.2-0.4c-0.1-0.1-0.1-0.3-0.1-0.4H338.9z"/>
			<path d="M343,113.5c0,0-0.1,0-0.2,0c-0.1,0-0.2,0-0.3,0c-0.2,0-0.3,0-0.4-0.1c-0.1-0.1-0.1-0.3-0.1-0.5v-2.4h-0.5v-0.3h0.5v-0.9
				h0.4v0.9h0.6v0.3h-0.6v2.3c0,0.1,0,0.2,0,0.2c0,0.1,0,0.1,0,0.1c0,0,0.1,0.1,0.1,0.1c0,0,0.1,0,0.2,0c0.1,0,0.1,0,0.2,0
				s0.1,0,0.2,0V113.5z"/>
			<path d="M344,113.5h-0.4v-3.3h0.4v0.6h0c0.1-0.3,0.2-0.4,0.4-0.6c0.2-0.1,0.4-0.2,0.7-0.2v0.4c-0.2,0-0.4,0-0.5,0.1
				c-0.1,0.1-0.3,0.2-0.3,0.3c-0.1,0.1-0.1,0.3-0.2,0.4c0,0.2,0,0.3,0,0.5V113.5z"/>
			<path d="M347.9,110.2h0.4v3.3h-0.4v-0.5c-0.1,0.1-0.1,0.1-0.2,0.2c-0.1,0.1-0.1,0.1-0.2,0.2c-0.1,0.1-0.2,0.1-0.3,0.1
				c-0.1,0-0.2,0.1-0.4,0.1c-0.2,0-0.4,0-0.6-0.1c-0.1-0.1-0.3-0.1-0.4-0.3c-0.1-0.1-0.2-0.2-0.2-0.4c0-0.1-0.1-0.3-0.1-0.5v-2.2
				h0.4v2.2c0,0.3,0.1,0.5,0.2,0.7c0.1,0.2,0.3,0.2,0.6,0.2c0.2,0,0.3,0,0.4-0.1c0.1-0.1,0.2-0.1,0.3-0.3c0.1-0.1,0.2-0.2,0.2-0.4
				c0-0.2,0.1-0.3,0.1-0.5V110.2z"/>
			<path d="M449.7,181.8H338.2c-2.3,0-4.2-1.9-4.2-4.2v-9.9c0-2.3,1.9-4.2,4.2-4.2h111.5c2.3,0,4.2,1.9,4.2,4.2v9.9
				C453.9,179.9,452,181.8,449.7,181.8z M338.2,163.9c-2.1,0-3.8,1.7-3.8,3.8v9.9c0,2.1,1.7,3.8,3.8,3.8h111.5
				c2.1,0,3.8-1.7,3.8-3.8v-9.9c0-2.1-1.7-3.8-3.8-3.8H338.2z"/>
			<path d="M449.9,205.4H338.4c-2.3,0-4.2-1.9-4.2-4.2v-9.9c0-2.3,1.9-4.2,4.2-4.2h111.5c2.3,0,4.2,1.9,4.2,4.2v9.9
				C454.1,203.6,452.2,205.4,449.9,205.4z M338.4,187.6c-2.1,0-3.8,1.7-3.8,3.8v9.9c0,2.1,1.7,3.8,3.8,3.8h111.5
				c2.1,0,3.8-1.7,3.8-3.8v-9.9c0-2.1-1.7-3.8-3.8-3.8H338.4z"/>
			<g>
				<path d="M346.4,175.5l0-0.1c-0.1-0.3-0.5-0.7-0.8-0.8l-1.3-0.3c-0.3-0.1-0.8,0-1.1,0.3l-0.5,0.5c-1.7-0.5-3-1.8-3.5-3.5l0.5-0.5
					c0.3-0.3,0.4-0.7,0.3-1.1l-0.3-1.3c-0.1-0.3-0.5-0.7-0.8-0.8l-0.1,0c-0.3-0.1-0.8,0-1.1,0.3l-0.7,0.7c-0.1,0.1-0.2,0.5-0.2,0.5
					c0,2.2,0.8,4.3,2.4,5.9c1.5,1.5,3.7,2.4,5.8,2.4c0,0,0.4-0.1,0.5-0.2l0.7-0.7C346.4,176.3,346.5,175.9,346.4,175.5z"/>
			</g>
			<path d="M342.1,192.4h-5.4v6.7h5.4h5.4v-6.7H342.1z M342.1,193.1h3.8l-3.8,2.7l-3.8-2.7H342.1z M337.4,193.3l2.3,1.6l-2.3,2.5
				V193.3z M342.1,198.4h-3.9l1.9-3.3l2,1.3l2-1.3l1.9,3.3H342.1z M346.8,197.3l-2.3-2.5l2.3-1.6V197.3z"/>
			<rect x="333.7" y="214.6" class="st63" width="117.7" height="3.5"/>
			<g>
				<rect x="446.8" y="163.4" class="st55" width="0.4" height="0.4"/>
				<path class="st55" d="M447.2,162.7h-0.4v-0.8h0.4V162.7z M447.2,161.1h-0.4v-0.8h0.4V161.1z M447.2,159.5h-0.4v-0.8h0.4V159.5z
					 M447.2,157.9h-0.4v-0.8h0.4V157.9z M447.2,156.3h-0.4v-0.8h0.4V156.3z M447.2,154.7h-0.4v-0.8h0.4V154.7z"/>
				<rect x="446.8" y="152.3" class="st55" width="0.4" height="0.4"/>
			</g>
			<g>
				<rect x="396.2" y="144" class="st48" width="59" height="10.6"/>
				<text transform="matrix(1.0583 0 0 1 403.206 147.1943)" class="st35 st53 st64">Call to action buttons.</text>
			</g>
			<path d="M336.3,225.8l1.1,4.6l0.2,1.3l0.2-1.3l0.9-4.6h1.8l1,4.6l0.2,1.3l0.2-1.2l1.1-4.6h1.7l-2.3,8h-1.6l-1-4.7l-0.3-1.5
				l-0.3,1.5l-1,4.7h-1.6l-2.3-8H336.3z"/>
			<path d="M349.9,228c0.3,0.1,0.5,0.3,0.7,0.6c0.2,0.2,0.3,0.4,0.3,0.7c0,0.2,0.1,0.6,0.1,1.1v3.5h-1.6v-3.6c0-0.3-0.1-0.6-0.2-0.8
				c-0.1-0.3-0.4-0.4-0.8-0.4c-0.4,0-0.7,0.1-0.9,0.4c-0.2,0.3-0.3,0.7-0.3,1.2v3.2h-1.5v-8h1.5v2.8c0.2-0.3,0.5-0.6,0.8-0.7
				c0.3-0.1,0.6-0.2,0.9-0.2C349.2,227.8,349.6,227.8,349.9,228z"/>
			<path d="M334.9,247.8h1.1v4.2h2.6v0.9h-3.6V247.8z"/>
			<path d="M342.4,252.5c-0.3,0.4-0.8,0.6-1.5,0.6c-0.7,0-1.1-0.2-1.5-0.6c-0.3-0.4-0.5-0.9-0.5-1.4c0-0.5,0.2-1,0.5-1.4
				c0.3-0.4,0.8-0.6,1.5-0.6c0.7,0,1.1,0.2,1.5,0.6c0.3,0.4,0.5,0.9,0.5,1.4C342.9,251.6,342.7,252.1,342.4,252.5z M341.6,251.9
				c0.2-0.2,0.2-0.5,0.2-0.9c0-0.4-0.1-0.7-0.2-0.9c-0.2-0.2-0.4-0.3-0.7-0.3s-0.5,0.1-0.7,0.3c-0.2,0.2-0.2,0.5-0.2,0.9
				c0,0.4,0.1,0.7,0.2,0.9c0.2,0.2,0.4,0.3,0.7,0.3S341.4,252.1,341.6,251.9z"/>
			<path d="M345.7,249C345.7,249,345.7,249,345.7,249l0.1,1c-0.1,0-0.1,0-0.2,0s-0.1,0-0.1,0c-0.4,0-0.7,0.1-0.8,0.4
				c-0.1,0.1-0.1,0.4-0.1,0.7v1.8h-1v-3.8h0.9v0.7c0.2-0.3,0.3-0.4,0.4-0.5C345.1,249.1,345.4,249,345.7,249
				C345.7,249,345.7,249,345.7,249z"/>
			<g>
				<rect x="327.2" y="36.6" class="st25" width="19.9" height="19.9"/>
				<path d="M342.3,43.2h-10.1c-0.4,0-0.7-0.3-0.7-0.7c0-0.4,0.3-0.7,0.7-0.7h10.1c0.4,0,0.7,0.3,0.7,0.7
					C343,42.8,342.7,43.2,342.3,43.2z"/>
				<path d="M342.3,46.6h-10.1c-0.4,0-0.7-0.3-0.7-0.7c0-0.4,0.3-0.7,0.7-0.7h10.1c0.4,0,0.7,0.3,0.7,0.7
					C343,46.3,342.7,46.6,342.3,46.6z"/>
				<path d="M342.3,50h-10.1c-0.4,0-0.7-0.3-0.7-0.7c0-0.4,0.3-0.7,0.7-0.7h10.1c0.4,0,0.7,0.3,0.7,0.7C343,49.7,342.7,50,342.3,50z
					"/>
			</g>
		</g>
	</g>
	<g>
		<circle class="st58" cx="317" cy="56.9" r="10.3"/>
		<circle class="st59" cx="317" cy="56.9" r="4.4"/>
		<path class="st60" d="M311.2,70.2c0,0,0.2-0.4,1-0.4c0.8,0,2.9,1.9,3.6,3.7c0.4,1,0.1,1.5,0.3,2c0.1,0.2,0.4,1,0.6,1.8
			c0.3,1.1,0.5,2,0.7,2.1c0.3,0.1,1.2,0,1.6-1.7c0.4-1.7,0.8-5.7,0.5-7.6c-0.3-1.8-2.2-6-2.7-7.7c-0.5-1.8-0.9-3.3-1-4.6
			c-0.1-1.3,0.7-2.1,1.4-2.1c0.7,0,1.1-0.2,2.1,1.4s2.6,4.4,3.1,5.4c0.5,0.9,0.6,1.6,0.7,1.6s1.3-1.3,1.9-1.9
			c0.6-0.6,1.4-1.2,2.1-1.2c0.7,0,2.6,0.3,3,4.3c0,0,0.4-0.1,1,0.1c0.6,0.2,1.7,1.3,2.2,3.6c0,0,0.3-0.2,0.8-0.2s1.3,0.4,1.8,1.6
			c0.5,1.1,0.5,1.8,1,2.9c0.5,1.1,0.7,1.2,0.9,1.7c0.1,0.5,0.4,4.9,0.4,7.2s-0.1,3.6,0.1,4.7c0.1,0.9,1.4,2.8,1.6,3.3
			c0.2,0.5-0.3,2.4-1.1,3c-0.8,0.6-3.5,2.7-6,3.5s-4.8,0.8-5.8,0.4c-1-0.4-1.9-1.5-2.4-2.4c-0.5-0.9-0.7-1.5-1.3-2.1
			c-0.7-0.8-2-1.2-3.1-1.8c-1-0.5-6.7-5.3-7.1-6.2s-0.5-1.8-1.3-4.5c-0.7-2.3-1.1-3-1-3.8c0.1-1.1,0.4-1.6,0.3-2.3
			c-0.1-0.8-0.4-1.5-0.4-2C310.8,71.3,310.8,70.6,311.2,70.2z"/>
	</g>
	<g>
		<path class="st24" d="M281.6,267.5c-6.4,0-11.5,5.2-11.5,11.5c0,6.4,5.2,11.5,11.5,11.5c6.4,0,11.5-5.2,11.5-11.5
			C293.1,272.7,288,267.5,281.6,267.5z M281.6,289.6c-5.8,0-10.5-4.7-10.5-10.5s4.7-10.5,10.5-10.5c5.8,0,10.5,4.7,10.5,10.5
			S287.4,289.6,281.6,289.6z"/>
		<circle class="st24" cx="281.7" cy="10.1" r="1.7"/>
		<circle class="st24" cx="258.9" cy="19.8" r="2.6"/>
		<path class="st24" d="M291.8,21h-20.4c-0.7,0-1.2-0.5-1.2-1.2v-0.1c0-0.7,0.5-1.2,1.2-1.2h20.4c0.7,0,1.2,0.5,1.2,1.2v0.1
			C293,20.5,292.5,21,291.8,21z"/>
		<path class="st24" d="M355.1,64h-1.2V20.8c0-11.5-9.3-20.8-20.8-20.8H229.8c-11.5,0-20.8,9.3-20.8,20.8v17.3h-0.9v12.1h0.9v13.9
			h-0.9v22.2h0.9v4.9h-0.9v22.3h0.9v165.7c0,11.5,9.3,20.8,20.8,20.8h103.3c11.5,0,20.8-9.3,20.8-20.8V86.4h1.2V64z M350.2,279.5
			c0,9.1-7.4,16.6-16.6,16.6H229.4c-9.1,0-16.6-7.4-16.6-16.6v-259c0-9.1,7.4-16.6,16.6-16.6h104.3c9.1,0,16.6,7.4,16.6,16.6V279.5z
			"/>
		<path class="st23" d="M345.6,263.4H217.7V36.2h127.9V263.4z M218.2,262.9h126.8V36.7H218.2V262.9z"/>
	</g>
</g>
<g>
	<g>
		<defs>
			<rect id="SVGID_11_" x="416.3" y="36.7" width="126.7" height="263.3"/>
		</defs>
		<clipPath id="SVGID_3_">
			<use xlink:href="#SVGID_11_"  style="overflow:visible;"/>
		</clipPath>
		<rect x="416.2" y="195.4" style="clip-path:url(#SVGID_3_);" width="0.4" height="21.8"/>
		<rect x="416.2" y="225.1" style="clip-path:url(#SVGID_3_);" width="0.4" height="21.8"/>
		<rect x="413.7" y="70.9" style="clip-path:url(#SVGID_3_);fill:#FFFFFF;" width="111.4" height="3.5"/>
		<g style="clip-path:url(#SVGID_3_);">
			<circle class="st67" cx="384.3" cy="56.8" r="15"/>
			<circle class="st68" cx="384.5" cy="56.6" r="4.3"/>
		</g>
		<rect x="416.3" y="36.7" style="clip-path:url(#SVGID_3_);fill:#666666;" width="108.5" height="35.9"/>
		<rect x="416.3" y="72.5" style="clip-path:url(#SVGID_3_);fill:#4D4D4D;" width="108.5" height="35.3"/>
		<rect x="416.3" y="107.4" style="clip-path:url(#SVGID_3_);fill:#999999;" width="108.5" height="35.3"/>
		<rect x="416.3" y="141.8" style="clip-path:url(#SVGID_3_);fill:#999999;" width="108.5" height="121"/>
		<g style="clip-path:url(#SVGID_3_);">
			<text transform="matrix(0.999 0 0 1 437.6257 52.2173)"><tspan x="0" y="0" class="st5 st45 st72">Claims</tspan><tspan x="0" y="12.4" class="st5 st45 st72">Management</tspan></text>
		</g>
		<g style="clip-path:url(#SVGID_3_);">
			<path class="st5" d="M422.9,57.1c-0.1,0-0.2,0-0.3-0.1c-0.2-0.2-0.2-0.4,0-0.6l4.8-4.9c0.2-0.2,0.4-0.2,0.6,0
				c0.2,0.2,0.2,0.4,0,0.6l-4.8,4.9C423.1,57.1,423,57.1,422.9,57.1z"/>
			<path class="st5" d="M427.7,62.4c-0.1,0-0.2,0-0.3-0.1l-4.8-5.2c-0.1-0.2-0.1-0.4,0-0.6c0.2-0.1,0.4-0.1,0.6,0l4.8,5.2
				c0.1,0.2,0.1,0.4,0,0.6C427.9,62.3,427.8,62.4,427.7,62.4z"/>
		</g>
		<g style="clip-path:url(#SVGID_3_);">
			<text transform="matrix(0.9619 0 0 1 437.6227 94.4927)" class="st5 st45 st73">Drug</text>
		</g>
		<g style="clip-path:url(#SVGID_3_);">
			<text transform="matrix(0.9619 0 0 1 437.6257 128.8335)" class="st5 st45 st73">Dental</text>
		</g>
		<g style="clip-path:url(#SVGID_3_);">
			<text transform="matrix(0.9619 0 0 1 437.6257 163.2192)" class="st5 st45 st73">EHC</text>
		</g>
		<g style="clip-path:url(#SVGID_3_);">
			<text transform="matrix(0.9619 0 0 1 437.6257 198.5332)" class="st5 st45 st73">HSSA</text>
		</g>
		<g style="clip-path:url(#SVGID_3_);">
			<text transform="matrix(0.9619 0 0 1 437.6257 232.3267)" class="st5 st45 st73">Cost Plus</text>
		</g>
		<g style="clip-path:url(#SVGID_3_);">
			<rect x="532" y="277.8" class="st48" width="45.9" height="12.3"/>
			<text transform="matrix(1 0 0 1 544.7424 283.8096)" class="st5 st45 st74">Login</text>
		</g>
		<rect x="524.9" y="56.5" style="clip-path:url(#SVGID_3_);fill:#F2F2F2;" width="126.8" height="67.7"/>
		<g style="clip-path:url(#SVGID_3_);">
			<rect x="524.9" y="36.7" class="st25" width="19.8" height="19.8"/>
			<path d="M539.9,43.2h-10c-0.4,0-0.7-0.3-0.7-0.7s0.3-0.7,0.7-0.7h10c0.4,0,0.7,0.3,0.7,0.7S540.3,43.2,539.9,43.2z"/>
			<path d="M539.9,46.6h-10c-0.4,0-0.7-0.3-0.7-0.7c0-0.4,0.3-0.7,0.7-0.7h10c0.4,0,0.7,0.3,0.7,0.7
				C540.6,46.3,540.3,46.6,539.9,46.6z"/>
			<path d="M539.9,50h-10c-0.4,0-0.7-0.3-0.7-0.7s0.3-0.7,0.7-0.7h10c0.4,0,0.7,0.3,0.7,0.7S540.3,50,539.9,50z"/>
		</g>
		<g style="clip-path:url(#SVGID_3_);">
			<rect x="528.8" y="68.8" class="st48" width="118.8" height="47.6"/>
			<text transform="matrix(1 0 0 1 528.7687 75.6313)"><tspan x="0" y="0" class="st49 st76">Ask David...not Goliath</tspan><tspan x="0" y="9.5" class="st53 st77">Lorem ipsum dolor sit amet, consectetur </tspan><tspan x="0" y="16.6" class="st53 st77">adipiscing elit, sed do eiusmod tempor </tspan><tspan x="0" y="23.8" class="st53 st77">incididunt ut labore et dolore magna </tspan><tspan x="0" y="30.9" class="st53 st77">aliqua. Ut enim ad minim veniam, quis </tspan><tspan x="0" y="38" class="st53 st77">nostrud exercitation ullamco laboris nisi.</tspan></text>
		</g>
		<g style="clip-path:url(#SVGID_3_);">
			<rect x="531.7" y="150.7" class="st48" width="118" height="12.4"/>
			<text transform="matrix(1 0 0 1 531.7121 158.6416)" class="st49 st73">Co</text>
		</g>
		<path style="clip-path:url(#SVGID_3_);" d="M646.8,181.6H535.8c-2.3,0-4.2-1.9-4.2-4.2v-9.9c0-2.3,1.9-4.2,4.2-4.2h111.1
			c2.3,0,4.2,1.9,4.2,4.2v9.9C651,179.7,649.1,181.6,646.8,181.6z M535.8,163.8c-2.1,0-3.8,1.7-3.8,3.8v9.9c0,2.1,1.7,3.8,3.8,3.8
			h111.1c2.1,0,3.8-1.7,3.8-3.8v-9.9c0-2.1-1.7-3.8-3.8-3.8H535.8z"/>
		<path style="clip-path:url(#SVGID_3_);" d="M647.1,205.2H536c-2.3,0-4.2-1.9-4.2-4.2v-9.9c0-2.3,1.9-4.2,4.2-4.2h111.1
			c2.3,0,4.2,1.9,4.2,4.2v9.9C651.2,203.3,649.4,205.2,647.1,205.2z M536,187.3c-2.1,0-3.8,1.7-3.8,3.8v9.9c0,2.1,1.7,3.8,3.8,3.8
			h111.1c2.1,0,3.8-1.7,3.8-3.8v-9.9c0-2.1-1.7-3.8-3.8-3.8H536z"/>
		<g style="clip-path:url(#SVGID_3_);">
			<path d="M544,175.4l0-0.1c-0.1-0.3-0.5-0.7-0.8-0.8l-1.3-0.3c-0.3-0.1-0.8,0-1.1,0.3l-0.5,0.5c-1.7-0.5-3-1.8-3.4-3.4l0.5-0.5
				c0.3-0.3,0.4-0.7,0.3-1.1l-0.3-1.3c-0.1-0.3-0.4-0.7-0.8-0.8l-0.1,0c-0.3-0.1-0.8,0-1.1,0.3l-0.7,0.7c-0.1,0.1-0.2,0.5-0.2,0.5
				c0,2.2,0.8,4.3,2.4,5.8c1.5,1.5,3.6,2.4,5.8,2.4c0,0,0.4-0.1,0.5-0.2l0.7-0.7C544,176.2,544.1,175.7,544,175.4z"/>
		</g>
		<path style="clip-path:url(#SVGID_3_);" d="M539.7,192.2h-5.4v6.7h5.4h5.4v-6.7H539.7z M539.7,192.8h3.8l-3.8,2.7l-3.8-2.7H539.7z
			 M535.1,193l2.3,1.5l-2.3,2.5V193z M539.7,198.2h-3.9l1.9-3.3l2,1.3l2-1.3l1.9,3.3H539.7z M544.4,197.1l-2.3-2.5l2.3-1.5V197.1z"
			/>
		<rect x="532.1" y="214.4" style="clip-path:url(#SVGID_3_);fill:#B3B3B3;" width="119.1" height="2.8"/>
		<g style="clip-path:url(#SVGID_3_);">
			<rect x="543.2" y="169.7" class="st48" width="108.4" height="11.7"/>
			<text transform="matrix(1.0583 0 0 1 546.258 175.6523)" class="st45 st74">Toll Free: 1-888-513-4464</text>
		</g>
		<g style="clip-path:url(#SVGID_3_);">
			<rect x="544.1" y="193" class="st48" width="108.4" height="11.7"/>
			<text transform="matrix(0.9856 0 0 1 550.381 198.9966)" class="st45 st74">service@claimsecure.com</text>
		</g>
		<g style="clip-path:url(#SVGID_3_);">
			<rect x="644" y="163.3" class="st55" width="0.4" height="0.4"/>
			<path class="st55" d="M644.4,162.5H644v-0.8h0.4V162.5z M644.4,161H644v-0.8h0.4V161z M644.4,159.4H644v-0.8h0.4V159.4z
				 M644.4,157.8H644V157h0.4V157.8z M644.4,156.2H644v-0.8h0.4V156.2z M644.4,154.6H644v-0.8h0.4V154.6z"/>
			<rect x="644" y="152.3" class="st55" width="0.4" height="0.4"/>
		</g>
		<g style="clip-path:url(#SVGID_3_);">
			<rect x="593.6" y="144" class="st48" width="58.7" height="10.5"/>
			<text transform="matrix(1.0583 0 0 1 600.5685 147.1543)" class="st35 st53 st79">Call to action buttons.</text>
		</g>
		<g style="clip-path:url(#SVGID_3_);">
			<rect x="532" y="225.5" class="st48" width="26.7" height="49.2"/>
			<text transform="matrix(1 0 0 1 532.0285 233.4556)"><tspan x="0" y="0" class="st49 st73">Wh</tspan><tspan x="0" y="19" class="st49 st80">Lorem </tspan></text>
		</g>
	</g>
	<g>
		<circle class="st58" cx="486.7" cy="97.6" r="10.3"/>
		<circle class="st59" cx="486.7" cy="97.6" r="4.4"/>
		<path class="st60" d="M480.9,110.9c0,0,0.2-0.4,1-0.4c0.8,0,2.9,1.9,3.6,3.7c0.4,1,0.1,1.5,0.3,2c0.1,0.2,0.4,1,0.6,1.8
			c0.3,1.1,0.5,2,0.7,2.1c0.3,0.1,1.2,0,1.6-1.7s0.8-5.7,0.5-7.6c-0.3-1.8-2.2-6-2.7-7.7s-0.9-3.3-1-4.6c-0.1-1.3,0.7-2.1,1.4-2.1
			c0.7,0,1.1-0.2,2.1,1.4c0.9,1.5,2.6,4.4,3.1,5.4s0.6,1.6,0.7,1.6c0.1,0,1.3-1.3,1.9-1.9c0.6-0.6,1.4-1.2,2.1-1.2
			c0.7,0,2.6,0.3,3,4.3c0,0,0.4-0.1,1,0.1c0.6,0.2,1.7,1.3,2.2,3.6c0,0,0.3-0.2,0.8-0.2c0.5,0,1.3,0.4,1.8,1.6
			c0.5,1.1,0.5,1.8,1,2.9c0.5,1.1,0.7,1.2,0.9,1.7c0.1,0.5,0.4,4.9,0.4,7.2c0,2.2-0.1,3.6,0.1,4.7c0.1,0.9,1.4,2.8,1.6,3.3
			c0.2,0.5-0.3,2.4-1.1,3c-0.8,0.6-3.5,2.7-6,3.5c-2.5,0.8-4.8,0.8-5.8,0.4s-1.9-1.5-2.4-2.4c-0.5-0.9-0.7-1.5-1.3-2.1
			c-0.7-0.8-2-1.2-3.1-1.8c-1-0.5-6.7-5.3-7.1-6.2c-0.4-0.9-0.5-1.8-1.3-4.5c-0.7-2.3-1.1-3-1-3.8c0.1-1.1,0.4-1.6,0.3-2.3
			c-0.1-0.8-0.4-1.5-0.4-2C480.5,112,480.5,111.3,480.9,110.9z"/>
	</g>
	<g>
		<path class="st24" d="M479.7,267.5c-6.4,0-11.5,5.2-11.5,11.5c0,6.4,5.2,11.5,11.5,11.5c6.4,0,11.5-5.2,11.5-11.5
			C491.2,272.6,486.1,267.5,479.7,267.5z M479.7,289.5c-5.8,0-10.5-4.7-10.5-10.5c0-5.8,4.7-10.5,10.5-10.5
			c5.8,0,10.5,4.7,10.5,10.5C490.2,284.8,485.5,289.5,479.7,289.5z"/>
		<circle class="st24" cx="479.8" cy="10.1" r="1.6"/>
		<circle class="st24" cx="457.1" cy="19.8" r="2.6"/>
		<path class="st24" d="M490,21h-20.4c-0.7,0-1.2-0.5-1.2-1.2v-0.1c0-0.7,0.5-1.2,1.2-1.2H490c0.7,0,1.2,0.5,1.2,1.2v0.1
			C491.1,20.5,490.6,21,490,21z"/>
		<path class="st24" d="M553.2,64H552V20.7C552,9.3,542.7,0,531.3,0H428c-11.5,0-20.7,9.3-20.7,20.7V38h-0.9v12.1h0.9v13.9h-0.9
			v22.2h0.9v4.9h-0.9v22.3h0.9v165.6c0,11.5,9.3,20.7,20.7,20.7h103.3c11.5,0,20.7-9.3,20.7-20.7V86.4h1.2V64z M548.3,279.4
			c0,9.1-7.4,16.6-16.6,16.6H427.5c-9.1,0-16.6-7.4-16.6-16.6v-259c0-9.1,7.4-16.6,16.6-16.6h104.2c9.1,0,16.6,7.4,16.6,16.6V279.4z
			"/>
		<path class="st23" d="M543.7,263.4H415.9V36.1h127.8V263.4z M416.4,262.8h126.8V36.7H416.4V262.8z"/>
	</g>
</g>
<g>
	<g>
		<g>
			<path class="st24" d="M677.8,267.5c-6.4,0-11.5,5.2-11.5,11.5c0,6.4,5.2,11.5,11.5,11.5c6.4,0,11.5-5.2,11.5-11.5
				C689.4,272.6,684.2,267.5,677.8,267.5z M677.8,289.5c-5.8,0-10.5-4.7-10.5-10.5c0-5.8,4.7-10.5,10.5-10.5
				c5.8,0,10.5,4.7,10.5,10.5C688.3,284.8,683.6,289.5,677.8,289.5z"/>
			<circle class="st24" cx="677.9" cy="10.1" r="1.6"/>
			<circle class="st24" cx="655.2" cy="19.8" r="2.6"/>
			<path class="st24" d="M688.1,21h-20.4c-0.7,0-1.2-0.5-1.2-1.2v-0.1c0-0.7,0.5-1.2,1.2-1.2h20.4c0.7,0,1.2,0.5,1.2,1.2v0.1
				C689.3,20.5,688.7,21,688.1,21z"/>
			<path class="st24" d="M751.4,64h-1.2V20.7c0-11.5-9.3-20.7-20.7-20.7H626.1c-11.5,0-20.7,9.3-20.7,20.7V38h-0.9v12.1h0.9v13.9
				h-0.9v22.2h0.9v4.9h-0.9v22.3h0.9v165.6c0,11.5,9.3,20.7,20.7,20.7h103.3c11.5,0,20.7-9.3,20.7-20.7V86.4h1.2V64z M746.4,279.4
				c0,9.1-7.4,16.6-16.6,16.6H625.6c-9.1,0-16.6-7.4-16.6-16.6v-259c0-9.1,7.4-16.6,16.6-16.6h104.2c9.1,0,16.6,7.4,16.6,16.6V279.4
				z"/>
			<path class="st23" d="M741.8,263.4H614V36.1h127.8V263.4z M614.5,262.8h126.8V36.7H614.5V262.8z"/>
		</g>
	</g>
	<g>
		<rect x="618.5" y="76.3" class="st48" width="118.6" height="10.8"/>
		<text transform="matrix(1 0 0 1 618.4648 84.3228)" class="st49 st81">Drug Claims</text>
	</g>
	<g>
		<rect x="618.5" y="217.7" class="st48" width="118.6" height="10.8"/>
		<text transform="matrix(1 0 0 1 618.4648 224.5288)" class="st49 st82">Key Features</text>
	</g>
	<g>
		<rect x="618.4" y="92.7" class="st48" width="118.8" height="109"/>
		<text transform="matrix(1 0 0 1 618.3525 97.8159)"><tspan x="0" y="0" class="st53 st83">Lorem ipsum dolor sit amet, </tspan><tspan x="0" y="8.3" class="st53 st83">consectetur adipiscing elit, sed do </tspan><tspan x="0" y="16.6" class="st53 st83">eiusmod tempor incididunt ut labore </tspan><tspan x="0" y="25" class="st53 st83">et dolore magna aliqua. Ut enim ad </tspan><tspan x="0" y="33.3" class="st53 st83">minim veniam, quis nostrud </tspan><tspan x="0" y="41.6" class="st53 st83">exercitation ullamco laboris nisi ut </tspan><tspan x="0" y="49.9" class="st53 st83">aliquip ex ea commodo consequat. </tspan><tspan x="0" y="58.2" class="st53 st83">Duis aute irure dolor in reprehenderit </tspan><tspan x="0" y="66.6" class="st53 st83">in voluptate velit esse cillum dolore </tspan><tspan x="0" y="74.9" class="st53 st83">eu fugiat nulla pariatur. Excepteur </tspan><tspan x="0" y="83.2" class="st53 st83">sint occaecat cupidatat non </tspan><tspan x="0" y="91.5" class="st53 st83">proident, sunt in culpa qui officia </tspan><tspan x="0" y="99.8" class="st53 st83">deserunt mollit anim id est laborum.</tspan></text>
	</g>
	<g>
		<path class="st5" d="M733,245.4H725c-0.3,0-0.6-1.1-0.6-1.4c0-0.3,0.3-1.4,0.6-1.4h7.9c0.3,0,0.6,1.1,0.6,1.4
			C733.5,244.3,733.3,245.4,733,245.4z"/>
	</g>
	<rect x="701.6" y="36.7" class="st25" width="19.8" height="19.8"/>
	<rect x="721.5" y="36.7" class="st25" width="19.8" height="19.8"/>
	<g>
		<g>
			<g>
				<g>
					<path class="st44" d="M714.5,44.8c0-2.5-2-4.5-4.5-4.5s-4.5,2-4.5,4.5c0,2.5,2,4.5,4.5,4.5S714.5,47.3,714.5,44.8z M710,48.2
						c-1.8,0-3.3-1.5-3.3-3.3s1.5-3.3,3.3-3.3c1.8,0,3.3,1.5,3.3,3.3C713.4,46.7,711.9,48.2,710,48.2z"/>
					<path class="st44" d="M717.1,50.4l-2.7-2.7c-0.4,0.6-0.9,1.2-1.6,1.6l2.7,2.7c0.4,0.4,1.1,0.4,1.6,0
						C717.6,51.5,717.6,50.8,717.1,50.4z"/>
				</g>
			</g>
		</g>
	</g>
	<text transform="matrix(0.9934 0 0 1 723.83 51.6113)" class="st44 st45 st84">Fr</text>
	<g>
		<path class="st13" d="M697.3,45.2c0.1,0.2,0.2,0.4,0.2,0.6h-2.1c0-0.2,0.1-0.4,0.2-0.6c0.2-0.3,0.5-0.4,0.9-0.4
			C696.8,44.9,697.1,45,697.3,45.2L697.3,45.2z M698.5,46.5v-0.2c0-0.7-0.2-1.2-0.5-1.6c-0.3-0.4-0.9-0.6-1.5-0.6
			c-0.6,0-1,0.2-1.4,0.4c-0.6,0.4-0.9,1.1-0.9,2.2c0,1,0.2,1.8,0.7,2.3c0.5,0.5,1.1,0.7,1.9,0.7c0.4,0,0.9-0.1,1.4-0.2v-0.8
			c-0.4,0.1-0.7,0.2-1,0.2c-0.7,0-1.2-0.3-1.5-0.8c-0.3-0.5-0.4-1-0.4-1.6H698.5L698.5,46.5z"/>
		<path class="st13" d="M694.3,45.2v-1.1c-0.5,0-0.9,0.2-1.2,0.5c-0.2,0.2-0.4,0.5-0.5,0.8h0v-1.1h-1v5.4h1v-2.3
			C692.6,45.9,693.2,45.2,694.3,45.2L694.3,45.2z"/>
		<path class="st13" d="M691.1,49.6v-5.4h-1v2.3c0,0.6-0.1,1.1-0.4,1.5c-0.3,0.5-0.6,0.7-1,0.7c-0.3,0-0.6-0.2-0.6-0.4
			c-0.1-0.2-0.1-0.6-0.1-1.2v-3h-1v3.7c0,0.5,0.1,0.8,0.2,1.1c0.2,0.4,0.6,0.6,1.2,0.6c0.8,0,1.4-0.4,1.7-1.3h0v1.2H691.1
			L691.1,49.6z"/>
		<path class="st13" d="M680.9,45.2c0.2,0.2,0.2,0.4,0.2,0.6h-2.1c0-0.2,0.1-0.4,0.2-0.6c0.2-0.3,0.5-0.4,0.9-0.4
			C680.5,44.9,680.8,45,680.9,45.2L680.9,45.2z M678.8,44.5c-0.6,0.4-0.8,1.1-0.8,2.2c0,1,0.2,1.8,0.7,2.3c0.5,0.5,1.1,0.7,1.9,0.7
			c0.4,0,0.8-0.1,1.4-0.2v-0.8c-0.4,0.1-0.7,0.2-1,0.2c-0.7,0-1.2-0.3-1.5-0.8c-0.3-0.5-0.5-1-0.5-1.6h3.1v-0.2
			c0-0.7-0.2-1.2-0.5-1.6c-0.3-0.4-0.8-0.6-1.4-0.6C679.7,44.1,679.2,44.2,678.8,44.5L678.8,44.5z"/>
		<path class="st13" d="M676.3,44.9c0.4,0,0.8,0.1,1.3,0.3v-0.9l-0.5-0.1c-0.2-0.1-0.5-0.1-0.7-0.1c-0.6,0-1,0.2-1.4,0.4
			c-0.4,0.3-0.6,0.6-0.6,1.1c0,0.4,0.2,0.7,0.4,0.9c0.2,0.2,0.4,0.3,0.7,0.6l1.1,0.7c0.2,0.2,0.3,0.3,0.3,0.5c0,0.5-0.3,0.7-1.1,0.7
			c-0.4,0-0.9-0.1-1.4-0.3v0.9c0.6,0.2,1,0.2,1.5,0.2c0.6,0,1.1-0.1,1.4-0.4c0.4-0.3,0.6-0.7,0.6-1.2c0-0.4-0.1-0.7-0.4-1
			c-0.2-0.1-0.4-0.3-0.8-0.6l-0.4-0.2c-0.3-0.2-0.5-0.3-0.5-0.3c-0.2-0.2-0.2-0.3-0.2-0.5c0-0.2,0.1-0.3,0.3-0.4
			C675.9,44.9,676.1,44.9,676.3,44.9L676.3,44.9z"/>
		<path class="st13" d="M685.4,45.9h1.2c0-0.5-0.1-0.9-0.4-1.3c-0.3-0.4-0.8-0.6-1.5-0.6c-0.8,0-1.4,0.3-1.8,0.8
			c-0.4,0.5-0.6,1.1-0.6,1.9c0,0.8,0.2,1.5,0.6,2c0.5,0.7,1.2,1,2.1,1c0.6,0,1.1-0.1,1.5-0.2v-0.7c-0.2,0.1-0.5,0.1-0.9,0.1
			c-0.8,0-1.4-0.3-1.7-0.8c-0.3-0.4-0.4-1-0.4-1.6c0-0.5,0.1-0.9,0.3-1.2c0.2-0.3,0.5-0.5,0.8-0.5C685.1,44.9,685.4,45.2,685.4,45.9
			L685.4,45.9z"/>
		<path class="st14" d="M674,45.2c0-0.3-0.1-0.6-0.3-0.8c-0.2-0.2-0.4-0.3-0.7-0.3c-0.4,0-0.9,0.2-1.2,0.5c-0.2,0.2-0.5,0.5-0.6,0.8
			h0v-0.2c0-0.2-0.1-0.4-0.2-0.6c-0.2-0.3-0.5-0.4-0.8-0.4c-0.5,0-0.9,0.2-1.2,0.5c-0.2,0.2-0.4,0.5-0.6,0.8l0,0l0.2-1.1h-0.8
			l-1,5.3h0.8l0.5-2.3c0.1-0.6,0.3-1,0.5-1.5c0.4-0.6,0.8-0.9,1.3-0.9c0.2,0,0.3,0.1,0.4,0.2c0.1,0.1,0.2,0.3,0.2,0.5
			c0,0.1,0,0.3-0.1,0.8l-0.6,3.3h0.8l0.5-2.3c0.1-0.5,0.3-1,0.5-1.4c0.3-0.7,0.8-1,1.3-1c0.2,0,0.3,0.1,0.5,0.2
			c0.1,0.1,0.2,0.2,0.2,0.4c0,0.2,0,0.5-0.1,0.8l-0.6,3.3h0.8l0.7-3.7C674,45.7,674,45.5,674,45.2L674,45.2z"/>
		<polygon class="st14" points="660.8,41.9 660,41.9 658.5,49.6 659.3,49.6 660.8,41.9 		"/>
		<polygon class="st14" points="667.3,41.9 666.3,41.9 666.1,42.9 667.1,42.9 667.3,41.9 		"/>
		<path class="st14" d="M655.2,45.2c-0.5,0.6-0.7,1.4-0.7,2.3c0,1.5,0.8,2.2,2.2,2.2c0.3,0,0.7-0.1,1.1-0.2L658,49
			c-0.4,0.1-0.7,0.2-1,0.2c-0.6,0-1-0.2-1.3-0.6c-0.2-0.3-0.3-0.8-0.3-1.4c0-0.7,0.2-1.3,0.4-1.8c0.3-0.5,0.7-0.7,1.1-0.7
			c0.5,0,0.8,0.3,0.8,0.8c0,0.1,0,0.2,0,0.4h1c0-0.2,0-0.3,0-0.5c0-0.4-0.1-0.7-0.4-0.9c-0.3-0.2-0.7-0.4-1.2-0.4
			C656.3,44.2,655.6,44.5,655.2,45.2L655.2,45.2z"/>
		<polygon class="st14" points="666.8,44.3 666,44.3 664.9,49.6 665.7,49.6 666.8,44.3 		"/>
		<path class="st14" d="M662.8,44.7c0.3,0,0.6,0.2,0.8,0.6c0.1,0.3,0.2,0.6,0.2,0.9c0,0.6-0.1,1.2-0.3,1.8c-0.3,0.8-0.8,1.2-1.4,1.2
			c-0.6,0-0.8-0.5-0.8-1.4c0-0.7,0.1-1.4,0.3-2C661.9,45.1,662.3,44.7,662.8,44.7L662.8,44.7z M664.1,45.2c-0.3-0.6-0.7-1-1.4-1
			c-0.8,0-1.4,0.4-1.8,1.2c-0.4,0.7-0.6,1.5-0.6,2.4c0,0.6,0.1,1,0.3,1.4c0.2,0.4,0.6,0.6,1.1,0.6c0.7,0,1.3-0.4,1.6-1l0,0l-0.2,0.9
			h0.8l1-5.3h-0.8L664.1,45.2L664.1,45.2L664.1,45.2z"/>
		<path class="st14" d="M674,45.2c0-0.3-0.1-0.6-0.3-0.8c-0.2-0.2-0.4-0.3-0.7-0.3c-0.4,0-0.9,0.2-1.2,0.5c-0.2,0.2-0.5,0.5-0.6,0.8
			h0v-0.2c0-0.2-0.1-0.4-0.2-0.6c-0.2-0.3-0.5-0.4-0.8-0.4c-0.5,0-0.9,0.2-1.2,0.5c-0.2,0.2-0.4,0.5-0.6,0.8l0,0l0.2-1.1h-0.8
			l-1,5.3h0.8l0.5-2.3c0.1-0.6,0.3-1,0.5-1.5c0.4-0.6,0.8-0.9,1.3-0.9c0.2,0,0.3,0.1,0.4,0.2c0.1,0.1,0.2,0.3,0.2,0.5
			c0,0.1,0,0.3-0.1,0.8l-0.6,3.3h0.8l0.5-2.3c0.1-0.5,0.3-1,0.5-1.4c0.3-0.7,0.8-1,1.3-1c0.2,0,0.3,0.1,0.5,0.2
			c0.1,0.1,0.2,0.2,0.2,0.4c0,0.2,0,0.5-0.1,0.8l-0.6,3.3h0.8l0.7-3.7C674,45.7,674,45.5,674,45.2L674,45.2z"/>
		<polygon class="st14" points="660.8,41.9 660,41.9 658.5,49.6 659.3,49.6 660.8,41.9 		"/>
		<polygon class="st14" points="667.3,41.9 666.3,41.9 666.1,42.9 667.1,42.9 667.3,41.9 		"/>
		<path class="st14" d="M655.2,45.2c-0.5,0.6-0.7,1.4-0.7,2.3c0,1.5,0.8,2.2,2.2,2.2c0.3,0,0.7-0.1,1.1-0.2L658,49
			c-0.4,0.1-0.7,0.2-1,0.2c-0.6,0-1-0.2-1.3-0.6c-0.2-0.3-0.3-0.8-0.3-1.4c0-0.7,0.2-1.3,0.4-1.8c0.3-0.5,0.7-0.7,1.1-0.7
			c0.5,0,0.8,0.3,0.8,0.8c0,0.1,0,0.2,0,0.4h1c0-0.2,0-0.3,0-0.5c0-0.4-0.1-0.7-0.4-0.9c-0.3-0.2-0.7-0.4-1.2-0.4
			C656.3,44.2,655.6,44.5,655.2,45.2L655.2,45.2z"/>
		<polygon class="st14" points="666.8,44.3 666,44.3 664.9,49.6 665.7,49.6 666.8,44.3 		"/>
		<path class="st14" d="M662.8,44.7c0.3,0,0.6,0.2,0.8,0.6c0.1,0.3,0.2,0.6,0.2,0.9c0,0.6-0.1,1.2-0.3,1.8c-0.3,0.8-0.8,1.2-1.4,1.2
			c-0.6,0-0.8-0.5-0.8-1.4c0-0.7,0.1-1.4,0.3-2C661.9,45.1,662.3,44.7,662.8,44.7L662.8,44.7z M664.1,45.2c-0.3-0.6-0.7-1-1.4-1
			c-0.8,0-1.4,0.4-1.8,1.2c-0.4,0.7-0.6,1.5-0.6,2.4c0,0.6,0.1,1,0.3,1.4c0.2,0.4,0.6,0.6,1.1,0.6c0.7,0,1.3-0.4,1.6-1l0,0l-0.2,0.9
			h0.8l1-5.3h-0.8L664.1,45.2L664.1,45.2L664.1,45.2z"/>
		<g>
			<path class="st18" d="M651.7,42.7c-3-3.7-11.7-2.4-11.7,1.4c0,1.5,1.7,2.8,4.1,3.2c3.2,0.6,2.5,3.1,0.5,3
				c-3.9-0.1-7.1-2.5-7.1-5.4C637.5,39.1,648.5,37.7,651.7,42.7L651.7,42.7z"/>
			<linearGradient id="SVGID_4_" gradientUnits="userSpaceOnUse" x1="638.6508" y1="47.6606" x2="652.8492" y2="47.6606">
				<stop  offset="0.3011" style="stop-color:#262424"/>
				<stop  offset="0.6187" style="stop-color:#282626"/>
				<stop  offset="0.7417" style="stop-color:#2E2D2D"/>
				<stop  offset="0.8309" style="stop-color:#3A3839"/>
				<stop  offset="0.9039" style="stop-color:#4A494A"/>
				<stop  offset="0.9661" style="stop-color:#5F5F60"/>
				<stop  offset="1" style="stop-color:#6E6E70"/>
			</linearGradient>
			<path class="st26" d="M638.7,50c3,3.7,11.7,2.4,11.7-1.4c0-1.5-1.7-2.8-4.1-3.2c-3.2-0.6-2.5-3.1-0.5-3c3.9,0.1,7.1,2.5,7.1,5.4
				C652.8,53.6,641.9,54.9,638.7,50L638.7,50z"/>
		</g>
	</g>
	<g>
		<rect x="618.5" y="232.4" class="st48" width="118.8" height="35"/>
		<text transform="matrix(1 0 0 1 618.4824 237.5513)"><tspan x="0" y="0" class="st49 st83">• Lorem ipsum dolor sit amet</tspan><tspan x="0" y="8.3" class="st53 st83">consectetur adipiscing elit, sed do </tspan><tspan x="0" y="16.6" class="st53 st83">eiusmod tempor incididunt ut labore </tspan><tspan x="0" y="25" class="st53 st83">et dolore magna aliqua. Ut enim ad </tspan></text>
	</g>
	<g>
		<rect x="614.5" y="36.6" class="st25" width="19.8" height="19.8"/>
		<path d="M629.6,43.1h-10c-0.4,0-0.7-0.3-0.7-0.7s0.3-0.7,0.7-0.7h10c0.4,0,0.7,0.3,0.7,0.7S630,43.1,629.6,43.1z"/>
		<path d="M629.6,46.6h-10c-0.4,0-0.7-0.3-0.7-0.7s0.3-0.7,0.7-0.7h10c0.4,0,0.7,0.3,0.7,0.7S630,46.6,629.6,46.6z"/>
		<path d="M629.6,50h-10c-0.4,0-0.7-0.3-0.7-0.7s0.3-0.7,0.7-0.7h10c0.4,0,0.7,0.3,0.7,0.7S630,50,629.6,50z"/>
	</g>
	<rect x="721.1" y="36.7" class="st5" width="0.8" height="19.8"/>
	<polygon class="st86" points="741.3,56.2 614.7,56.2 614.7,56.2 741.3,56.2 	"/>
</g>
<g>
	<rect x="899.8" y="36.5" class="st25" width="19.9" height="19.9"/>
	<rect x="919.8" y="36.5" class="st25" width="19.9" height="19.9"/>
	<g>
		<g>
			<g>
				<g>
					<path class="st44" d="M912.7,44.7c0-2.5-2-4.5-4.5-4.5c-2.5,0-4.5,2-4.5,4.5c0,2.5,2,4.5,4.5,4.5
						C910.7,49.1,912.7,47.1,912.7,44.7z M908.3,48c-1.8,0-3.4-1.5-3.4-3.4s1.5-3.4,3.4-3.4c1.8,0,3.4,1.5,3.4,3.4
						S910.1,48,908.3,48z"/>
					<path class="st44" d="M915.4,50.2l-2.7-2.7c-0.4,0.6-0.9,1.2-1.6,1.6l2.7,2.7c0.4,0.4,1.1,0.4,1.6,0
						C915.8,51.3,915.8,50.6,915.4,50.2z"/>
				</g>
			</g>
		</g>
	</g>
	<text transform="matrix(0.9934 0 0 1 922.1279 51.4468)" class="st44 st45 st95">Fr</text>
	<rect x="812.4" y="36.5" class="st25" width="19.9" height="19.9"/>
	<g>
		<line class="st96" x1="817.6" y1="42.5" x2="827.1" y2="42.5"/>
		<line class="st96" x1="817.6" y1="46.5" x2="827.1" y2="46.5"/>
		<line class="st96" x1="817.6" y1="50.4" x2="827.1" y2="50.4"/>
	</g>
	<line class="st97" x1="919.6" y1="36.5" x2="919.6" y2="56.4"/>
	<g>
		<path class="st13" d="M895.5,45c0.1,0.2,0.2,0.4,0.2,0.6h-2.1c0-0.2,0.1-0.4,0.2-0.6c0.2-0.3,0.5-0.4,0.9-0.4
			C895,44.7,895.3,44.8,895.5,45L895.5,45z M896.7,46.3v-0.2c0-0.7-0.2-1.2-0.5-1.6c-0.3-0.4-0.9-0.6-1.5-0.6c-0.6,0-1,0.2-1.4,0.4
			c-0.6,0.4-0.9,1.1-0.9,2.2c0,1,0.2,1.8,0.7,2.3c0.5,0.5,1.1,0.7,1.9,0.7c0.4,0,0.9-0.1,1.4-0.2v-0.8c-0.4,0.1-0.7,0.2-1,0.2
			c-0.7,0-1.2-0.3-1.5-0.8c-0.3-0.5-0.4-1-0.4-1.6H896.7L896.7,46.3z"/>
		<path class="st13" d="M892.5,45v-1.1c-0.5,0-0.9,0.2-1.2,0.5c-0.2,0.2-0.4,0.5-0.5,0.8h0V44h-1v5.4h1v-2.3
			C890.8,45.7,891.4,45,892.5,45L892.5,45z"/>
		<path class="st13" d="M889.3,49.4V44h-1v2.3c0,0.6-0.1,1.1-0.4,1.5c-0.3,0.5-0.6,0.7-1,0.7c-0.3,0-0.6-0.2-0.6-0.4
			c-0.1-0.2-0.1-0.6-0.1-1.2v-3h-1v3.8c0,0.5,0.1,0.8,0.2,1.1c0.2,0.4,0.6,0.6,1.2,0.6c0.8,0,1.4-0.4,1.7-1.3h0v1.2H889.3
			L889.3,49.4z"/>
		<path class="st13" d="M879.1,45c0.2,0.2,0.2,0.4,0.2,0.6h-2.1c0-0.2,0.1-0.4,0.2-0.6c0.2-0.3,0.5-0.4,0.9-0.4
			C878.7,44.7,878.9,44.8,879.1,45L879.1,45z M877,44.3c-0.6,0.4-0.8,1.1-0.8,2.2c0,1,0.2,1.8,0.7,2.3c0.5,0.5,1.1,0.7,1.9,0.7
			c0.4,0,0.8-0.1,1.4-0.2v-0.8c-0.4,0.1-0.7,0.2-1,0.2c-0.7,0-1.2-0.3-1.5-0.8c-0.3-0.5-0.5-1-0.5-1.6h3.1v-0.2
			c0-0.7-0.2-1.2-0.5-1.6c-0.3-0.4-0.8-0.6-1.4-0.6C877.8,43.9,877.4,44,877,44.3L877,44.3z"/>
		<path class="st13" d="M874.4,44.7c0.4,0,0.8,0.1,1.3,0.3v-0.9l-0.5-0.1c-0.2-0.1-0.5-0.1-0.7-0.1c-0.6,0-1,0.2-1.4,0.4
			c-0.4,0.3-0.6,0.6-0.6,1.1c0,0.4,0.2,0.7,0.4,0.9c0.2,0.2,0.4,0.3,0.7,0.6l1.1,0.7c0.2,0.2,0.3,0.3,0.3,0.5c0,0.5-0.3,0.7-1.1,0.7
			c-0.4,0-0.9-0.1-1.4-0.3v0.9c0.6,0.2,1,0.2,1.5,0.2c0.6,0,1.1-0.1,1.4-0.4c0.4-0.3,0.6-0.7,0.6-1.2c0-0.4-0.1-0.7-0.4-1
			c-0.2-0.1-0.4-0.3-0.8-0.6l-0.4-0.2c-0.3-0.2-0.5-0.3-0.5-0.3c-0.2-0.2-0.2-0.3-0.2-0.5c0-0.2,0.1-0.3,0.3-0.4
			C874,44.7,874.2,44.7,874.4,44.7L874.4,44.7z"/>
		<path class="st13" d="M883.6,45.8h1.2c0-0.5-0.1-0.9-0.4-1.3c-0.3-0.4-0.8-0.6-1.5-0.6c-0.8,0-1.4,0.3-1.8,0.8
			c-0.4,0.5-0.6,1.1-0.6,1.9c0,0.8,0.2,1.5,0.6,2c0.5,0.7,1.2,1,2.1,1c0.6,0,1.1-0.1,1.5-0.2v-0.7c-0.2,0.1-0.5,0.1-0.9,0.1
			c-0.8,0-1.4-0.3-1.7-0.8c-0.3-0.4-0.4-1-0.4-1.6c0-0.5,0.1-0.9,0.3-1.2c0.2-0.3,0.5-0.5,0.8-0.5C883.3,44.7,883.6,45,883.6,45.8
			L883.6,45.8z"/>
		<path class="st14" d="M872.1,45c0-0.3-0.1-0.6-0.3-0.8c-0.2-0.2-0.4-0.3-0.7-0.3c-0.4,0-0.9,0.2-1.2,0.5c-0.2,0.2-0.5,0.5-0.6,0.8
			h0V45c0-0.2-0.1-0.4-0.2-0.6c-0.2-0.3-0.5-0.4-0.8-0.4c-0.5,0-0.9,0.2-1.2,0.5c-0.2,0.2-0.4,0.5-0.6,0.8l0,0l0.2-1.1h-0.8l-1,5.3
			h0.8l0.5-2.3c0.1-0.6,0.3-1,0.5-1.5c0.4-0.6,0.8-0.9,1.3-0.9c0.2,0,0.3,0.1,0.4,0.2c0.1,0.1,0.2,0.3,0.2,0.5c0,0.1,0,0.3-0.1,0.8
			l-0.6,3.3h0.8l0.5-2.3c0.1-0.5,0.3-1,0.5-1.4c0.3-0.7,0.8-1,1.3-1c0.2,0,0.3,0.1,0.5,0.2c0.1,0.1,0.2,0.2,0.2,0.4
			c0,0.2,0,0.5-0.1,0.8l-0.6,3.4h0.8l0.7-3.7C872.1,45.5,872.1,45.3,872.1,45L872.1,45z"/>
		<polygon class="st14" points="858.9,41.7 858.1,41.7 856.6,49.4 857.4,49.4 858.9,41.7 		"/>
		<polygon class="st14" points="865.4,41.7 864.4,41.7 864.2,42.7 865.2,42.7 865.4,41.7 		"/>
		<path class="st14" d="M853.2,45c-0.5,0.6-0.7,1.4-0.7,2.3c0,1.5,0.8,2.2,2.3,2.2c0.3,0,0.7-0.1,1.1-0.2l0.1-0.5
			c-0.4,0.1-0.7,0.2-1,0.2c-0.6,0-1-0.2-1.3-0.6c-0.2-0.3-0.3-0.8-0.3-1.4c0-0.7,0.2-1.3,0.4-1.8c0.3-0.5,0.7-0.7,1.1-0.7
			c0.5,0,0.8,0.3,0.8,0.8c0,0.1,0,0.2,0,0.4h1c0-0.2,0-0.3,0-0.5c0-0.4-0.1-0.7-0.4-0.9c-0.3-0.2-0.7-0.4-1.2-0.4
			C854.3,44,853.7,44.3,853.2,45L853.2,45z"/>
		<polygon class="st14" points="864.9,44.1 864.1,44.1 863,49.4 863.8,49.4 864.9,44.1 		"/>
		<path class="st14" d="M860.9,44.5c0.3,0,0.6,0.2,0.8,0.6c0.1,0.3,0.2,0.6,0.2,0.9c0,0.6-0.1,1.2-0.3,1.8c-0.3,0.8-0.8,1.2-1.4,1.2
			c-0.6,0-0.8-0.5-0.8-1.4c0-0.7,0.1-1.4,0.3-2C860,44.9,860.4,44.5,860.9,44.5L860.9,44.5z M862.2,45c-0.3-0.6-0.7-1-1.4-1
			c-0.8,0-1.4,0.4-1.8,1.2c-0.4,0.7-0.6,1.5-0.6,2.4c0,0.6,0.1,1,0.3,1.4c0.2,0.4,0.6,0.6,1.1,0.6c0.7,0,1.3-0.4,1.6-1l0,0l-0.2,0.9
			h0.8l1-5.3h-0.8L862.2,45L862.2,45L862.2,45z"/>
		<path class="st14" d="M872.1,45c0-0.3-0.1-0.6-0.3-0.8c-0.2-0.2-0.4-0.3-0.7-0.3c-0.4,0-0.9,0.2-1.2,0.5c-0.2,0.2-0.5,0.5-0.6,0.8
			h0V45c0-0.2-0.1-0.4-0.2-0.6c-0.2-0.3-0.5-0.4-0.8-0.4c-0.5,0-0.9,0.2-1.2,0.5c-0.2,0.2-0.4,0.5-0.6,0.8l0,0l0.2-1.1h-0.8l-1,5.3
			h0.8l0.5-2.3c0.1-0.6,0.3-1,0.5-1.5c0.4-0.6,0.8-0.9,1.3-0.9c0.2,0,0.3,0.1,0.4,0.2c0.1,0.1,0.2,0.3,0.2,0.5c0,0.1,0,0.3-0.1,0.8
			l-0.6,3.3h0.8l0.5-2.3c0.1-0.5,0.3-1,0.5-1.4c0.3-0.7,0.8-1,1.3-1c0.2,0,0.3,0.1,0.5,0.2c0.1,0.1,0.2,0.2,0.2,0.4
			c0,0.2,0,0.5-0.1,0.8l-0.6,3.4h0.8l0.7-3.7C872.1,45.5,872.1,45.3,872.1,45L872.1,45z"/>
		<polygon class="st14" points="858.9,41.7 858.1,41.7 856.6,49.4 857.4,49.4 858.9,41.7 		"/>
		<polygon class="st14" points="865.4,41.7 864.4,41.7 864.2,42.7 865.2,42.7 865.4,41.7 		"/>
		<path class="st14" d="M853.2,45c-0.5,0.6-0.7,1.4-0.7,2.3c0,1.5,0.8,2.2,2.3,2.2c0.3,0,0.7-0.1,1.1-0.2l0.1-0.5
			c-0.4,0.1-0.7,0.2-1,0.2c-0.6,0-1-0.2-1.3-0.6c-0.2-0.3-0.3-0.8-0.3-1.4c0-0.7,0.2-1.3,0.4-1.8c0.3-0.5,0.7-0.7,1.1-0.7
			c0.5,0,0.8,0.3,0.8,0.8c0,0.1,0,0.2,0,0.4h1c0-0.2,0-0.3,0-0.5c0-0.4-0.1-0.7-0.4-0.9c-0.3-0.2-0.7-0.4-1.2-0.4
			C854.3,44,853.7,44.3,853.2,45L853.2,45z"/>
		<polygon class="st14" points="864.9,44.1 864.1,44.1 863,49.4 863.8,49.4 864.9,44.1 		"/>
		<path class="st14" d="M860.9,44.5c0.3,0,0.6,0.2,0.8,0.6c0.1,0.3,0.2,0.6,0.2,0.9c0,0.6-0.1,1.2-0.3,1.8c-0.3,0.8-0.8,1.2-1.4,1.2
			c-0.6,0-0.8-0.5-0.8-1.4c0-0.7,0.1-1.4,0.3-2C860,44.9,860.4,44.5,860.9,44.5L860.9,44.5z M862.2,45c-0.3-0.6-0.7-1-1.4-1
			c-0.8,0-1.4,0.4-1.8,1.2c-0.4,0.7-0.6,1.5-0.6,2.4c0,0.6,0.1,1,0.3,1.4c0.2,0.4,0.6,0.6,1.1,0.6c0.7,0,1.3-0.4,1.6-1l0,0l-0.2,0.9
			h0.8l1-5.3h-0.8L862.2,45L862.2,45L862.2,45z"/>
	</g>
	<line class="st98" x1="812.4" y1="56.2" x2="939.6" y2="56.2"/>
	<g>
		<rect x="816.4" y="76.3" class="st48" width="119" height="10.8"/>
		<text transform="matrix(1 0 0 1 816.4121 84.2642)" class="st49 st99">Advisor Forms</text>
	</g>
	<g>
		<rect x="816.3" y="92.7" class="st48" width="119.2" height="66.8"/>
		<text transform="matrix(1 0 0 1 816.2998 97.8013)"><tspan x="0" y="0" class="st53 st100">You can quickly and easily find all of </tspan><tspan x="0" y="8.3" class="st53 st100">the forms you are looking for on this </tspan><tspan x="0" y="16.7" class="st53 st100">page.</tspan><tspan x="0" y="33.4" class="st53 st100">To find all the forms you may need, </tspan><tspan x="0" y="41.7" class="st53 st100">simply click on the tab that best </tspan><tspan x="0" y="50.1" class="st53 st100">describes you. </tspan><tspan x="0" y="58.4" class="st53 st100">Then click to download.</tspan></text>
	</g>
	<rect x="816.4" y="174.7" class="st48" width="119.1" height="18.6"/>
	<text transform="matrix(1 0 0 1 816.4121 179.8267)" class="st49 st100">Administrative Forms</text>
	<g>
		<path class="st101" d="M930.1,205.8H820.9c-2.8,0-5-2.2-5-5v-7.9c0-2.8,2.2-5,5-5h109.2c2.8,0,5,2.2,5,5v7.9
			C935.1,203.5,932.9,205.8,930.1,205.8z"/>
		<rect x="816" y="193.8" class="st48" width="119.2" height="11.7"/>
		<text transform="matrix(1 0 0 1 822.7422 197.8301)" class="st45 st102">Administration Manual – Health and Dental</text>
		<path class="st101" d="M930.3,231.6H821c-2.8,0-5-2.2-5-5v-7.9c0-2.8,2.2-5,5-5h109.2c2.8,0,5,2.2,5,5v7.9
			C935.3,229.4,933,231.6,930.3,231.6z"/>
		<g>
			<rect x="816" y="219.8" class="st48" width="119.2" height="11.7"/>
			<text transform="matrix(1 0 0 1 852.5908 223.8438)" class="st45 st102">Benefit Guide – All</text>
		</g>
		<path class="st101" d="M930.1,257.4H820.9c-2.8,0-5-2.2-5-5v-7.9c0-2.8,2.2-5,5-5h109.2c2.8,0,5,2.2,5,5v7.9
			C935.1,255.2,932.9,257.4,930.1,257.4z"/>
		<g>
			<rect x="815.9" y="246.8" class="st48" width="119.2" height="11.7"/>
			<text transform="matrix(1 0 0 1 849.5391 250.8477)" class="st45 st102">Benefit Guide – Drug</text>
		</g>
	</g>
	<g>
		<path class="st18" d="M849.4,42.8c-3-3.7-11.7-2.4-11.7,1.4c0,1.5,1.7,2.8,4.1,3.2c3.2,0.6,2.5,3.1,0.5,3
			c-3.9-0.1-7.1-2.5-7.1-5.4C835.2,39.2,846.2,37.9,849.4,42.8L849.4,42.8z"/>
		<linearGradient id="SVGID_6_" gradientUnits="userSpaceOnUse" x1="836.35" y1="47.7922" x2="850.5485" y2="47.7922">
			<stop  offset="0.3011" style="stop-color:#262424"/>
			<stop  offset="0.6187" style="stop-color:#282626"/>
			<stop  offset="0.7417" style="stop-color:#2E2D2D"/>
			<stop  offset="0.8309" style="stop-color:#3A3839"/>
			<stop  offset="0.9039" style="stop-color:#4A494A"/>
			<stop  offset="0.9661" style="stop-color:#5F5F60"/>
			<stop  offset="1" style="stop-color:#6E6E70"/>
		</linearGradient>
		<path style="fill-rule:evenodd;clip-rule:evenodd;fill:url(#SVGID_6_);" d="M836.4,50.1c3,3.7,11.7,2.4,11.7-1.4
			c0-1.5-1.7-2.8-4.1-3.2c-3.2-0.6-2.5-3.1-0.5-3c3.9,0.1,7.1,2.5,7.1,5.4C850.5,53.7,839.6,55,836.4,50.1L836.4,50.1z"/>
	</g>
	<g>
		<g>
			<path class="st24" d="M876,267.5c-6.4,0-11.5,5.2-11.5,11.5c0,6.4,5.2,11.5,11.5,11.5c6.4,0,11.5-5.2,11.5-11.5
				C887.5,272.6,882.3,267.5,876,267.5z M876,289.5c-5.8,0-10.5-4.7-10.5-10.5c0-5.8,4.7-10.5,10.5-10.5s10.5,4.7,10.5,10.5
				C886.5,284.8,881.8,289.5,876,289.5z"/>
			<circle class="st24" cx="876" cy="10.1" r="1.6"/>
			<circle class="st24" cx="853.3" cy="19.8" r="2.6"/>
			<path class="st24" d="M886.2,21h-20.4c-0.7,0-1.2-0.5-1.2-1.2v-0.1c0-0.7,0.5-1.2,1.2-1.2h20.4c0.7,0,1.2,0.5,1.2,1.2v0.1
				C887.4,20.5,886.9,21,886.2,21z"/>
			<path class="st24" d="M949.5,64h-1.2V20.7C948.3,9.3,939,0,927.5,0H824.2c-11.5,0-20.7,9.3-20.7,20.7V38h-0.9v12.1h0.9v13.9h-0.9
				v22.2h0.9v4.9h-0.9v22.3h0.9v165.6c0,11.5,9.3,20.7,20.7,20.7h103.3c11.5,0,20.7-9.3,20.7-20.7V86.4h1.2V64z M944.6,279.4
				c0,9.1-7.4,16.6-16.6,16.6H823.8c-9.1,0-16.6-7.4-16.6-16.6v-259c0-9.1,7.4-16.6,16.6-16.6H928c9.1,0,16.6,7.4,16.6,16.6V279.4z"
				/>
			<path class="st23" d="M940,263.4H812.1V36.1H940V263.4z M812.6,262.8h126.8V36.7H812.6V262.8z"/>
		</g>
	</g>
</g>
</svg>
