<?xml version="1.0" encoding="utf-8"?>
<!-- Generator: Adobe Illustrator 21.0.2, SVG Export Plug-In . SVG Version: 6.00 Build 0)  -->
<svg version="1.1" id="Layer_1" xmlns="http://www.w3.org/2000/svg" xmlns:xlink="http://www.w3.org/1999/xlink" x="0px" y="0px"
	 viewBox="0 0 960 300" style="enable-background:new 0 0 960 300;" xml:space="preserve">
<style type="text/css">
	.st0{fill:#A7A9AC;}
	.st1{fill:#F1F2F2;}
	.st2{opacity:0.4;fill:#FFFFFF;}
	.st3{fill:#E6E7E8;}
	.st4{fill:#BCBEC0;}
	.st5{fill:#FFFFFF;}
	.st6{fill:#808285;}
	.st7{fill:#58595B;}
	.st8{fill:#D1D3D4;}
	.st9{opacity:0;}
	.st10{fill:#414042;}
	.st11{fill:#6D6E71;}
	.st12{fill:#939598;}
	.st13{fill:#1F4288;}
	.st14{fill:#C8CACC;}
	.st15{opacity:0.2;fill:#EC2127;}
	.st16{opacity:0.4;}
	.st17{fill:#EC2127;}
	.st18{fill-rule:evenodd;clip-rule:evenodd;fill:#39498C;}
	.st19{fill-rule:evenodd;clip-rule:evenodd;fill:url(#SVGID_1_);}
	.st20{fill:none;stroke:#000000;stroke-width:0.25;stroke-miterlimit:10;}
	.st21{fill-rule:evenodd;clip-rule:evenodd;fill:url(#SVGID_2_);}
	.st22{fill-rule:evenodd;clip-rule:evenodd;fill:url(#SVGID_3_);}
	.st23{fill:#221F1F;}
	.st24{fill:#E1E3E3;}
	.st25{fill:#CCCCCC;}
	.st26{fill:none;}
	.st27{font-family:'Helvetica-Light';}
	.st28{font-size:6.4957px;}
	.st29{font-family:'Helvetica-Bold';}
	.st30{font-size:3.7892px;}
	.st31{font-size:2.5261px;}
	.st32{font-size:3.2478px;}
	.st33{font-family:'Helvetica';}
	.st34{font-size:3.0302px;}
	.st35{font-size:2.3087px;}
	.st36{font-size:2.5283px;}
	.st37{font-family:'Helvetica-LightOblique';}
	.st38{font-size:2.3153px;}
	.st39{letter-spacing:2;}
	.st40{font-size:3.4699px;}
	.st41{font-size:3.2507px;}
	.st42{font-size:3.7925px;}
	.st43{font-size:3.4999px;}
	.st44{font-size:3.7161px;}
	.st45{fill-rule:evenodd;clip-rule:evenodd;fill:url(#SVGID_4_);}
	.st46{clip-path:url(#SVGID_6_);}
	.st47{font-size:12.271px;}
	.st48{font-size:7.1581px;}
	.st49{font-size:4.772px;}
	.st50{font-size:6.1355px;}
	.st51{clip-path:url(#SVGID_6_);fill:#F1F2F2;}
	.st52{font-size:4.3575px;}
	.st53{font-size:5.7192px;}
	.st54{clip-path:url(#SVGID_6_);fill:#E6E7E8;}
	.st55{clip-path:url(#SVGID_6_);fill:#BCBEC0;}
	.st56{clip-path:url(#SVGID_6_);fill:#FFFFFF;}
	.st57{clip-path:url(#SVGID_6_);fill:#808285;}
	.st58{font-size:4.3699px;}
	.st59{letter-spacing:5;}
	.st60{font-size:6.5549px;}
	.st61{clip-path:url(#SVGID_6_);fill:#58595B;}
	.st62{font-family:'MyriadPro-Regular';}
	.st63{font-size:13.6344px;}
	.st64{font-size:10.2258px;}
	.st65{font-size:8.1807px;}
	.st66{font-size:7.0138px;}
	.st67{fill-rule:evenodd;clip-rule:evenodd;fill:url(#SVGID_7_);}
	.st68{fill:#808080;}
	.st69{fill:#4D4D4D;}
	.st70{fill:#414042;stroke:#000000;stroke-width:0.25;stroke-miterlimit:10;}
	.st71{fill:#FFFFFF;stroke:#000000;stroke-miterlimit:10;}
	.st72{fill:none;stroke:#58595B;stroke-miterlimit:10;stroke-dasharray:2,2;}
	.st73{fill:none;stroke:#58595B;stroke-width:0.5;stroke-miterlimit:10;stroke-dasharray:1,1;}
	.st74{fill:none;stroke:#414042;stroke-miterlimit:10;}
	.st75{fill:none;stroke:#000000;stroke-miterlimit:10;stroke-dasharray:1,1;}
	.st76{font-family:'Aileron-Light';}
	.st77{font-size:9.0836px;}
	.st78{font-size:9.0148px;}
	.st79{fill:#E6E6E6;}
	.st80{fill:#231F20;}
	.st81{fill-rule:evenodd;clip-rule:evenodd;fill:url(#SVGID_8_);}
	.st82{fill:#F2F2F2;}
	.st83{fill:#999999;}
	.st84{opacity:0.2;fill:#ED1D24;}
	.st85{opacity:0.7;fill:#ED1D24;}
	.st86{opacity:0.5;fill:#221F1F;}
	.st87{clip-path:url(#SVGID_10_);}
	.st88{fill:#B3B3B3;}
	.st89{clip-path:url(#SVGID_12_);}
	.st90{clip-path:url(#SVGID_12_);fill:#FFFFFF;}
	.st91{opacity:0.2;fill:#ED1C24;}
	.st92{fill:#E82429;}
	.st93{clip-path:url(#SVGID_12_);fill:#666666;}
	.st94{clip-path:url(#SVGID_12_);fill:#4D4D4D;}
	.st95{clip-path:url(#SVGID_12_);fill:#999999;}
	.st96{clip-path:url(#SVGID_12_);fill:#F2F2F2;}
	.st97{clip-path:url(#SVGID_12_);fill:#B3B3B3;}
	.st98{fill-rule:evenodd;clip-rule:evenodd;fill:url(#SVGID_13_);}
	.st99{fill:none;stroke:#A6A8AB;stroke-width:0.5;stroke-miterlimit:10;}
	.st100{fill-rule:evenodd;clip-rule:evenodd;fill:url(#SVGID_14_);}
	.st101{clip-path:url(#SVGID_16_);}
	.st102{font-size:6.5056px;}
	.st103{font-size:2.8914px;}
	.st104{font-size:3.795px;}
	.st105{font-size:2.53px;}
	.st106{opacity:0;clip-path:url(#SVGID_16_);}
	.st107{clip-path:url(#SVGID_16_);fill:#FFFFFF;stroke:#FFFFFF;stroke-width:5;stroke-linecap:round;stroke-miterlimit:10;}
	.st108{clip-path:url(#SVGID_16_);fill:#58595B;}
	.st109{font-size:3.2528px;}
	.st110{font-size:3.7185px;}
	.st111{fill-rule:evenodd;clip-rule:evenodd;fill:url(#SVGID_17_);}
	.st112{clip-path:url(#SVGID_16_);fill:#FFFFFF;stroke:#FFFFFF;stroke-linecap:round;stroke-miterlimit:10;}
	.st113{clip-path:url(#SVGID_16_);fill:#414042;}
	.st114{font-size:2.2995px;}
	.st115{font-size:3.0181px;}
	.st116{fill:#231F20;stroke:#231F20;stroke-width:2;stroke-linecap:round;stroke-miterlimit:10;}
	.st117{fill:none;stroke:#FFFFFF;stroke-miterlimit:10;}
	.st118{fill:none;stroke:#F2F2F2;stroke-miterlimit:10;}
	.st119{fill:none;stroke:#000000;stroke-miterlimit:10;}
	.st120{fill-rule:evenodd;clip-rule:evenodd;fill:url(#SVGID_18_);}
</style>
<g>
	<path class="st5" d="M847.9,181.9h-17.1c-1.3,0-2.3-1-2.3-2.3V177c0-1.3,1-2.3,2.3-2.3h17.1c1.3,0,2.3,1,2.3,2.3v2.7
		C850.2,180.9,849.2,181.9,847.9,181.9z"/>
	<path d="M848.4,182h-18c-1,0-1.9-0.8-1.9-1.9v-3.6c0-1,0.8-1.9,1.9-1.9h18c1,0,1.9,0.8,1.9,1.9v3.6
		C850.3,181.2,849.4,182,848.4,182z M830.3,174.8c-0.9,0-1.7,0.8-1.7,1.7v3.6c0,0.9,0.8,1.7,1.7,1.7h18c0.9,0,1.7-0.8,1.7-1.7v-3.6
		c0-0.9-0.8-1.7-1.7-1.7H830.3z"/>
</g>
<rect x="751.7" y="196.4" class="st1" width="184.8" height="76.8"/>
<g>
	<path class="st8" d="M763,144.9h11.2c1.7,0,3-1.4,3-3v-3.5c0-1.7-1.4-3-3-3H763c-1.7,0-3,1.4-3,3v3.5
		C760,143.6,761.3,144.9,763,144.9z"/>
	<path d="M775.4,145h-13.6c-1,0-1.9-0.8-1.9-1.9v-5.9c0-1,0.8-1.9,1.9-1.9h13.6c1,0,1.9,0.8,1.9,1.9v5.9
		C777.3,144.2,776.4,145,775.4,145z M761.8,135.5c-0.9,0-1.7,0.8-1.7,1.7v5.9c0,0.9,0.8,1.7,1.7,1.7h13.6c0.9,0,1.7-0.8,1.7-1.7
		v-5.9c0-0.9-0.8-1.7-1.7-1.7H761.8z"/>
</g>
<rect x="759" y="123.9" class="st26" width="63.5" height="6.8"/>
<text transform="matrix(1 0 0 1 758.9543 128.623)" class="st27 st28">eProfile</text>
<text transform="matrix(0.583 0 0 0.583 780.6106 126.46)" class="st27 st28">TM</text>
<text transform="matrix(1 0 0 1 785.8704 128.623)" class="st27 st28"> login</text>
<rect x="821.5" y="151.4" width="0.2" height="27.7"/>
<rect x="829" y="123.9" class="st26" width="101" height="6.8"/>
<text transform="matrix(1 0 0 1 828.9885 128.603)" class="st27 st28">What’s New?</text>
<rect x="829" y="138.9" class="st26" width="101" height="33.9"/>
<text transform="matrix(1 0 0 1 828.9885 141.6006)"><tspan x="0" y="0" class="st29 st30">Lorem ipsum dolor sit amet.</tspan><tspan x="0" y="6.9" class="st7 st27 st31">May 06, 2015</tspan><tspan x="0" y="12.1" class="st27 st32">Lorem ipsum dolor sit amet, consectetur adipiscing elit, sed do </tspan><tspan x="0" y="17.3" class="st27 st32">eiusmod tempor incididunt ut labore et dolore magna aliqua. Ut enim </tspan><tspan x="0" y="22.5" class="st27 st32">ad minim veniam, quis nostrud exercitation ullamco laboris nisi ut </tspan><tspan x="0" y="27.7" class="st27 st32">aliquip ex ea commodo consequat.</tspan></text>
<rect x="760" y="151.4" class="st1" width="7.9" height="7.9"/>
<rect x="760" y="162.2" class="st1" width="7.9" height="7.9"/>
<g>
	<rect x="759.9" y="151.4" class="st5" width="54.8" height="7.9"/>
	<path d="M814.8,159.4h-54.9v-8.1h54.9V159.4z M760,159.2h54.6v-7.7H760V159.2z"/>
</g>
<g>
	<rect x="759.9" y="162.2" class="st5" width="54.8" height="7.9"/>
	<path d="M814.8,170.2h-54.9v-8.1h54.9V170.2z M760,170h54.6v-7.7H760V170z"/>
</g>
<g>
	<path class="st7" d="M774.8,181.9h-13c-1,0-1.8-0.8-1.8-1.8V178c0-1,0.8-1.8,1.8-1.8h13c1,0,1.8,0.8,1.8,1.8v2.1
		C776.6,181.1,775.8,181.9,774.8,181.9z"/>
	<rect x="760" y="177.8" class="st26" width="16.7" height="4.1"/>
	<text transform="matrix(1 0 0 1 764.595 179.9644)" class="st5 st33 st34">Login</text>
</g>
<text transform="matrix(1 0 0 1 759.7209 173.269)" class="st27 st35">Forgot your password/user name?</text>
<rect x="759.9" y="137.3" class="st26" width="17.3" height="7.5"/>
<text transform="matrix(1 0 0 1 763.6858 139.1289)"><tspan x="0" y="0" class="st29 st36">Member </tspan><tspan x="1.4" y="3.5" class="st29 st36">Login</tspan></text>
<path d="M794.7,144.9h-14.9c-1,0-1.9-0.8-1.9-1.9v-5.9c0-1,0.8-1.9,1.9-1.9h14.9c1,0,1.9,0.8,1.9,1.9v5.9
	C796.6,144.1,795.7,144.9,794.7,144.9z M779.8,135.4c-0.9,0-1.7,0.8-1.7,1.7v5.9c0,0.9,0.8,1.7,1.7,1.7h14.9c0.9,0,1.7-0.8,1.7-1.7
	v-5.9c0-0.9-0.8-1.7-1.7-1.7H779.8z"/>
<rect x="778.6" y="136.3" class="st26" width="17.3" height="9.1"/>
<text transform="matrix(1 0 0 1 784.5471 138.1646)"><tspan x="0" y="0" class="st29 st36">Plan </tspan><tspan x="-5.6" y="2.5" class="st29 st36">Administrator</tspan><tspan x="-0.8" y="5.1" class="st29 st36">Login</tspan></text>
<path d="M812.9,144.9h-13.6c-1,0-1.9-0.8-1.9-1.9V137c0-1,0.8-1.9,1.9-1.9h13.6c1,0,1.9,0.8,1.9,1.9v5.9
	C814.8,144,813.9,144.9,812.9,144.9z M799.3,135.3c-0.9,0-1.7,0.8-1.7,1.7v5.9c0,0.9,0.8,1.7,1.7,1.7h13.6c0.9,0,1.7-0.8,1.7-1.7
	V137c0-0.9-0.8-1.7-1.7-1.7H799.3z"/>
<rect x="797.4" y="137.2" class="st26" width="17.3" height="7.5"/>
<text transform="matrix(1 0 0 1 800.9055 139.0122)"><tspan x="0" y="0" class="st29 st36">Provider</tspan><tspan x="1.7" y="3.5" class="st29 st36">Login</tspan></text>
<g>
	<rect x="760" y="151.4" class="st8" width="7.9" height="7.9"/>
	<path d="M768,159.4h-8.1v-8.1h8.1V159.4z M760,159.2h7.7v-7.7H760V159.2z"/>
</g>
<g>
	<rect x="760" y="162.2" class="st8" width="7.9" height="7.9"/>
	<path d="M768,170.2h-8.1v-8.1h8.1V170.2z M760,170h7.7v-7.7H760V170z"/>
</g>
<rect x="767.8" y="151.4" width="0.2" height="7.9"/>
<path d="M763.9,153.2c-1.2,0-2.2,1-2.2,2.2c0,1.2,1,2.2,2.2,2.2c1.2,0,2.2-1,2.2-2.2C766.1,154.2,765.1,153.2,763.9,153.2z
	 M765.2,156.7c-0.2-0.3-0.4-0.4-0.4-0.4h-0.2c-0.2,0-0.3-0.2-0.3-0.3v-0.1c0.1-0.1,0.1-0.2,0.2-0.3c0,0,0,0,0,0
	c0.1-0.1,0.1-0.2,0-0.3c0,0,0,0,0,0c0-0.1,0-0.2,0-0.3c0-0.1,0-0.2-0.1-0.3c-0.1-0.1-0.2-0.1-0.3-0.1c-0.1,0-0.2,0-0.4,0
	c-0.1,0-0.2,0.1-0.3,0.2c-0.1,0.1-0.1,0.2-0.1,0.3c0,0.1,0,0.2,0,0.3c0,0,0,0,0,0.1c0,0.1,0,0.2,0,0.3c0,0,0,0,0,0.1
	c0,0.1,0.1,0.2,0.2,0.3v0.1c0,0.2-0.2,0.3-0.3,0.3h-0.2c0,0-0.2,0.1-0.4,0.4c-0.3-0.3-0.5-0.8-0.5-1.3c0-1,0.8-1.8,1.8-1.8
	c1,0,1.8,0.8,1.8,1.8C765.7,155.9,765.5,156.3,765.2,156.7z"/>
<g>
	<path d="M763.9,164c-1.2,0-2.2,1-2.2,2.2s1,2.2,2.2,2.2c1.2,0,2.2-1,2.2-2.2S765.1,164,763.9,164z M763.9,168c-1,0-1.8-0.8-1.8-1.8
		s0.8-1.8,1.8-1.8c1,0,1.8,0.8,1.8,1.8S764.9,168,763.9,168z"/>
	<path d="M764.6,166h-0.1l0-0.4c0-0.2-0.2-0.4-0.5-0.4c-0.3,0-0.5,0.2-0.5,0.4l0,0.4h-0.1c-0.1,0-0.1,0.1-0.1,0.1l0,0.8
		c0,0.1,0.1,0.1,0.1,0.1h1.3c0.1,0,0.1-0.1,0.1-0.1l0-0.8C764.7,166.1,764.7,166,764.6,166z M763.6,165.6c0-0.1,0.1-0.2,0.3-0.2
		c0.1,0,0.3,0.1,0.3,0.2l0,0.4h-0.5V165.6z"/>
</g>
<rect x="767.8" y="162.2" width="0.2" height="7.9"/>
<text transform="matrix(1 0 0 1 770.885 156.707)" class="st0 st37 st34">User Name</text>
<text transform="matrix(1 0 0 1 770.885 167.1177)" class="st0 st37 st34">Password</text>
<rect x="751.3" y="41.2" class="st3" width="185.2" height="68.6"/>
<rect x="843.9" y="-23.2" transform="matrix(0.3474 -0.9377 0.9377 0.3474 480.0218 840.6472)" class="st4" width="0.2" height="197.4"/>
<rect x="745.6" y="75.4" transform="matrix(0.9376 -0.3477 0.3477 0.9376 26.4301 298.2054)" class="st4" width="197.1" height="0.2"/>
<circle class="st5" cx="844" cy="107.6" r="1"/>
<circle class="st6" cx="840.1" cy="107.6" r="1"/>
<circle class="st5" cx="847.8" cy="107.6" r="1"/>
<rect x="760.2" y="88.7" class="st26" width="31.7" height="18.9"/>
<text transform="matrix(1 0 0 1 760.1575 90.3188)"><tspan x="0" y="0" class="st33 st38">This carousel includes:</tspan><tspan x="0" y="2.8" class="st33 st38">- Customer Reviews;</tspan><tspan x="0" y="5.6" class="st33 st38">- Videos;</tspan><tspan x="0" y="8.3" class="st33 st38">- Ask David not Goliath.</tspan><tspan x="0" y="13.9" class="st33 st38 st39">	</tspan></text>
<text transform="matrix(1 0 0 1 787.1555 56.0264)" class="st29 st40">Customer Reviews, Videos and “Ask David not Goliath” go here.</text>
<rect x="828.6" y="177" class="st26" width="21.4" height="4.9"/>
<text transform="matrix(1 0 0 1 830.9983 179.3447)" class="st33 st41">Learn More</text>
<g>
	<rect x="758.8" y="210.8" class="st26" width="170.4" height="6.8"/>
	<text transform="matrix(1 0 0 1 817.6213 215.4648)" class="st27 st28">Featured Services</text>
</g>
<g>
	<g id="Right_2_">
		<g>
			<path d="M924.7,244.1L924.7,244.1c-0.1-0.1-0.2-0.1-0.3-0.1c-0.2,0-0.4,0.2-0.4,0.4c0,0.1,0.1,0.2,0.1,0.3l0,0l1.3,1.2l-1.3,1.2
				l0,0c-0.1,0.1-0.1,0.2-0.1,0.3c0,0.2,0.2,0.4,0.4,0.4c0.1,0,0.2,0,0.3-0.1l0,0l1.6-1.5c0.1-0.1,0.1-0.2,0.1-0.3s0-0.2-0.1-0.3
				L924.7,244.1z M925.1,241.5c-2.4,0-4.4,2-4.4,4.4c0,2.4,2,4.4,4.4,4.4s4.4-2,4.4-4.4C929.4,243.4,927.5,241.5,925.1,241.5z
				 M925.1,249.4c-2,0-3.6-1.6-3.6-3.6c0-2,1.6-3.6,3.6-3.6s3.6,1.6,3.6,3.6C928.6,247.8,927,249.4,925.1,249.4z"/>
		</g>
	</g>
</g>
<g>
	<g id="Right_1_">
		<g>
			<path d="M763.6,247.8L763.6,247.8c0.1,0.1,0.2,0.1,0.3,0.1c0.2,0,0.4-0.2,0.4-0.4c0-0.1-0.1-0.2-0.1-0.3l0,0l-1.3-1.2l1.3-1.2
				l0,0c0.1-0.1,0.1-0.2,0.1-0.3c0-0.2-0.2-0.4-0.4-0.4c-0.1,0-0.2,0-0.3,0.1l0,0l-1.6,1.5c-0.1,0.1-0.1,0.2-0.1,0.3s0,0.2,0.1,0.3
				L763.6,247.8z M763.2,250.3c2.4,0,4.4-2,4.4-4.4s-2-4.4-4.4-4.4c-2.4,0-4.4,2-4.4,4.4S760.8,250.3,763.2,250.3z M763.2,242.4
				c2,0,3.6,1.6,3.6,3.6s-1.6,3.6-3.6,3.6c-2,0-3.6-1.6-3.6-3.6S761.2,242.4,763.2,242.4z"/>
		</g>
	</g>
</g>
<g>
	<path class="st5" d="M847,269.2h-17.2c-1.3,0-2.3-1-2.3-2.3v-2.7c0-1.3,1-2.3,2.3-2.3H847c1.3,0,2.3,1,2.3,2.3v2.7
		C849.3,268.2,848.3,269.2,847,269.2z"/>
	<path d="M847.5,269.3h-18.2c-1,0-1.9-0.8-1.9-1.9v-3.7c0-1,0.8-1.9,1.9-1.9h18.2c1,0,1.9,0.8,1.9,1.9v3.7
		C849.4,268.5,848.5,269.3,847.5,269.3z M829.2,262c-0.9,0-1.7,0.8-1.7,1.7v3.7c0,0.9,0.8,1.7,1.7,1.7h18.2c0.9,0,1.7-0.8,1.7-1.7
		v-3.7c0-0.9-0.8-1.7-1.7-1.7H829.2z"/>
</g>
<rect x="827.4" y="225.6" class="st26" width="90.3" height="33.2"/>
<text transform="matrix(1 0 0 1 827.4407 228.2798)"><tspan x="0" y="0" class="st29 st42">MyPostScripts</tspan><tspan x="0" y="9.4" class="st27 st32">Lorem ipsum dolor sit amet, consectetur adipiscing elit, sed </tspan><tspan x="0" y="14.6" class="st27 st32">do eiusmod tempor incididunt ut labore et dolore magna </tspan><tspan x="0" y="19.8" class="st27 st32">aliqua. Ut enim ad minim veniam, quis nostrud exercitation </tspan><tspan x="0" y="25" class="st27 st32">ullamco laboris nisi ut aliquip ex ea comm.</tspan></text>
<g>
	<g>
		<rect x="774.7" y="225.8" class="st5" width="43.3" height="43.3"/>
		<path d="M818.1,269.2h-43.5v-43.5h43.5V269.2z M774.8,269h43.1v-43.1h-43.1V269z"/>
	</g>
	<g>
		<rect x="796.3" y="216.8" transform="matrix(0.7071 -0.7071 0.7071 0.7071 58.301 635.5674)" width="0.2" height="61.2"/>
		<rect x="765.7" y="247.3" transform="matrix(0.7071 -0.7071 0.7071 0.7071 58.301 635.5674)" width="61.2" height="0.2"/>
	</g>
</g>
<rect x="827.4" y="264.1" class="st26" width="21.9" height="5.2"/>
<text transform="matrix(1 0 0 1 829.4192 266.5918)" class="st33 st43">Learn More</text>
<rect x="751.3" y="26.8" class="st7" width="185.1" height="14.4"/>
<rect x="916.6" y="32.6" class="st26" width="12.7" height="4.4"/>
<text transform="matrix(1 0 0 1 916.553 34.9683)" class="st5 st33 st41">Français</text>
<g>
	<g>
		<path class="st5" d="M893.7,37.9h-67.4c-2.1,0-3.8-1.7-3.8-3.8V34c0-2.1,1.7-3.8,3.8-3.8h67.4c2.1,0,3.8,1.7,3.8,3.8v0.1
			C897.5,36.2,895.8,37.9,893.7,37.9z"/>
		<path d="M893.6,38h-67.3c-2.2,0-4-1.8-4-4s1.8-4,4-4h67.3c2.2,0,4,1.8,4,4S895.8,38,893.6,38z M826.3,30.2c-2.1,0-3.8,1.7-3.8,3.8
			s1.7,3.8,3.8,3.8h67.3c2.1,0,3.8-1.7,3.8-3.8s-1.7-3.8-3.8-3.8H826.3z"/>
	</g>
	<text transform="matrix(0.9856 0 0 1 827.9319 35.0005)" class="st12 st37 st44">Search......</text>
	<g>
		<g>
			<path d="M892.5,33.8c0.2-1.4-0.9-2.5-2.3-2.3c-0.8,0.1-1.5,0.8-1.6,1.6c-0.2,1.4,0.9,2.5,2.3,2.3
				C891.7,35.2,892.4,34.6,892.5,33.8z M890.8,34.9c-1,0.2-2-0.7-1.8-1.8c0.1-0.6,0.6-1.1,1.2-1.2c1-0.2,2,0.7,1.8,1.8
				C891.9,34.3,891.4,34.8,890.8,34.9z"/>
			<path d="M893.7,35.9l-1.2-1.2c-0.2,0.3-0.4,0.5-0.7,0.7l1.2,1.2c0.2,0.2,0.6,0.2,0.8-0.1C893.9,36.3,893.8,36,893.7,35.9z"/>
		</g>
	</g>
</g>
<g>
	<rect x="766.1" y="26.8" class="st5" width="40.2" height="14.4"/>
	<g>
		<path class="st13" d="M803.6,33.1c0.1,0.1,0.1,0.2,0.1,0.3h-1.3c0-0.1,0-0.2,0.1-0.3c0.1-0.2,0.3-0.2,0.5-0.2
			C803.4,32.9,803.5,32.9,803.6,33.1L803.6,33.1z M804.4,33.8v-0.1c0-0.4-0.1-0.6-0.3-0.9c-0.2-0.2-0.5-0.3-0.9-0.3
			c-0.3,0-0.6,0.1-0.8,0.2c-0.4,0.2-0.5,0.6-0.5,1.2c0,0.6,0.1,1,0.4,1.3c0.3,0.3,0.7,0.4,1.2,0.4c0.2,0,0.5,0,0.8-0.1V35
			c-0.2,0.1-0.4,0.1-0.6,0.1c-0.4,0-0.7-0.2-0.9-0.5c-0.2-0.3-0.3-0.5-0.3-0.9H804.4L804.4,33.8z"/>
		<path class="st13" d="M801.8,33.1v-0.6c-0.3,0-0.5,0.1-0.7,0.3c-0.1,0.1-0.2,0.3-0.3,0.4h0v-0.6h-0.6v3h0.6v-1.3
			C800.8,33.5,801.2,33.1,801.8,33.1L801.8,33.1z"/>
		<path class="st13" d="M799.9,35.5v-3h-0.6v1.3c0,0.3-0.1,0.6-0.2,0.8c-0.2,0.3-0.4,0.4-0.6,0.4c-0.2,0-0.3-0.1-0.4-0.2
			c0-0.1-0.1-0.3-0.1-0.6v-1.6h-0.6v2.1c0,0.3,0.1,0.5,0.1,0.6c0.1,0.2,0.4,0.4,0.7,0.4c0.5,0,0.8-0.2,1-0.7h0v0.6H799.9L799.9,35.5
			z"/>
		<path class="st13" d="M793.7,33.1c0.1,0.1,0.1,0.2,0.1,0.3h-1.2c0-0.1,0-0.2,0.1-0.3c0.1-0.2,0.3-0.2,0.5-0.2
			C793.4,32.9,793.6,32.9,793.7,33.1L793.7,33.1z M792.4,32.7c-0.3,0.2-0.5,0.6-0.5,1.2c0,0.6,0.1,1,0.4,1.3
			c0.3,0.3,0.7,0.4,1.2,0.4c0.2,0,0.5,0,0.8-0.1V35c-0.2,0.1-0.4,0.1-0.6,0.1c-0.4,0-0.7-0.2-0.9-0.5c-0.2-0.3-0.3-0.5-0.3-0.9h1.9
			v-0.1c0-0.4-0.1-0.6-0.3-0.9c-0.2-0.2-0.5-0.3-0.9-0.3C792.9,32.4,792.7,32.5,792.4,32.7L792.4,32.7z"/>
		<path class="st13" d="M790.9,32.9c0.2,0,0.5,0.1,0.8,0.2v-0.5l-0.3-0.1c-0.1,0-0.3-0.1-0.4-0.1c-0.4,0-0.6,0.1-0.8,0.2
			c-0.2,0.2-0.3,0.4-0.3,0.6c0,0.2,0.1,0.4,0.2,0.5c0.1,0.1,0.2,0.2,0.4,0.3l0.7,0.4c0.1,0.1,0.2,0.2,0.2,0.3c0,0.3-0.2,0.4-0.7,0.4
			c-0.3,0-0.5-0.1-0.8-0.2v0.5c0.3,0.1,0.6,0.1,0.9,0.1c0.4,0,0.7-0.1,0.9-0.2c0.2-0.2,0.3-0.4,0.3-0.7c0-0.2-0.1-0.4-0.2-0.6
			c-0.1-0.1-0.2-0.2-0.5-0.3l-0.3-0.1c-0.2-0.1-0.3-0.2-0.3-0.2c-0.1-0.1-0.1-0.2-0.1-0.3c0-0.1,0.1-0.2,0.2-0.2
			C790.6,32.9,790.8,32.9,790.9,32.9L790.9,32.9z"/>
		<path class="st13" d="M796.4,33.5h0.7c0-0.3-0.1-0.5-0.2-0.7c-0.2-0.2-0.5-0.3-0.9-0.3c-0.5,0-0.8,0.2-1.1,0.4
			c-0.2,0.3-0.3,0.6-0.3,1c0,0.4,0.1,0.8,0.3,1.1c0.3,0.4,0.7,0.6,1.3,0.6c0.4,0,0.7,0,0.9-0.1v-0.4c-0.1,0.1-0.3,0.1-0.5,0.1
			c-0.5,0-0.8-0.2-1-0.4c-0.2-0.2-0.3-0.5-0.3-0.9c0-0.3,0.1-0.5,0.2-0.7c0.1-0.2,0.3-0.3,0.5-0.3C796.3,32.9,796.4,33.1,796.4,33.5
			L796.4,33.5z"/>
		<path class="st14" d="M789.5,33.1c0-0.2-0.1-0.3-0.2-0.4c-0.1-0.1-0.3-0.2-0.4-0.2c-0.3,0-0.5,0.1-0.7,0.3
			c-0.1,0.1-0.3,0.3-0.4,0.4h0v-0.1c0-0.1-0.1-0.2-0.1-0.4c-0.1-0.2-0.3-0.2-0.5-0.2c-0.3,0-0.5,0.1-0.7,0.3
			c-0.1,0.1-0.3,0.3-0.4,0.4l0,0l0.1-0.6h-0.5l-0.6,2.9h0.5l0.3-1.3c0.1-0.3,0.2-0.6,0.3-0.8c0.2-0.3,0.5-0.5,0.8-0.5
			c0.1,0,0.2,0,0.3,0.1c0.1,0.1,0.1,0.2,0.1,0.3c0,0,0,0.2-0.1,0.4l-0.4,1.8h0.5l0.3-1.3c0.1-0.3,0.2-0.5,0.3-0.8
			c0.2-0.4,0.5-0.6,0.8-0.6c0.1,0,0.2,0,0.3,0.1c0.1,0.1,0.1,0.1,0.1,0.2c0,0.1,0,0.3-0.1,0.4l-0.4,1.9h0.5l0.4-2
			C789.5,33.3,789.5,33.2,789.5,33.1L789.5,33.1z"/>
		<polygon class="st14" points="781.5,31.3 781,31.3 780.1,35.5 780.6,35.5 781.5,31.3 		"/>
		<polygon class="st14" points="785.5,31.3 784.8,31.3 784.7,31.8 785.3,31.8 785.5,31.3 		"/>
		<path class="st14" d="M778.1,33.1c-0.3,0.3-0.4,0.8-0.4,1.3c0,0.8,0.5,1.2,1.4,1.2c0.2,0,0.4,0,0.7-0.1l0.1-0.3
			c-0.2,0.1-0.4,0.1-0.6,0.1c-0.4,0-0.6-0.1-0.8-0.3c-0.1-0.2-0.2-0.4-0.2-0.8c0-0.4,0.1-0.7,0.3-1c0.2-0.3,0.4-0.4,0.7-0.4
			c0.3,0,0.5,0.2,0.5,0.4c0,0,0,0.1,0,0.2h0.6c0-0.1,0-0.2,0-0.3c0-0.2-0.1-0.4-0.3-0.5c-0.2-0.1-0.4-0.2-0.7-0.2
			C778.7,32.5,778.3,32.7,778.1,33.1L778.1,33.1z"/>
		<polygon class="st14" points="785.1,32.6 784.6,32.6 784,35.5 784.5,35.5 785.1,32.6 		"/>
		<path class="st14" d="M782.7,32.8c0.2,0,0.4,0.1,0.5,0.3c0.1,0.2,0.1,0.3,0.1,0.5c0,0.3-0.1,0.7-0.2,1c-0.2,0.4-0.5,0.7-0.8,0.7
			c-0.3,0-0.5-0.3-0.5-0.8c0-0.4,0.1-0.8,0.2-1.1C782.2,33,782.4,32.8,782.7,32.8L782.7,32.8z M783.5,33c-0.2-0.4-0.4-0.5-0.8-0.5
			c-0.5,0-0.8,0.2-1.1,0.7c-0.2,0.4-0.3,0.8-0.3,1.3c0,0.3,0.1,0.6,0.2,0.8c0.1,0.2,0.4,0.3,0.7,0.3c0.4,0,0.8-0.2,1-0.6l0,0
			l-0.1,0.5h0.5l0.6-2.9h-0.5L783.5,33L783.5,33L783.5,33z"/>
		<path class="st14" d="M789.5,33.1c0-0.2-0.1-0.3-0.2-0.4c-0.1-0.1-0.3-0.2-0.4-0.2c-0.3,0-0.5,0.1-0.7,0.3
			c-0.1,0.1-0.3,0.3-0.4,0.4h0v-0.1c0-0.1-0.1-0.2-0.1-0.4c-0.1-0.2-0.3-0.2-0.5-0.2c-0.3,0-0.5,0.1-0.7,0.3
			c-0.1,0.1-0.3,0.3-0.4,0.4l0,0l0.1-0.6h-0.5l-0.6,2.9h0.5l0.3-1.3c0.1-0.3,0.2-0.6,0.3-0.8c0.2-0.3,0.5-0.5,0.8-0.5
			c0.1,0,0.2,0,0.3,0.1c0.1,0.1,0.1,0.2,0.1,0.3c0,0,0,0.2-0.1,0.4l-0.4,1.8h0.5l0.3-1.3c0.1-0.3,0.2-0.5,0.3-0.8
			c0.2-0.4,0.5-0.6,0.8-0.6c0.1,0,0.2,0,0.3,0.1c0.1,0.1,0.1,0.1,0.1,0.2c0,0.1,0,0.3-0.1,0.4l-0.4,1.9h0.5l0.4-2
			C789.5,33.3,789.5,33.2,789.5,33.1L789.5,33.1z"/>
		<polygon class="st14" points="781.5,31.3 781,31.3 780.1,35.5 780.6,35.5 781.5,31.3 		"/>
		<polygon class="st14" points="785.5,31.3 784.8,31.3 784.7,31.8 785.3,31.8 785.5,31.3 		"/>
		<path class="st14" d="M778.1,33.1c-0.3,0.3-0.4,0.8-0.4,1.3c0,0.8,0.5,1.2,1.4,1.2c0.2,0,0.4,0,0.7-0.1l0.1-0.3
			c-0.2,0.1-0.4,0.1-0.6,0.1c-0.4,0-0.6-0.1-0.8-0.3c-0.1-0.2-0.2-0.4-0.2-0.8c0-0.4,0.1-0.7,0.3-1c0.2-0.3,0.4-0.4,0.7-0.4
			c0.3,0,0.5,0.2,0.5,0.4c0,0,0,0.1,0,0.2h0.6c0-0.1,0-0.2,0-0.3c0-0.2-0.1-0.4-0.3-0.5c-0.2-0.1-0.4-0.2-0.7-0.2
			C778.7,32.5,778.3,32.7,778.1,33.1L778.1,33.1z"/>
		<polygon class="st14" points="785.1,32.6 784.6,32.6 784,35.5 784.5,35.5 785.1,32.6 		"/>
		<path class="st14" d="M782.7,32.8c0.2,0,0.4,0.1,0.5,0.3c0.1,0.2,0.1,0.3,0.1,0.5c0,0.3-0.1,0.7-0.2,1c-0.2,0.4-0.5,0.7-0.8,0.7
			c-0.3,0-0.5-0.3-0.5-0.8c0-0.4,0.1-0.8,0.2-1.1C782.2,33,782.4,32.8,782.7,32.8L782.7,32.8z M783.5,33c-0.2-0.4-0.4-0.5-0.8-0.5
			c-0.5,0-0.8,0.2-1.1,0.7c-0.2,0.4-0.3,0.8-0.3,1.3c0,0.3,0.1,0.6,0.2,0.8c0.1,0.2,0.4,0.3,0.7,0.3c0.4,0,0.8-0.2,1-0.6l0,0
			l-0.1,0.5h0.5l0.6-2.9h-0.5L783.5,33L783.5,33L783.5,33z"/>
		<g>
			<path class="st18" d="M775.8,31.1c-2-2.4-7.6-1.6-7.6,0.9c0,1,1.1,1.8,2.7,2.1c2.1,0.4,1.6,2,0.3,1.9c-2.6-0.1-4.6-1.6-4.6-3.5
				C766.6,28.8,773.7,27.9,775.8,31.1L775.8,31.1z"/>
			<linearGradient id="SVGID_1_" gradientUnits="userSpaceOnUse" x1="767.3447" y1="34.3804" x2="776.5894" y2="34.3804">
				<stop  offset="0.3011" style="stop-color:#262424"/>
				<stop  offset="0.6187" style="stop-color:#282626"/>
				<stop  offset="0.7417" style="stop-color:#2E2D2D"/>
				<stop  offset="0.8309" style="stop-color:#3A3839"/>
				<stop  offset="0.9039" style="stop-color:#4A494A"/>
				<stop  offset="0.9661" style="stop-color:#5F5F60"/>
				<stop  offset="1" style="stop-color:#6E6E70"/>
			</linearGradient>
			<path class="st19" d="M767.3,35.9c2,2.4,7.6,1.6,7.6-0.9c0-1-1.1-1.8-2.7-2.1c-2.1-0.4-1.6-2-0.3-1.9c2.6,0.1,4.6,1.6,4.6,3.5
				C776.6,38.2,769.4,39.1,767.3,35.9L767.3,35.9z"/>
		</g>
	</g>
</g>
<g>
	<path class="st5" d="M762.9,31.8h-8.1c-0.2,0-0.5-0.2-0.5-0.5s0.2-0.5,0.5-0.5h8.1c0.2,0,0.5,0.2,0.5,0.5S763.2,31.8,762.9,31.8z"
		/>
</g>
<g>
	<path class="st5" d="M762.9,34.4h-8.1c-0.2,0-0.5-0.2-0.5-0.5c0-0.2,0.2-0.5,0.5-0.5h8.1c0.2,0,0.5,0.2,0.5,0.5
		C763.4,34.2,763.2,34.4,762.9,34.4z"/>
</g>
<g>
	<path class="st5" d="M762.9,37h-8.1c-0.2,0-0.5-0.2-0.5-0.5c0-0.2,0.2-0.5,0.5-0.5h8.1c0.2,0,0.5,0.2,0.5,0.5
		C763.4,36.8,763.2,37,762.9,37z"/>
</g>
<g>
	<path d="M936.7,273.5H751.1v-247h185.6V273.5z M751.4,273.3h185V26.8h-185V273.3z"/>
	<path class="st24" d="M937.3,0H750.4c-6.9,0-12.6,5.6-12.6,12.6v274.9c0,6.9,5.6,12.6,12.6,12.6h186.9c6.9,0,12.6-5.6,12.6-12.6
		V12.6C949.8,5.6,944.2,0,937.3,0z M947.6,286.9c0,6-4.9,10.9-10.9,10.9H750.9c-6,0-10.9-4.9-10.9-10.9V13.1c0-6,4.9-10.9,10.9-10.9
		h185.8c6,0,10.9,4.9,10.9,10.9V286.9z"/>
	<path class="st24" d="M837.2,286.2c0,3.6,2.9,6.6,6.6,6.6c3.6,0,6.6-2.9,6.6-6.6c0-3.6-2.9-6.6-6.6-6.6
		C840.2,279.6,837.2,282.6,837.2,286.2z M849.8,286.2c0,3.3-2.7,6-6,6s-6-2.7-6-6c0-3.3,2.7-6,6-6S849.8,282.9,849.8,286.2z"/>
	<circle class="st24" cx="844" cy="13.3" r="1.5"/>
</g>
<g>
	<defs>
		<rect id="SVGID_5_" x="285.6" y="19.2" width="349" height="262.5"/>
	</defs>
	<clipPath id="SVGID_2_">
		<use xlink:href="#SVGID_5_"  style="overflow:visible;"/>
	</clipPath>
	<g style="clip-path:url(#SVGID_2_);">
		<path class="st5" d="M601.1,312.5h-29.4c-3.2,0-5.7-2.6-5.7-5.7v-2.1c0-3.2,2.6-5.7,5.7-5.7h29.4c3.2,0,5.7,2.6,5.7,5.7v2.1
			C606.8,309.9,604.2,312.5,601.1,312.5z"/>
		<path d="M603.4,312.6h-34.1c-2,0-3.6-1.6-3.6-3.6v-6.8c0-2,1.6-3.6,3.6-3.6h34.1c2,0,3.6,1.6,3.6,3.6v6.8
			C607,311,605.4,312.6,603.4,312.6z M569.3,299c-1.8,0-3.2,1.5-3.2,3.2v6.8c0,1.8,1.5,3.2,3.2,3.2h34.1c1.8,0,3.2-1.5,3.2-3.2v-6.8
			c0-1.8-1.5-3.2-3.2-3.2H569.3z"/>
	</g>
	<g style="clip-path:url(#SVGID_2_);">
		<path class="st8" d="M444,242.6h17.3c4.2,0,7.6-3.4,7.6-7.6v-2.8c0-4.2-3.4-7.6-7.6-7.6H444c-4.2,0-7.6,3.4-7.6,7.6v2.8
			C436.4,239.2,439.8,242.6,444,242.6z"/>
		<path d="M465.5,242.7h-25.7c-2,0-3.6-1.6-3.6-3.6v-11.2c0-2,1.6-3.6,3.6-3.6h25.7c2,0,3.6,1.6,3.6,3.6v11.2
			C469.1,241.1,467.5,242.7,465.5,242.7z M439.8,224.7c-1.8,0-3.2,1.5-3.2,3.2v11.2c0,1.8,1.5,3.2,3.2,3.2h25.7
			c1.8,0,3.2-1.5,3.2-3.2v-11.2c0-1.8-1.5-3.2-3.2-3.2H439.8z"/>
	</g>
	<g style="clip-path:url(#SVGID_2_);">
		<rect x="434.5" y="202.9" class="st26" width="119.9" height="12.8"/>
		<text transform="matrix(1 0 0 1 434.4719 211.7783)" class="st27 st47">eProfile</text>
		<text transform="matrix(0.583 0 0 0.583 475.383 207.6919)" class="st27 st47">TM</text>
		<text transform="matrix(1 0 0 1 485.3195 211.7783)" class="st27 st47"> login</text>
	</g>
	<rect x="552.7" y="254.8" style="clip-path:url(#SVGID_2_);" width="0.3" height="52.2"/>
	<g style="clip-path:url(#SVGID_2_);">
		<rect x="566.8" y="202.9" class="st26" width="190.8" height="12.8"/>
		<text transform="matrix(1 0 0 1 566.7726 211.7397)" class="st27 st47">What’s New?</text>
	</g>
	<g style="clip-path:url(#SVGID_2_);">
		<rect x="566.8" y="231.1" class="st26" width="190.8" height="63.9"/>
		<text transform="matrix(1 0 0 1 566.7726 236.293)"><tspan x="0" y="0" class="st29 st48">Lorem ipsum dolor sit amet.</tspan><tspan x="0" y="13.1" class="st7 st27 st49">May 06, 2015</tspan><tspan x="0" y="22.9" class="st27 st50">Lorem ipsum dolor sit amet, consectetur adipiscing elit, sed do </tspan><tspan x="0" y="32.7" class="st27 st50">eiusmod tempor incididunt ut labore et dolore magna aliqua. Ut enim </tspan><tspan x="0" y="42.5" class="st27 st50">ad minim veniam, quis nostrud exercitation ullamco laboris nisi ut </tspan><tspan x="0" y="52.3" class="st27 st50">aliquip ex ea commodo consequat.</tspan></text>
	</g>
	<rect x="436.4" y="254.8" style="clip-path:url(#SVGID_2_);fill:#F1F2F2;" width="15" height="15"/>
	<rect x="436.4" y="275.2" style="clip-path:url(#SVGID_2_);fill:#F1F2F2;" width="15" height="15"/>
	<g style="clip-path:url(#SVGID_2_);">
		<rect x="436.3" y="254.8" class="st5" width="103.4" height="15"/>
		<path d="M539.9,269.9H436.1v-15.3h103.8V269.9z M436.5,269.6h103.1v-14.6H436.5V269.6z"/>
	</g>
	<g style="clip-path:url(#SVGID_2_);">
		<rect x="436.3" y="275.2" class="st5" width="103.4" height="15"/>
		<path d="M539.9,290.4H436.1v-15.3h103.8V290.4z M436.5,290h103.1v-14.6H436.5V290z"/>
	</g>
	<g style="clip-path:url(#SVGID_2_);">
		<text transform="matrix(1 0 0 1 435.9479 296.1191)" class="st27 st52">Forgot your password/user name?</text>
	</g>
	<g style="clip-path:url(#SVGID_2_);">
		<rect x="436.2" y="227.8" class="st26" width="32.6" height="15.9"/>
		<text transform="matrix(1 0 0 1 443.4177 231.1846)"><tspan x="0" y="0" class="st29 st49">Member </tspan><tspan x="2.7" y="6.5" class="st29 st49">Login</tspan></text>
	</g>
	<path style="clip-path:url(#SVGID_2_);" d="M502.3,242.6h-28.8c-2,0-3.6-1.6-3.6-3.6v-11.2c0-2,1.6-3.6,3.6-3.6h28.8
		c2,0,3.6,1.6,3.6,3.6V239C505.9,241,504.3,242.6,502.3,242.6z M473.5,224.6c-1.8,0-3.2,1.5-3.2,3.2V239c0,1.8,1.5,3.2,3.2,3.2h28.8
		c1.8,0,3.2-1.5,3.2-3.2v-11.2c0-1.8-1.5-3.2-3.2-3.2H473.5z"/>
	<g style="clip-path:url(#SVGID_2_);">
		<rect x="471.5" y="226.3" class="st26" width="32.6" height="17.2"/>
		<text transform="matrix(1 0 0 1 482.8234 229.7524)"><tspan x="0" y="0" class="st29 st49">Plan </tspan><tspan x="-10.6" y="4.8" class="st29 st49">Administrator</tspan><tspan x="-1.5" y="9.5" class="st29 st49">Login</tspan></text>
	</g>
	<path style="clip-path:url(#SVGID_2_);" d="M536.3,242.5h-25.7c-2,0-3.6-1.6-3.6-3.6v-11.2c0-2,1.6-3.6,3.6-3.6h25.7
		c2,0,3.6,1.6,3.6,3.6v11.2C539.9,240.9,538.3,242.5,536.3,242.5z M510.6,224.4c-1.8,0-3.2,1.5-3.2,3.2v11.2c0,1.8,1.5,3.2,3.2,3.2
		h25.7c1.8,0,3.2-1.5,3.2-3.2v-11.2c0-1.8-1.5-3.2-3.2-3.2H510.6z"/>
	<g style="clip-path:url(#SVGID_2_);">
		<rect x="507.1" y="227.5" class="st26" width="32.6" height="15.9"/>
		<text transform="matrix(1 0 0 1 513.7292 230.9375)"><tspan x="0" y="0" class="st29 st49">Provider</tspan><tspan x="3.2" y="6.5" class="st29 st49">Login</tspan></text>
	</g>
	<g style="clip-path:url(#SVGID_2_);">
		<rect x="436.4" y="254.8" class="st8" width="15" height="15"/>
		<path d="M451.5,269.9h-15.3v-15.3h15.3V269.9z M436.5,269.6h14.6V255h-14.6V269.6z"/>
	</g>
	<g style="clip-path:url(#SVGID_2_);">
		<rect x="436.4" y="275.2" class="st8" width="15" height="15"/>
		<path d="M451.5,290.4h-15.3v-15.3h15.3V290.4z M436.5,290h14.6v-14.6h-14.6V290z"/>
	</g>
	<rect x="451.2" y="254.8" style="clip-path:url(#SVGID_2_);" width="0.3" height="15"/>
	<path style="clip-path:url(#SVGID_2_);" d="M443.8,258.2c-2.3,0-4.1,1.8-4.1,4.1c0,2.3,1.8,4.1,4.1,4.1c2.3,0,4.1-1.8,4.1-4.1
		C447.9,260,446.1,258.2,443.8,258.2z M446.3,264.7c-0.4-0.6-0.8-0.7-0.8-0.7h-0.3c-0.4,0-0.6-0.3-0.6-0.6v-0.2
		c0.1-0.2,0.2-0.4,0.3-0.6c0,0,0-0.1,0.1-0.1c0.1-0.1,0.1-0.3,0.1-0.5c0,0,0,0,0-0.1c0-0.2,0-0.4,0-0.6c0-0.2-0.1-0.5-0.2-0.6
		c-0.1-0.1-0.3-0.2-0.5-0.2c-0.2,0-0.5,0-0.7,0c-0.2,0-0.4,0.2-0.5,0.3c-0.1,0.1-0.1,0.3-0.2,0.5c0,0.2,0,0.4,0,0.6c0,0,0,0.1,0,0.1
		c-0.1,0.2,0,0.4,0.1,0.5c0,0,0,0.1,0.1,0.1c0.1,0.2,0.2,0.4,0.3,0.5v0.2c0,0.4-0.3,0.6-0.6,0.6h-0.3c0,0-0.5,0.1-0.8,0.7
		c-0.6-0.6-1-1.5-1-2.5c0-1.9,1.5-3.4,3.4-3.4c1.9,0,3.4,1.5,3.4,3.4C447.3,263.2,446.9,264.1,446.3,264.7z"/>
	<g style="clip-path:url(#SVGID_2_);">
		<path d="M443.8,278.6c-2.3,0-4.1,1.8-4.1,4.1c0,2.3,1.8,4.1,4.1,4.1c2.3,0,4.1-1.8,4.1-4.1C447.9,280.5,446.1,278.6,443.8,278.6z
			 M443.8,286.2c-1.9,0-3.4-1.5-3.4-3.4c0-1.9,1.5-3.4,3.4-3.4c1.9,0,3.4,1.5,3.4,3.4C447.3,284.6,445.7,286.2,443.8,286.2z"/>
		<path d="M445.1,282.5h-0.3l0-0.7c0-0.4-0.5-0.8-1-0.8c-0.6,0-1,0.4-1,0.8l0,0.7h-0.3c-0.1,0-0.2,0.1-0.2,0.2l0,1.6
			c0,0.1,0.1,0.2,0.3,0.2h2.5c0.1,0,0.2-0.1,0.2-0.2l0-1.6C445.4,282.6,445.3,282.5,445.1,282.5z M443.3,281.7
			c0-0.2,0.2-0.4,0.5-0.4c0.3,0,0.5,0.1,0.5,0.4l0,0.8h-1V281.7z"/>
	</g>
	<rect x="451.2" y="275.2" style="clip-path:url(#SVGID_2_);" width="0.3" height="15"/>
	<g style="clip-path:url(#SVGID_2_);">
		<text transform="matrix(1 0 0 1 457.0095 264.8301)" class="st0 st37 st53">User Name</text>
	</g>
	<g style="clip-path:url(#SVGID_2_);">
		<text transform="matrix(1 0 0 1 457.0095 284.4995)" class="st0 st37 st53">Password</text>
	</g>
	<rect x="420.8" y="46.6" style="clip-path:url(#SVGID_2_);fill:#E6E7E8;" width="349" height="129.5"/>
	
		<rect x="595.2" y="-74.8" transform="matrix(0.3479 -0.9375 0.9375 0.3479 283.8372 630.7722)" style="clip-path:url(#SVGID_2_);fill:#BCBEC0;" width="0.3" height="372.3"/>
	
		<rect x="409.2" y="111.2" transform="matrix(0.9376 -0.3477 0.3477 0.9376 -1.5684 213.9509)" style="clip-path:url(#SVGID_2_);fill:#BCBEC0;" width="372.3" height="0.3"/>
	<circle style="clip-path:url(#SVGID_2_);fill:#FFFFFF;" cx="595.1" cy="172" r="1.8"/>
	<circle style="clip-path:url(#SVGID_2_);fill:#808285;" cx="587.8" cy="172" r="1.8"/>
	<circle style="clip-path:url(#SVGID_2_);fill:#FFFFFF;" cx="602.4" cy="172" r="1.8"/>
	<g style="clip-path:url(#SVGID_2_);">
		<rect x="436.7" y="136.3" class="st26" width="59.9" height="35.8"/>
		<text transform="matrix(1 0 0 1 436.7438 139.415)"><tspan x="0" y="0" class="st33 st58">This carousel includes:</tspan><tspan x="0" y="5.2" class="st33 st58">- Customer Reviews;</tspan><tspan x="0" y="10.5" class="st33 st58">- Videos;</tspan><tspan x="0" y="15.7" class="st33 st58">- Ask David not Goliath.</tspan><tspan x="0" y="26.2" class="st33 st58 st59">	</tspan></text>
	</g>
	<g style="clip-path:url(#SVGID_2_);">
		<text transform="matrix(1 0 0 1 487.7477 74.6377)" class="st29 st60">Customer Reviews, Videos and “Ask David not Goliath” go here.</text>
	</g>
	<rect x="420.8" y="19.4" style="clip-path:url(#SVGID_2_);fill:#58595B;" width="348.9" height="27.2"/>
	<g style="clip-path:url(#SVGID_2_);">
		<rect x="732.2" y="30.4" class="st26" width="23.9" height="8.3"/>
		<text transform="matrix(1 0 0 1 732.1896 34.8516)" class="st5 st33 st50">Français</text>
	</g>
	<g style="clip-path:url(#SVGID_2_);">
		<rect x="661.2" y="26.2" class="st5" width="15.3" height="15.3"/>
		<path d="M676.7,41.7H661V26h15.7V41.7z M661.3,41.4h15v-15h-15V41.4z"/>
	</g>
	<g style="clip-path:url(#SVGID_2_);">
		<rect x="684.8" y="26.4" class="st5" width="15.3" height="15.3"/>
		<path d="M700.3,41.9h-15.7V26.2h15.7V41.9z M684.9,41.6h15v-15h-15V41.6z"/>
	</g>
	<g style="clip-path:url(#SVGID_2_);">
		<rect x="708.4" y="26.4" class="st5" width="15.3" height="15.3"/>
		<path d="M723.9,41.9h-15.7V26.2h15.7V41.9z M708.5,41.6h15v-15h-15V41.6z"/>
	</g>
	<g style="clip-path:url(#SVGID_2_);">
		<text transform="matrix(1 0 0 1 711.8766 38.7715)" class="st62 st63">A</text>
	</g>
	<g style="clip-path:url(#SVGID_2_);">
		<text transform="matrix(1 0 0 1 689.3195 37.1685)" class="st62 st64">A</text>
	</g>
	<g style="clip-path:url(#SVGID_2_);">
		<text transform="matrix(1 0 0 1 666.1345 37.1685)" class="st62 st65">A</text>
	</g>
	<g style="clip-path:url(#SVGID_2_);">
		<g>
			<path class="st5" d="M665.6,40.4h-105c-3.4,0-6.2-2.8-6.2-6.2v-2.3c0-3.4,2.8-6.2,6.2-6.2h105c3.4,0,6.2,2.8,6.2,6.2v2.3
				C671.8,37.7,669,40.4,665.6,40.4z"/>
			<path d="M664.4,40.6H561.8c-4.1,0-7.5-3.4-7.5-7.5s3.4-7.5,7.5-7.5h102.6c4.1,0,7.5,3.4,7.5,7.5S668.6,40.6,664.4,40.6z
				 M561.8,25.9c-4,0-7.2,3.2-7.2,7.2s3.2,7.2,7.2,7.2h102.6c4,0,7.2-3.2,7.2-7.2s-3.2-7.2-7.2-7.2H561.8z"/>
		</g>
		<text transform="matrix(0.9856 0 0 1 564.7751 34.9189)" class="st12 st37 st66">Search......</text>
		<g>
			<g>
				<path d="M662.9,32.6c0.4-2.6-1.8-4.8-4.3-4.3c-1.6,0.3-2.8,1.5-3.1,3.1c-0.4,2.6,1.8,4.8,4.3,4.3
					C661.4,35.4,662.6,34.1,662.9,32.6z M659.7,34.7c-2,0.4-3.7-1.3-3.3-3.3c0.2-1.1,1.1-2,2.2-2.2c2-0.4,3.7,1.3,3.3,3.3
					C661.7,33.6,660.8,34.5,659.7,34.7z"/>
				<path d="M665.1,36.6l-2.3-2.3c-0.3,0.5-0.8,1-1.3,1.3l2.3,2.3c0.4,0.4,1.2,0.4,1.5-0.2C665.5,37.3,665.4,36.8,665.1,36.6z"/>
			</g>
		</g>
	</g>
	<g style="clip-path:url(#SVGID_2_);">
		<rect x="448" y="19.3" class="st5" width="76" height="27.2"/>
		<g>
			<path class="st13" d="M518.9,31.1c0.1,0.2,0.2,0.5,0.2,0.7h-2.3c0-0.2,0.1-0.4,0.2-0.6c0.2-0.3,0.6-0.5,1-0.5
				C518.4,30.7,518.7,30.8,518.9,31.1L518.9,31.1z M520.3,32.6v-0.3c0-0.8-0.2-1.3-0.5-1.8c-0.4-0.5-1-0.7-1.7-0.7
				c-0.6,0-1.1,0.2-1.5,0.5c-0.7,0.5-1,1.3-1,2.5c0,1.2,0.3,2,0.8,2.7c0.5,0.6,1.3,0.8,2.2,0.8c0.5,0,1-0.1,1.5-0.2v-0.9
				c-0.4,0.1-0.8,0.2-1.2,0.2c-0.8,0-1.3-0.3-1.8-0.9c-0.4-0.5-0.5-1.1-0.5-1.8H520.3L520.3,32.6z"/>
			<path class="st13" d="M515.5,31.1v-1.3c-0.5,0-1,0.2-1.3,0.5c-0.2,0.2-0.5,0.5-0.6,0.9h0v-1.3h-1.2v6.2h1.2v-2.6
				C513.6,31.9,514.3,31.1,515.5,31.1L515.5,31.1z"/>
			<path class="st13" d="M511.9,36.1v-6.2h-1.2v2.6c0,0.6-0.1,1.2-0.5,1.7c-0.3,0.5-0.7,0.8-1.2,0.8c-0.4,0-0.6-0.2-0.7-0.5
				c-0.1-0.2-0.1-0.6-0.1-1.3v-3.4h-1.2v4.3c0,0.5,0.1,0.9,0.3,1.3c0.3,0.5,0.7,0.7,1.4,0.7c0.9,0,1.6-0.5,1.9-1.5h0v1.3H511.9
				L511.9,36.1z"/>
			<path class="st13" d="M500.3,31.1c0.2,0.2,0.2,0.5,0.2,0.7h-2.3c0-0.2,0.1-0.4,0.2-0.6c0.2-0.3,0.6-0.5,1-0.5
				C499.8,30.7,500.1,30.8,500.3,31.1L500.3,31.1z M497.9,30.3c-0.6,0.5-0.9,1.3-0.9,2.5c0,1.2,0.3,2,0.8,2.7
				c0.5,0.6,1.3,0.8,2.2,0.8c0.5,0,0.9-0.1,1.5-0.2v-0.9c-0.5,0.1-0.8,0.2-1.2,0.2c-0.8,0-1.4-0.3-1.8-0.9c-0.4-0.5-0.5-1.1-0.5-1.8
				h3.6v-0.3c0-0.8-0.2-1.3-0.6-1.8c-0.4-0.5-0.9-0.7-1.6-0.7C498.8,29.8,498.3,30,497.9,30.3L497.9,30.3z"/>
			<path class="st13" d="M495,30.7c0.5,0,0.9,0.1,1.4,0.4V30l-0.6-0.1c-0.3-0.1-0.6-0.1-0.8-0.1c-0.7,0-1.2,0.2-1.6,0.5
				c-0.4,0.3-0.6,0.7-0.6,1.3c0,0.4,0.2,0.8,0.4,1.1c0.2,0.2,0.5,0.4,0.8,0.6l1.2,0.8c0.2,0.2,0.4,0.4,0.4,0.6
				c0,0.6-0.4,0.8-1.2,0.8c-0.5,0-1-0.1-1.6-0.4v1c0.6,0.2,1.2,0.2,1.7,0.2c0.7,0,1.3-0.1,1.6-0.5c0.4-0.3,0.6-0.8,0.6-1.4
				c0-0.5-0.1-0.8-0.5-1.2c-0.2-0.1-0.5-0.4-0.9-0.7l-0.5-0.3c-0.4-0.2-0.5-0.4-0.6-0.4c-0.2-0.2-0.3-0.4-0.3-0.5
				c0-0.2,0.1-0.4,0.3-0.5C494.5,30.8,494.7,30.7,495,30.7L495,30.7z"/>
			<path class="st13" d="M505.4,31.9h1.3c0-0.6-0.1-1.1-0.5-1.4c-0.4-0.5-0.9-0.7-1.8-0.7c-0.9,0-1.5,0.3-2,0.9
				c-0.4,0.5-0.6,1.2-0.6,2.1c0,0.9,0.2,1.7,0.6,2.3c0.5,0.8,1.3,1.2,2.4,1.2c0.7,0,1.2-0.1,1.7-0.2v-0.8c-0.3,0.1-0.6,0.1-1,0.1
				c-0.9,0-1.5-0.3-2-0.9c-0.3-0.5-0.5-1.1-0.5-1.8c0-0.6,0.1-1.1,0.4-1.4c0.2-0.4,0.5-0.5,0.9-0.5
				C505.1,30.7,505.4,31.1,505.4,31.9L505.4,31.9z"/>
			<path class="st14" d="M492.4,31.1c0-0.4-0.1-0.6-0.4-0.9c-0.2-0.2-0.5-0.3-0.8-0.3c-0.5,0-1,0.2-1.4,0.6
				c-0.3,0.2-0.5,0.6-0.7,0.9h0v-0.2c0-0.2-0.1-0.5-0.3-0.7c-0.2-0.3-0.5-0.5-0.9-0.5c-0.5,0-1,0.2-1.4,0.6
				c-0.3,0.2-0.5,0.5-0.7,0.9l0,0l0.2-1.3h-0.9l-1.2,6h0.9l0.5-2.7c0.1-0.6,0.3-1.2,0.6-1.7c0.4-0.7,0.9-1.1,1.4-1.1
				c0.2,0,0.4,0.1,0.5,0.2c0.1,0.1,0.2,0.3,0.2,0.5c0,0.1,0,0.4-0.1,0.9l-0.7,3.8h0.9l0.5-2.7c0.1-0.6,0.3-1.1,0.6-1.6
				c0.4-0.8,0.9-1.2,1.4-1.2c0.2,0,0.4,0.1,0.5,0.2c0.1,0.1,0.2,0.3,0.2,0.5c0,0.3,0,0.6-0.1,0.9l-0.7,3.8h0.9l0.8-4.2
				C492.3,31.6,492.4,31.4,492.4,31.1L492.4,31.1z"/>
			<polygon class="st14" points="477.3,27.4 476.4,27.4 474.7,36.1 475.6,36.1 477.3,27.4 			"/>
			<polygon class="st14" points="484.8,27.4 483.6,27.4 483.4,28.5 484.5,28.5 484.8,27.4 			"/>
			<path class="st14" d="M470.9,31.1c-0.5,0.7-0.8,1.6-0.8,2.6c0,1.7,0.9,2.5,2.6,2.5c0.4,0,0.8-0.1,1.3-0.2l0.1-0.6
				c-0.5,0.1-0.8,0.2-1.1,0.2c-0.7,0-1.2-0.2-1.5-0.7c-0.2-0.4-0.4-0.9-0.4-1.5c0-0.8,0.2-1.5,0.5-2c0.4-0.6,0.8-0.8,1.3-0.8
				c0.6,0,0.9,0.3,0.9,0.9c0,0.1,0,0.2,0,0.5h1.1c0-0.2,0-0.4,0-0.5c0-0.4-0.1-0.8-0.5-1.1c-0.3-0.3-0.8-0.4-1.3-0.4
				C472.1,29.9,471.4,30.3,470.9,31.1L470.9,31.1z"/>
			<polygon class="st14" points="484.1,30.1 483.2,30.1 482,36.1 482.9,36.1 484.1,30.1 			"/>
			<path class="st14" d="M479.6,30.5c0.4,0,0.7,0.2,0.9,0.6c0.1,0.3,0.2,0.6,0.2,1.1c0,0.7-0.1,1.4-0.4,2.1
				c-0.4,0.9-0.9,1.4-1.5,1.4c-0.6,0-0.9-0.5-0.9-1.6c0-0.8,0.1-1.5,0.4-2.2C478.6,30.9,479,30.5,479.6,30.5L479.6,30.5z M481,31.1
				c-0.3-0.7-0.8-1.1-1.6-1.1c-0.9,0-1.6,0.5-2.1,1.4c-0.4,0.8-0.6,1.7-0.6,2.7c0,0.7,0.1,1.2,0.4,1.5c0.3,0.4,0.7,0.6,1.3,0.6
				c0.8,0,1.4-0.4,1.8-1.2l0,0l-0.2,1h0.9l1.2-6h-0.9L481,31.1L481,31.1L481,31.1z"/>
			<path class="st14" d="M492.4,31.1c0-0.4-0.1-0.6-0.4-0.9c-0.2-0.2-0.5-0.3-0.8-0.3c-0.5,0-1,0.2-1.4,0.6
				c-0.3,0.2-0.5,0.6-0.7,0.9h0v-0.2c0-0.2-0.1-0.5-0.3-0.7c-0.2-0.3-0.5-0.5-0.9-0.5c-0.5,0-1,0.2-1.4,0.6
				c-0.3,0.2-0.5,0.5-0.7,0.9l0,0l0.2-1.3h-0.9l-1.2,6h0.9l0.5-2.7c0.1-0.6,0.3-1.2,0.6-1.7c0.4-0.7,0.9-1.1,1.4-1.1
				c0.2,0,0.4,0.1,0.5,0.2c0.1,0.1,0.2,0.3,0.2,0.5c0,0.1,0,0.4-0.1,0.9l-0.7,3.8h0.9l0.5-2.7c0.1-0.6,0.3-1.1,0.6-1.6
				c0.4-0.8,0.9-1.2,1.4-1.2c0.2,0,0.4,0.1,0.5,0.2c0.1,0.1,0.2,0.3,0.2,0.5c0,0.3,0,0.6-0.1,0.9l-0.7,3.8h0.9l0.8-4.2
				C492.3,31.6,492.4,31.4,492.4,31.1L492.4,31.1z"/>
			<polygon class="st14" points="477.3,27.4 476.4,27.4 474.7,36.1 475.6,36.1 477.3,27.4 			"/>
			<polygon class="st14" points="484.8,27.4 483.6,27.4 483.4,28.5 484.5,28.5 484.8,27.4 			"/>
			<path class="st14" d="M470.9,31.1c-0.5,0.7-0.8,1.6-0.8,2.6c0,1.7,0.9,2.5,2.6,2.5c0.4,0,0.8-0.1,1.3-0.2l0.1-0.6
				c-0.5,0.1-0.8,0.2-1.1,0.2c-0.7,0-1.2-0.2-1.5-0.7c-0.2-0.4-0.4-0.9-0.4-1.5c0-0.8,0.2-1.5,0.5-2c0.4-0.6,0.8-0.8,1.3-0.8
				c0.6,0,0.9,0.3,0.9,0.9c0,0.1,0,0.2,0,0.5h1.1c0-0.2,0-0.4,0-0.5c0-0.4-0.1-0.8-0.5-1.1c-0.3-0.3-0.8-0.4-1.3-0.4
				C472.1,29.9,471.4,30.3,470.9,31.1L470.9,31.1z"/>
			<polygon class="st14" points="484.1,30.1 483.2,30.1 482,36.1 482.9,36.1 484.1,30.1 			"/>
			<path class="st14" d="M479.6,30.5c0.4,0,0.7,0.2,0.9,0.6c0.1,0.3,0.2,0.6,0.2,1.1c0,0.7-0.1,1.4-0.4,2.1
				c-0.4,0.9-0.9,1.4-1.5,1.4c-0.6,0-0.9-0.5-0.9-1.6c0-0.8,0.1-1.5,0.4-2.2C478.6,30.9,479,30.5,479.6,30.5L479.6,30.5z M481,31.1
				c-0.3-0.7-0.8-1.1-1.6-1.1c-0.9,0-1.6,0.5-2.1,1.4c-0.4,0.8-0.6,1.7-0.6,2.7c0,0.7,0.1,1.2,0.4,1.5c0.3,0.4,0.7,0.6,1.3,0.6
				c0.8,0,1.4-0.4,1.8-1.2l0,0l-0.2,1h0.9l1.2-6h-0.9L481,31.1L481,31.1L481,31.1z"/>
			<g>
				<path class="st18" d="M466.9,28.2c-3.5-4.2-13.4-2.8-13.4,1.6c0,1.7,1.9,3.2,4.7,3.7c3.7,0.7,2.9,3.5,0.6,3.4
					c-4.5-0.2-8-2.8-8-6.1C450.7,24.1,463.2,22.6,466.9,28.2L466.9,28.2z"/>
				<linearGradient id="SVGID_3_" gradientUnits="userSpaceOnUse" x1="452.039" y1="33.887" x2="468.232" y2="33.887">
					<stop  offset="0.3011" style="stop-color:#262424"/>
					<stop  offset="0.6187" style="stop-color:#282626"/>
					<stop  offset="0.7417" style="stop-color:#2E2D2D"/>
					<stop  offset="0.8309" style="stop-color:#3A3839"/>
					<stop  offset="0.9039" style="stop-color:#4A494A"/>
					<stop  offset="0.9661" style="stop-color:#5F5F60"/>
					<stop  offset="1" style="stop-color:#6E6E70"/>
				</linearGradient>
				<path class="st22" d="M452,36.5c3.5,4.2,13.4,2.8,13.4-1.6c0-1.7-1.9-3.2-4.7-3.7c-3.7-0.7-2.9-3.5-0.6-3.4c4.5,0.2,8,2.8,8,6.1
					C468.2,40.6,455.7,42.1,452,36.5L452,36.5z"/>
			</g>
		</g>
	</g>
	<g style="clip-path:url(#SVGID_2_);">
		<path class="st5" d="M442,28.9h-15.3c-0.5,0-0.9-0.4-0.9-0.9s0.4-0.9,0.9-0.9H442c0.5,0,0.9,0.4,0.9,0.9S442.5,28.9,442,28.9z"/>
	</g>
	<g style="clip-path:url(#SVGID_2_);">
		<path class="st5" d="M442,33.8h-15.3c-0.5,0-0.9-0.4-0.9-0.9s0.4-0.9,0.9-0.9H442c0.5,0,0.9,0.4,0.9,0.9S442.5,33.8,442,33.8z"/>
	</g>
	<g style="clip-path:url(#SVGID_2_);">
		<path class="st5" d="M442,38.7h-15.3c-0.5,0-0.9-0.4-0.9-0.9s0.4-0.9,0.9-0.9H442c0.5,0,0.9,0.4,0.9,0.9S442.5,38.7,442,38.7z"/>
	</g>
	<g style="clip-path:url(#SVGID_2_);">
		<rect x="285.6" y="19.2" class="st68" width="110.5" height="43.9"/>
		<rect x="285.6" y="62.4" class="st68" width="134.9" height="43.9"/>
		<rect x="285.6" y="105.7" class="st68" width="134.9" height="43.9"/>
		<rect x="285.6" y="148.5" class="st68" width="134.9" height="196.6"/>
		<g>
			<text transform="matrix(0.999 0 0 1 291.8425 81.1772)"><tspan x="0" y="0" class="st5 st33 st47">Plan</tspan><tspan x="0" y="14.7" class="st5 st33 st47">Management</tspan></text>
		</g>
		<g>
			<text transform="matrix(0.999 0 0 1 291.8425 122.8442)"><tspan x="0" y="0" class="st5 st33 st47">Risk</tspan><tspan x="0" y="14.7" class="st5 st33 st47">Management</tspan></text>
		</g>
		<g>
			<text transform="matrix(0.999 0 0 1 291.8425 166.9697)" class="st5 st33 st47">eProfile</text>
			<text transform="matrix(0.5824 0 0 0.583 333.4055 162.8833)" class="st5 st33 st47">TM</text>
			<text transform="matrix(0.999 0 0 1 291.8425 181.6948)" class="st5 st33 st47">Services</text>
		</g>
		<g>
			<text transform="matrix(0.999 0 0 1 291.8425 211.981)"><tspan x="0" y="0" class="st5 st33 st47">Cost Containment</tspan><tspan x="0" y="14.7" class="st5 st33 st47">Services</tspan></text>
		</g>
		<g>
			<text transform="matrix(0.999 0 0 1 291.8425 255.8945)"><tspan x="0" y="0" class="st5 st33 st47">Download</tspan><tspan x="0" y="14.7" class="st5 st33 st47">Forms</tspan></text>
		</g>
		<g>
			<text transform="matrix(0.999 0 0 1 291.8425 37.481)"><tspan x="0" y="0" class="st5 st33 st47">Claims </tspan><tspan x="0" y="14.7" class="st5 st33 st47">Management</tspan></text>
		</g>
		<rect x="396.1" y="19.2" class="st69" width="24.4" height="44.2"/>
	</g>
	<g style="clip-path:url(#SVGID_2_);">
		<path class="st5" d="M411.5,129.8c-0.2,0-0.4-0.1-0.6-0.2l-5.9-5.6c-0.3-0.3-0.4-0.9,0-1.2c0.3-0.3,0.9-0.4,1.2,0l5.9,5.6
			c0.3,0.3,0.4,0.9,0,1.2C411.9,129.7,411.7,129.8,411.5,129.8z"/>
		<path class="st5" d="M405.5,135.8c-0.2,0-0.4-0.1-0.6-0.2c-0.3-0.3-0.3-0.9,0-1.2l5.9-6c0.3-0.3,0.9-0.3,1.2,0
			c0.3,0.3,0.3,0.9,0,1.2l-5.9,6C406,135.7,405.7,135.8,405.5,135.8z"/>
	</g>
	<g style="clip-path:url(#SVGID_2_);">
		<path class="st5" d="M411.5,88.1c-0.2,0-0.4-0.1-0.6-0.2l-5.9-5.6c-0.3-0.3-0.4-0.9,0-1.2c0.3-0.3,0.9-0.4,1.2,0l5.9,5.6
			c0.3,0.3,0.4,0.9,0,1.2C411.9,88,411.7,88.1,411.5,88.1z"/>
		<path class="st5" d="M405.5,94.1c-0.2,0-0.4-0.1-0.6-0.2c-0.3-0.3-0.3-0.9,0-1.2l5.9-6c0.3-0.3,0.9-0.3,1.2,0
			c0.3,0.3,0.3,0.9,0,1.2l-5.9,6C406,94,405.7,94.1,405.5,94.1z"/>
	</g>
	<g style="clip-path:url(#SVGID_2_);">
		<path class="st5" d="M411.5,44.2c-0.2,0-0.4-0.1-0.6-0.2l-5.9-5.6c-0.3-0.3-0.4-0.9,0-1.2c0.3-0.3,0.9-0.4,1.2,0l5.9,5.6
			c0.3,0.3,0.4,0.9,0,1.2C411.9,44.2,411.7,44.2,411.5,44.2z"/>
		<path class="st5" d="M405.5,50.3c-0.2,0-0.4-0.1-0.6-0.2c-0.3-0.3-0.3-0.9,0-1.2l5.9-6c0.3-0.3,0.9-0.3,1.2,0
			c0.3,0.3,0.3,0.9,0,1.2l-5.9,6C406,50.2,405.7,50.3,405.5,50.3z"/>
	</g>
	<g style="clip-path:url(#SVGID_2_);">
		<path class="st5" d="M411.5,172.6c-0.2,0-0.4-0.1-0.6-0.2l-5.9-5.6c-0.3-0.3-0.4-0.9,0-1.2c0.3-0.3,0.9-0.4,1.2,0l5.9,5.6
			c0.3,0.3,0.4,0.9,0,1.2C411.9,172.5,411.7,172.6,411.5,172.6z"/>
		<path class="st5" d="M405.5,178.6c-0.2,0-0.4-0.1-0.6-0.2c-0.3-0.3-0.3-0.9,0-1.2l5.9-6c0.3-0.3,0.9-0.3,1.2,0
			c0.3,0.3,0.3,0.9,0,1.2l-5.9,6C406,178.5,405.7,178.6,405.5,178.6z"/>
	</g>
	<g style="clip-path:url(#SVGID_2_);">
		<path class="st5" d="M411.5,216.4c-0.2,0-0.4-0.1-0.6-0.2l-5.9-5.6c-0.3-0.3-0.4-0.9,0-1.2c0.3-0.3,0.9-0.4,1.2,0l5.9,5.6
			c0.3,0.3,0.4,0.9,0,1.2C411.9,216.3,411.7,216.4,411.5,216.4z"/>
		<path class="st5" d="M405.5,222.4c-0.2,0-0.4-0.1-0.6-0.2c-0.3-0.3-0.3-0.9,0-1.2l5.9-6c0.3-0.3,0.9-0.3,1.2,0
			c0.3,0.3,0.3,0.9,0,1.2l-5.9,6C406,222.4,405.7,222.4,405.5,222.4z"/>
	</g>
	<g style="clip-path:url(#SVGID_2_);">
		<path class="st5" d="M411.8,258c-0.2,0-0.4-0.1-0.6-0.2l-5.9-5.6c-0.3-0.3-0.4-0.9,0-1.2c0.3-0.3,0.9-0.4,1.2,0l5.9,5.6
			c0.3,0.3,0.4,0.9,0,1.2C412.3,257.9,412,258,411.8,258z"/>
		<path class="st5" d="M405.9,264c-0.2,0-0.4-0.1-0.6-0.2c-0.3-0.3-0.3-0.9,0-1.2l5.9-6c0.3-0.3,0.9-0.3,1.2,0
			c0.3,0.3,0.3,0.9,0,1.2l-5.9,6C406.3,263.9,406.1,264,405.9,264z"/>
	</g>
</g>
<g>
	<path d="M285.7,281.4V18.8h349.5v262.5H285.7z M286.1,19.2V281h348.7V19.2H286.1z"/>
	<path class="st24" d="M672.8,282.2V17.8C672.8,8,664.8,0,655,0H266.1c-9.8,0-17.8,8-17.8,17.8v264.4c0,9.8,8,17.8,17.8,17.8H655
		C664.8,300,672.8,292,672.8,282.2z M266.8,296.8c-8.5,0-15.4-6.9-15.4-15.4V18.6c0-8.5,6.9-15.4,15.4-15.4h387.4
		c8.5,0,15.4,6.9,15.4,15.4v262.9c0,8.5-6.9,15.4-15.4,15.4H266.8z"/>
	<path class="st24" d="M267.8,140.7c-5.1,0-9.3,4.2-9.3,9.3c0,5.1,4.2,9.3,9.3,9.3c5.1,0,9.3-4.2,9.3-9.3
		C277.1,144.9,272.9,140.7,267.8,140.7z M267.8,158.5c-4.7,0-8.5-3.8-8.5-8.5s3.8-8.5,8.5-8.5c4.7,0,8.5,3.8,8.5,8.5
		S272.5,158.5,267.8,158.5z"/>
	<circle class="st24" cx="653.9" cy="150.2" r="2.2"/>
</g>
<g>
	<g>
		<polyline class="st75" points="683,26.8 701.3,26.8 701.3,56.3 		"/>
		<g>
			<polygon points="675.5,31.8 683.8,26.8 675.5,21.9 			"/>
		</g>
	</g>
</g>
<rect x="678.1" y="58.1" class="st26" width="57.3" height="17.8"/>
<text transform="matrix(1 0 0 1 678.0641 64.7764)"><tspan x="0" y="0" class="st76 st77">Landscape</tspan><tspan x="0" y="10.9" class="st76 st77">View</tspan></text>
<g>
	<g>
		<polyline class="st75" points="726.8,238.5 714.2,238.5 714.2,209.3 		"/>
		<g>
			<polygon points="734.3,233.6 725.9,238.5 734.3,243.5 			"/>
		</g>
	</g>
</g>
<rect x="669.1" y="190.2" class="st26" width="56.9" height="17.7"/>
<text transform="matrix(1 0 0 1 698.6096 196.875)"><tspan x="0" y="0" class="st76 st78">Portrait</tspan><tspan x="8.4" y="10.8" class="st76 st78">View</tspan></text>
<g>
	<circle class="st84" cx="410.6" cy="38.2" r="14.8"/>
	<circle class="st85" cx="410.6" cy="38.2" r="6.4"/>
	<path class="st86" d="M402.2,57.4c0,0,0.3-0.6,1.4-0.5c1.1,0.1,4.2,2.7,5.2,5.4c0.5,1.4,0.1,2.2,0.4,2.8c0.1,0.2,0.6,1.5,0.9,2.6
		c0.4,1.6,0.8,2.9,1.1,3c0.4,0.1,1.7,0,2.3-2.5c0.6-2.5,1.1-8.2,0.7-10.9s-3.2-8.6-3.9-11.1c-0.7-2.5-1.4-4.7-1.5-6.6
		c-0.1-1.8,1-3,2-3c1,0,1.7-0.2,3,2c1.3,2.2,3.7,6.4,4.5,7.7c0.7,1.4,0.9,2.4,1,2.4s1.9-1.9,2.7-2.7c0.9-0.8,2-1.7,3-1.8
		c1.1-0.1,3.7,0.5,4.4,6.2c0,0,0.6-0.1,1.5,0.1c0.9,0.2,2.4,1.8,3.2,5.1c0,0,0.4-0.3,1.2-0.3c0.8,0,1.9,0.6,2.6,2.3
		c0.8,1.6,0.7,2.6,1.5,4.2c0.7,1.6,1.1,1.7,1.2,2.5c0.2,0.7,0.5,7.1,0.6,10.3c0.1,3.2-0.1,5.2,0.1,6.7c0.2,1.3,2,4,2.3,4.8
		c0.3,0.7-0.4,3.4-1.5,4.3c-1.1,0.9-5.1,3.9-8.6,5.1c-3.5,1.1-6.9,1.2-8.4,0.5s-2.7-2.1-3.5-3.5c-0.7-1.4-1-2.1-1.8-3
		c-1-1.2-2.8-1.7-4.4-2.5c-1.4-0.7-9.7-7.6-10.3-8.9c-0.6-1.3-0.8-2.6-1.9-6.5c-1-3.3-1.6-4.4-1.5-5.5c0.2-1.6,0.6-2.2,0.5-3.3
		c-0.1-1.1-0.6-2.2-0.6-2.9C401.6,59,401.7,58,402.2,57.4z"/>
</g>
<g>
	<defs>
		<rect id="SVGID_15_" x="23.3" y="26.5" width="185.6" height="247"/>
	</defs>
	<clipPath id="SVGID_4_">
		<use xlink:href="#SVGID_15_"  style="overflow:visible;"/>
	</clipPath>
	<g style="clip-path:url(#SVGID_4_);">
		<rect x="30.6" y="64.4" class="st26" width="170.8" height="5.5"/>
		<text transform="matrix(1 0 0 1 97.9551 69.1006)" class="st27 st102">Drug Claims </text>
	</g>
	<g style="clip-path:url(#SVGID_4_);">
		<rect x="30.8" y="75.7" class="st26" width="170.6" height="24.7"/>
		<text transform="matrix(1 0 0 1 30.8433 77.8203)"><tspan x="0" y="0" class="st27 st103">Lorem ipsum dolor sit amet, consectetur adipiscing elit, sed do eiusmod tempor incididunt ut labore et dolore magna aliqua. Ut </tspan><tspan x="0" y="4" class="st27 st103">enim ad minim veniam, quis nostrud exercitation ullamco laboris nisi ut aliquip ex ea commodo consequat. Duis aute irure dolor in </tspan><tspan x="0" y="8.1" class="st27 st103">reprehenderit in voluptate velit esse cillum dolore eu fugiat nulla pariatur. Excepteur sint occaecat cupidatat non proident, sunt in </tspan><tspan x="0" y="12.1" class="st27 st103">culpa qui officia deserunt mollit.</tspan></text>
	</g>
	<g style="clip-path:url(#SVGID_4_);">
		<rect x="30.9" y="99.2" class="st26" width="168.9" height="87.9"/>
		<text transform="matrix(1 0 0 1 30.894 101.8936)"><tspan x="0" y="0" class="st29 st104">Key Features</tspan><tspan x="0" y="5.2" class="st27 st103">• </tspan><tspan x="2.2" y="5.2" class="st29 st103">Lorem ipsum dolor sit amet</tspan><tspan x="0" y="10.4" class="st27 st103">consectetur adipiscing elit, sed do eiusmod tempor incididunt ut labore et dolore magna aliqua. Ut enim ad minim veniam, quis </tspan><tspan x="0" y="14.4" class="st27 st103">nostrud exercitation ullamco laboris nisi ut aliquip ex ea commodo consequat. Duis aute irure dolor in reprehenderit in voluptate </tspan><tspan x="0" y="18.5" class="st27 st103">velit esse cillum dolore eu fugiat nulla pariatur. Excepteur sint occaecat cupidatat non proident.</tspan><tspan x="0" y="27.7" class="st29 st103">• Lorem ipsum dolor sit amet</tspan><tspan x="0" y="31.8" class="st27 st103">consectetur adipiscing elit, sed do eiusmod tempor incididunt ut labore et dolore magna aliqua. Ut enim ad minim veniam, quis </tspan><tspan x="0" y="35.8" class="st27 st103">nostrud exercitation ullamco laboris nisi ut aliquip ex ea commodo consequat. Duis aute irure dolor in reprehenderit in voluptate </tspan><tspan x="0" y="39.9" class="st27 st103">velit esse cillum dolore eu fugiat nulla pariatur. Excepteur sint occaecat cupidatat non proident.</tspan><tspan x="0" y="49.1" class="st29 st103">• Lorem ipsum dolor sit amet</tspan><tspan x="0" y="53.2" class="st27 st103">consectetur adipiscing elit, sed do eiusmod tempor incididunt ut labore et dolore magna aliqua. Ut enim ad minim veniam, quis </tspan><tspan x="0" y="57.2" class="st27 st103">nostrud exercitation ullamco laboris nisi ut aliquip ex ea commodo consequat. Duis aute irure dolor in reprehenderit in voluptate </tspan><tspan x="0" y="61.3" class="st27 st103">velit esse cillum dolore eu fugiat nulla pariatur. Excepteur sint occaecat cupidatat non proident.</tspan><tspan x="0" y="70.5" class="st29 st103">• Lorem ipsum dolor sit amet</tspan><tspan x="0" y="74.6" class="st27 st103">consectetur adipiscing elit, sed do eiusmod tempor incididunt ut labore et dolore magna aliqua. Ut enim ad minim veniam, quis </tspan><tspan x="0" y="78.6" class="st27 st103">nostrud exercitation ullamco laboris nisi ut aliquip ex ea commodo consequat. Duis aute irure dolor in reprehenderit in voluptate </tspan><tspan x="0" y="82.6" class="st27 st103">velit esse cillum dolore eu fugiat nulla pariatur. Excepteur sint occaecat cupidatat non proident.</tspan></text>
	</g>
	<g style="clip-path:url(#SVGID_4_);">
		<rect x="30.9" y="193.7" class="st26" width="170.5" height="33.1"/>
		<text transform="matrix(1 0 0 1 30.8687 196.4448)"><tspan x="0" y="0" class="st29 st104">Flexible plan design options: Generic substitution</tspan><tspan x="0" y="4" class="st27 st103">• Preferred provider network</tspan><tspan x="0" y="8.1" class="st27 st103">• Tiered co-payment: brand vs. generic; government vs. private; pharmacy chain</tspan><tspan x="0" y="12.1" class="st27 st103">• Therapeutic price substitution</tspan><tspan x="0" y="16.2" class="st27 st103">• Managed cost formulary</tspan><tspan x="0" y="20.2" class="st27 st103">• Exception coverage</tspan><tspan x="0" y="24.3" class="st27 st103">• Deductibles/maximums</tspan><tspan x="0" y="28.3" class="st27 st103">• Coordination of benefits – private and provincial </tspan></text>
	</g>
	<g style="clip-path:url(#SVGID_4_);">
		<text transform="matrix(1 0 0 1 30.8438 50.0068)"><tspan x="0" y="0" class="st6 st27 st105">Home&gt;Claims Management </tspan><tspan x="32.5" y="0" class="st80 st27 st105">&gt; Drug Claims</tspan></text>
	</g>
	<g style="opacity:0;clip-path:url(#SVGID_4_);">
		<rect x="23.7" y="40.9" width="185" height="7.2"/>
		<rect x="23.7" y="50" width="185" height="14.5"/>
	</g>
	
		<line style="clip-path:url(#SVGID_4_);fill:#FFFFFF;stroke:#FFFFFF;stroke-width:5;stroke-linecap:round;stroke-miterlimit:10;" x1="26.8" y1="36.3" x2="35" y2="36.3"/>
	<rect x="23.3" y="26.5" style="clip-path:url(#SVGID_4_);fill:#58595B;" width="185.4" height="14.4"/>
	<g style="clip-path:url(#SVGID_4_);">
		<rect x="188.8" y="32.4" class="st26" width="12.7" height="4.4"/>
		<text transform="matrix(1 0 0 1 188.8057 34.7163)" class="st5 st33 st109">Français</text>
	</g>
	<g style="clip-path:url(#SVGID_4_);">
		<path class="st5" d="M165.9,37.7H98.4c-2.1,0-3.8-1.7-3.8-3.8v-0.1c0-2.1,1.7-3.8,3.8-3.8h67.5c2.1,0,3.8,1.7,3.8,3.8v0.1
			C169.7,36,168,37.7,165.9,37.7z"/>
		<text transform="matrix(0.9856 0 0 1 100.0479 34.751)" class="st12 st37 st110">Search......</text>
		<g>
			<g>
				<path d="M164.7,33.5c0.2-1.4-0.9-2.5-2.3-2.3c-0.8,0.1-1.5,0.8-1.6,1.6c-0.2,1.4,0.9,2.5,2.3,2.3
					C163.9,35,164.6,34.3,164.7,33.5z M163,34.6c-1.1,0.2-2-0.7-1.8-1.8c0.1-0.6,0.6-1.1,1.2-1.2c1.1-0.2,2,0.7,1.8,1.8
					C164.1,34,163.6,34.5,163,34.6z"/>
				<path d="M165.9,35.6l-1.2-1.2c-0.2,0.3-0.4,0.5-0.7,0.7l1.2,1.2c0.2,0.2,0.6,0.2,0.8-0.1C166.1,36,166.1,35.8,165.9,35.6z"/>
			</g>
		</g>
	</g>
	<g style="clip-path:url(#SVGID_4_);">
		<rect x="38.1" y="26.5" class="st5" width="40.3" height="14.4"/>
		<g>
			<path class="st13" d="M75.7,32.8c0.1,0.1,0.1,0.2,0.1,0.3h-1.3c0-0.1,0-0.2,0.1-0.3c0.1-0.2,0.3-0.2,0.5-0.2
				C75.4,32.6,75.6,32.7,75.7,32.8L75.7,32.8z M76.5,33.5v-0.1c0-0.4-0.1-0.6-0.3-0.9c-0.2-0.2-0.5-0.3-0.9-0.3
				c-0.3,0-0.6,0.1-0.8,0.2c-0.4,0.2-0.5,0.6-0.5,1.2c0,0.6,0.1,1,0.4,1.3c0.3,0.3,0.7,0.4,1.2,0.4c0.2,0,0.5,0,0.8-0.1v-0.4
				c-0.2,0.1-0.4,0.1-0.6,0.1c-0.4,0-0.7-0.2-0.9-0.5c-0.2-0.3-0.3-0.5-0.3-0.9H76.5L76.5,33.5z"/>
			<path class="st13" d="M73.9,32.8v-0.6c-0.3,0-0.5,0.1-0.7,0.3c-0.1,0.1-0.2,0.3-0.3,0.4h0v-0.6h-0.6v3h0.6V34
				C72.9,33.2,73.3,32.8,73.9,32.8L73.9,32.8z"/>
			<path class="st13" d="M72,35.3v-3h-0.6v1.3c0,0.3-0.1,0.6-0.2,0.8c-0.2,0.3-0.4,0.4-0.6,0.4c-0.2,0-0.3-0.1-0.4-0.2
				c0-0.1-0.1-0.3-0.1-0.6v-1.6h-0.6v2.1c0,0.3,0.1,0.5,0.1,0.6c0.1,0.2,0.4,0.4,0.7,0.4c0.5,0,0.8-0.2,1-0.7h0v0.6H72L72,35.3z"/>
			<path class="st13" d="M65.8,32.8c0.1,0.1,0.1,0.2,0.1,0.3h-1.3c0-0.1,0-0.2,0.1-0.3c0.1-0.2,0.3-0.2,0.5-0.2
				C65.5,32.6,65.7,32.7,65.8,32.8L65.8,32.8z M64.5,32.4C64.2,32.6,64,33,64,33.6c0,0.6,0.1,1,0.4,1.3c0.3,0.3,0.7,0.4,1.2,0.4
				c0.2,0,0.5,0,0.8-0.1v-0.4c-0.2,0.1-0.4,0.1-0.6,0.1c-0.4,0-0.7-0.2-0.9-0.5c-0.2-0.3-0.3-0.5-0.3-0.9h1.9v-0.1
				c0-0.4-0.1-0.6-0.3-0.9c-0.2-0.2-0.5-0.3-0.9-0.3C65,32.2,64.7,32.3,64.5,32.4L64.5,32.4z"/>
			<path class="st13" d="M63,32.6c0.2,0,0.5,0.1,0.8,0.2v-0.5l-0.3-0.1c-0.1,0-0.3-0.1-0.4-0.1c-0.4,0-0.6,0.1-0.8,0.2
				c-0.2,0.2-0.3,0.4-0.3,0.6c0,0.2,0.1,0.4,0.2,0.5c0.1,0.1,0.2,0.2,0.4,0.3l0.7,0.4c0.1,0.1,0.2,0.2,0.2,0.3
				c0,0.3-0.2,0.4-0.7,0.4c-0.3,0-0.5-0.1-0.8-0.2v0.5c0.3,0.1,0.6,0.1,0.9,0.1c0.4,0,0.7-0.1,0.9-0.2c0.2-0.2,0.3-0.4,0.3-0.7
				c0-0.2-0.1-0.4-0.2-0.6c-0.1-0.1-0.2-0.2-0.5-0.3l-0.3-0.1c-0.2-0.1-0.3-0.2-0.3-0.2c-0.1-0.1-0.1-0.2-0.1-0.3
				c0-0.1,0.1-0.2,0.2-0.2C62.7,32.7,62.8,32.6,63,32.6L63,32.6z"/>
			<path class="st13" d="M68.5,33.2h0.7c0-0.3-0.1-0.5-0.2-0.7c-0.2-0.2-0.5-0.3-0.9-0.3c-0.5,0-0.8,0.2-1.1,0.4
				c-0.2,0.3-0.3,0.6-0.3,1c0,0.4,0.1,0.8,0.3,1.1c0.3,0.4,0.7,0.6,1.3,0.6c0.4,0,0.7,0,0.9-0.1v-0.4c-0.1,0.1-0.3,0.1-0.5,0.1
				c-0.5,0-0.8-0.2-1-0.4c-0.2-0.2-0.3-0.5-0.3-0.9c0-0.3,0.1-0.5,0.2-0.7c0.1-0.2,0.3-0.3,0.5-0.3C68.3,32.6,68.5,32.8,68.5,33.2
				L68.5,33.2z"/>
			<path class="st14" d="M61.6,32.8c0-0.2-0.1-0.3-0.2-0.4c-0.1-0.1-0.3-0.2-0.4-0.2c-0.3,0-0.5,0.1-0.7,0.3
				c-0.1,0.1-0.3,0.3-0.4,0.4h0v-0.1c0-0.1-0.1-0.2-0.1-0.4c-0.1-0.2-0.3-0.2-0.5-0.2c-0.3,0-0.5,0.1-0.7,0.3
				c-0.1,0.1-0.3,0.3-0.4,0.4l0,0l0.1-0.6h-0.5l-0.6,2.9h0.5l0.3-1.3c0.1-0.3,0.2-0.6,0.3-0.8c0.2-0.3,0.5-0.5,0.8-0.5
				c0.1,0,0.2,0,0.3,0.1c0.1,0.1,0.1,0.2,0.1,0.3c0,0,0,0.2-0.1,0.4l-0.4,1.8h0.5l0.3-1.3c0.1-0.3,0.2-0.5,0.3-0.8
				c0.2-0.4,0.5-0.6,0.8-0.6c0.1,0,0.2,0,0.3,0.1C61,32.8,61,32.9,61,33c0,0.1,0,0.3-0.1,0.4l-0.4,1.9h0.5l0.4-2
				C61.5,33.1,61.6,33,61.6,32.8L61.6,32.8z"/>
			<polygon class="st14" points="53.5,31 53,31 52.1,35.3 52.6,35.3 53.5,31 			"/>
			<polygon class="st14" points="57.5,31 56.9,31 56.8,31.5 57.4,31.5 57.5,31 			"/>
			<path class="st14" d="M50.1,32.8c-0.3,0.3-0.4,0.8-0.4,1.3c0,0.8,0.5,1.2,1.4,1.2c0.2,0,0.4,0,0.7-0.1l0.1-0.3
				C51.6,35,51.4,35,51.2,35c-0.4,0-0.6-0.1-0.8-0.3c-0.1-0.2-0.2-0.4-0.2-0.8c0-0.4,0.1-0.7,0.3-1c0.2-0.3,0.4-0.4,0.7-0.4
				c0.3,0,0.5,0.2,0.5,0.4c0,0,0,0.1,0,0.2h0.6c0-0.1,0-0.2,0-0.3c0-0.2-0.1-0.4-0.3-0.5c-0.2-0.1-0.4-0.2-0.7-0.2
				C50.8,32.2,50.4,32.4,50.1,32.8L50.1,32.8z"/>
			<polygon class="st14" points="57.2,32.3 56.7,32.3 56.1,35.3 56.5,35.3 57.2,32.3 			"/>
			<path class="st14" d="M54.7,32.5c0.2,0,0.4,0.1,0.5,0.3c0.1,0.2,0.1,0.3,0.1,0.5c0,0.3-0.1,0.7-0.2,1C55,34.8,54.7,35,54.3,35
				c-0.3,0-0.5-0.3-0.5-0.8c0-0.4,0.1-0.8,0.2-1.1C54.2,32.7,54.4,32.5,54.7,32.5L54.7,32.5z M55.5,32.8c-0.2-0.4-0.4-0.5-0.8-0.5
				c-0.5,0-0.8,0.2-1.1,0.7c-0.2,0.4-0.3,0.8-0.3,1.3c0,0.3,0.1,0.6,0.2,0.8c0.1,0.2,0.4,0.3,0.7,0.3c0.4,0,0.8-0.2,1-0.6l0,0
				L55,35.3h0.5l0.6-2.9h-0.5L55.5,32.8L55.5,32.8L55.5,32.8z"/>
			<path class="st14" d="M61.6,32.8c0-0.2-0.1-0.3-0.2-0.4c-0.1-0.1-0.3-0.2-0.4-0.2c-0.3,0-0.5,0.1-0.7,0.3
				c-0.1,0.1-0.3,0.3-0.4,0.4h0v-0.1c0-0.1-0.1-0.2-0.1-0.4c-0.1-0.2-0.3-0.2-0.5-0.2c-0.3,0-0.5,0.1-0.7,0.3
				c-0.1,0.1-0.3,0.3-0.4,0.4l0,0l0.1-0.6h-0.5l-0.6,2.9h0.5l0.3-1.3c0.1-0.3,0.2-0.6,0.3-0.8c0.2-0.3,0.5-0.5,0.8-0.5
				c0.1,0,0.2,0,0.3,0.1c0.1,0.1,0.1,0.2,0.1,0.3c0,0,0,0.2-0.1,0.4l-0.4,1.8h0.5l0.3-1.3c0.1-0.3,0.2-0.5,0.3-0.8
				c0.2-0.4,0.5-0.6,0.8-0.6c0.1,0,0.2,0,0.3,0.1C61,32.8,61,32.9,61,33c0,0.1,0,0.3-0.1,0.4l-0.4,1.9h0.5l0.4-2
				C61.5,33.1,61.6,33,61.6,32.8L61.6,32.8z"/>
			<polygon class="st14" points="53.5,31 53,31 52.1,35.3 52.6,35.3 53.5,31 			"/>
			<polygon class="st14" points="57.5,31 56.9,31 56.8,31.5 57.4,31.5 57.5,31 			"/>
			<path class="st14" d="M50.1,32.8c-0.3,0.3-0.4,0.8-0.4,1.3c0,0.8,0.5,1.2,1.4,1.2c0.2,0,0.4,0,0.7-0.1l0.1-0.3
				C51.6,35,51.4,35,51.2,35c-0.4,0-0.6-0.1-0.8-0.3c-0.1-0.2-0.2-0.4-0.2-0.8c0-0.4,0.1-0.7,0.3-1c0.2-0.3,0.4-0.4,0.7-0.4
				c0.3,0,0.5,0.2,0.5,0.4c0,0,0,0.1,0,0.2h0.6c0-0.1,0-0.2,0-0.3c0-0.2-0.1-0.4-0.3-0.5c-0.2-0.1-0.4-0.2-0.7-0.2
				C50.8,32.2,50.4,32.4,50.1,32.8L50.1,32.8z"/>
			<polygon class="st14" points="57.2,32.3 56.7,32.3 56.1,35.3 56.5,35.3 57.2,32.3 			"/>
			<path class="st14" d="M54.7,32.5c0.2,0,0.4,0.1,0.5,0.3c0.1,0.2,0.1,0.3,0.1,0.5c0,0.3-0.1,0.7-0.2,1C55,34.8,54.7,35,54.3,35
				c-0.3,0-0.5-0.3-0.5-0.8c0-0.4,0.1-0.8,0.2-1.1C54.2,32.7,54.4,32.5,54.7,32.5L54.7,32.5z M55.5,32.8c-0.2-0.4-0.4-0.5-0.8-0.5
				c-0.5,0-0.8,0.2-1.1,0.7c-0.2,0.4-0.3,0.8-0.3,1.3c0,0.3,0.1,0.6,0.2,0.8c0.1,0.2,0.4,0.3,0.7,0.3c0.4,0,0.8-0.2,1-0.6l0,0
				L55,35.3h0.5l0.6-2.9h-0.5L55.5,32.8L55.5,32.8L55.5,32.8z"/>
		</g>
		<g>
			<path class="st18" d="M46.8,31.9c-1.6-1.9-6.2-1.3-6.2,0.7c0,0.8,0.9,1.5,2.2,1.7c1.7,0.3,1.3,1.6,0.3,1.6
				c-2.1-0.1-3.7-1.3-3.7-2.8C39.3,30,45.1,29.3,46.8,31.9L46.8,31.9z"/>
			<linearGradient id="SVGID_6_" gradientUnits="userSpaceOnUse" x1="39.9525" y1="34.4858" x2="47.4051" y2="34.4858">
				<stop  offset="0.3011" style="stop-color:#262424"/>
				<stop  offset="0.6187" style="stop-color:#282626"/>
				<stop  offset="0.7417" style="stop-color:#2E2D2D"/>
				<stop  offset="0.8309" style="stop-color:#3A3839"/>
				<stop  offset="0.9039" style="stop-color:#4A494A"/>
				<stop  offset="0.9661" style="stop-color:#5F5F60"/>
				<stop  offset="1" style="stop-color:#6E6E70"/>
			</linearGradient>
			<path style="fill-rule:evenodd;clip-rule:evenodd;fill:url(#SVGID_6_);" d="M40,35.7c1.6,1.9,6.2,1.3,6.2-0.7
				c0-0.8-0.9-1.5-2.2-1.7c-1.7-0.3-1.3-1.6-0.3-1.6c2.1,0.1,3.7,1.3,3.7,2.8C47.4,37.6,41.6,38.3,40,35.7L40,35.7z"/>
		</g>
	</g>
	
		<line style="clip-path:url(#SVGID_4_);fill:#FFFFFF;stroke:#FFFFFF;stroke-linecap:round;stroke-miterlimit:10;" x1="26.8" y1="31.1" x2="35" y2="31.1"/>
	
		<line style="clip-path:url(#SVGID_4_);fill:#FFFFFF;stroke:#FFFFFF;stroke-linecap:round;stroke-miterlimit:10;" x1="26.8" y1="33.7" x2="35" y2="33.7"/>
	
		<line style="clip-path:url(#SVGID_4_);fill:#FFFFFF;stroke:#FFFFFF;stroke-linecap:round;stroke-miterlimit:10;" x1="26.8" y1="36.3" x2="35" y2="36.3"/>
	<rect x="23.6" y="243.8" style="clip-path:url(#SVGID_4_);fill:#414042;" width="185.1" height="29.5"/>
	<g style="clip-path:url(#SVGID_4_);">
		<rect x="162.5" y="268.4" class="st26" width="39.3" height="25"/>
		<text transform="matrix(0.9856 0 0 1 162.4658 270.0503)"><tspan x="0" y="0" class="st5 st29 st114">Drug:</tspan><tspan x="0" y="4" class="st3 st33 st114">7:00 a.m. – 11:00 p.m. EST  (Mon-Fri) </tspan><tspan x="0" y="8" class="st3 st33 st114">11:00 a.m. – 4:00 p.m. EST (Sat)</tspan><tspan x="0" y="16.1" class="st5 st29 st114">Dental and EHC:</tspan><tspan x="0" y="20.1" class="st3 st33 st114">7:00 a.m. – 11:00 p.m. EST  (Mon-Fri)</tspan></text>
		<rect x="167.8" y="263.2" class="st26" width="37.3" height="2.9"/>
		<text transform="matrix(0.9856 0 0 1 167.7983 265.353)" class="st5 st29 st115">Hours of Service</text>
		<g>
			<path class="st0" d="M164.6,264.1l0.8,0.9l-0.2,0.2l-1-0.9l0-0.1l0.1-1.4h0.2L164.6,264.1z M166.4,264.1c0,1.1-0.9,2-2,2
				c-1.1,0-2-0.9-2-2c0-1.1,0.9-2,2-2C165.5,262.1,166.4,263,166.4,264.1z M166.1,264.1c0-0.9-0.7-1.7-1.7-1.7
				c-0.9,0-1.7,0.7-1.7,1.7s0.7,1.7,1.7,1.7C165.4,265.8,166.1,265,166.1,264.1z"/>
		</g>
	</g>
	<g style="clip-path:url(#SVGID_4_);">
		<rect x="31.1" y="268.6" class="st26" width="27.6" height="15"/>
		<text transform="matrix(0.9856 0 0 1 31.1396 270.2573)"><tspan x="0" y="0" class="st3 st33 st114">Toll Free: 1-888-513-4464</tspan><tspan x="0" y="4" class="st3 st33 st114">Fax:         1-866-613-0530</tspan><tspan x="0" y="8" class="st3 st33 st114">service@claimsecure.com</tspan></text>
		<g>
			<rect x="36.4" y="263.2" class="st26" width="15.9" height="2.9"/>
			<text transform="matrix(0.9856 0 0 1 36.4287 265.353)" class="st5 st29 st115">Contact</text>
			<g>
				<path class="st0" d="M33.1,262.4c1,0,1.7,0.8,1.7,1.7c0,1-0.8,1.7-1.7,1.7s-1.7-0.8-1.7-1.7C31.4,263.2,32.2,262.4,33.1,262.4
					 M33.1,262.1c-1.1,0-2,0.9-2,2c0,1.1,0.9,2,2,2s2-0.9,2-2C35.1,263,34.2,262.1,33.1,262.1L33.1,262.1z M34.2,264.8L34.2,264.8
					c0-0.1-0.1-0.2-0.2-0.2l-0.3-0.1c-0.1,0-0.2,0-0.3,0.1l-0.1,0.1c-0.4-0.1-0.7-0.4-0.8-0.8l0.1-0.1c0.1-0.1,0.1-0.2,0.1-0.3
					l-0.1-0.3c0-0.1-0.1-0.2-0.2-0.2l0,0c-0.1,0-0.2,0-0.2,0.1l-0.2,0.2c0,0,0,0.1,0,0.1c0,0.5,0.2,1,0.5,1.3
					c0.4,0.4,0.8,0.6,1.3,0.5c0,0,0.1,0,0.1,0l0.2-0.2C34.2,265,34.3,264.9,34.2,264.8z"/>
			</g>
		</g>
	</g>
	<g style="clip-path:url(#SVGID_4_);">
		<rect x="136.4" y="262.9" class="st26" width="25.4" height="2.9"/>
		<text transform="matrix(0.9856 0 0 1 136.4131 265.0435)" class="st5 st29 st115">Mailing Address</text>
		<g>
			<rect x="131.8" y="267.4" class="st26" width="27.2" height="19.7"/>
			<text transform="matrix(0.9856 0 0 1 131.8047 269.0093)"><tspan x="0" y="0" class="st5 st29 st114">Claims or Receipts:</tspan><tspan x="0" y="4" class="st3 st33 st114">ClaimSecure Inc.</tspan><tspan x="0" y="8" class="st3 st33 st114">P.O. Box 6500 Station A,</tspan><tspan x="0" y="12.1" class="st3 st33 st114">Sudbury, Ontario</tspan><tspan x="0" y="16.1" class="st3 st33 st114">P3A 5N5</tspan></text>
		</g>
		<path class="st0" d="M133.8,262.4c1,0,1.7,0.8,1.7,1.7c0,1-0.8,1.7-1.7,1.7c-1,0-1.7-0.8-1.7-1.7
			C132.1,263.2,132.8,262.4,133.8,262.4 M133.8,262.1c-1.1,0-2,0.9-2,2c0,1.1,0.9,2,2,2s2-0.9,2-2
			C135.8,263,134.9,262.1,133.8,262.1L133.8,262.1z"/>
		<path class="st0" d="M134.7,263.2C134.7,263.2,134.7,263.2,134.7,263.2l-2.2,1c0,0,0,0,0,0c0,0,0,0,0,0l0.6,0.3c0,0,0,0,0,0
			l0.6-0.4l-0.5,0.5c0,0,0,0,0,0l0,0.6c0,0,0,0,0,0c0,0,0,0,0,0c0,0,0,0,0,0l0.3-0.4l0.4,0.2c0,0,0,0,0,0s0,0,0,0L134.7,263.2
			C134.7,263.2,134.7,263.2,134.7,263.2z"/>
	</g>
	<g style="clip-path:url(#SVGID_4_);">
		<g>
			<rect x="67.6" y="263.1" class="st26" width="25.4" height="2.9"/>
			<text transform="matrix(0.9856 0 0 1 67.5825 265.311)" class="st5 st29 st115">Head Office</text>
			<g>
				<rect x="63" y="267.6" class="st26" width="31.1" height="23.6"/>
				<text transform="matrix(0.9856 0 0 1 62.9746 269.2769)"><tspan x="0" y="0" class="st3 st33 st114">ClaimSecure Inc.</tspan><tspan x="0" y="4" class="st3 st33 st114">City Centre Plaza</tspan><tspan x="0" y="8" class="st3 st33 st114">1 City Centre Drive, Suite 620</tspan><tspan x="0" y="12.1" class="st3 st33 st114">Mississauga, Ontario </tspan><tspan x="0" y="16.1" class="st3 st33 st114">L5B 1M2</tspan></text>
			</g>
		</g>
		<g>
			<path class="st0" d="M64.6,262.3c1,0,1.7,0.8,1.7,1.7c0,1-0.8,1.7-1.7,1.7c-1,0-1.7-0.8-1.7-1.7
				C62.8,263.1,63.6,262.3,64.6,262.3 M64.6,262.1c-1.1,0-2,0.9-2,2c0,1.1,0.9,2,2,2s2-0.9,2-2C66.5,262.9,65.7,262.1,64.6,262.1
				L64.6,262.1z"/>
			<g>
				<g>
					<g>
						<path class="st0" d="M65.5,263.5c0-0.5-0.4-0.9-0.9-0.9c-0.5,0-0.9,0.4-0.9,0.9c0,0.4,0.7,1.6,0.8,1.9c0,0,0,0,0,0s0,0,0,0
							C64.8,265.1,65.5,264,65.5,263.5z M64.6,264.2c-0.4,0-0.7-0.3-0.7-0.7c0-0.4,0.3-0.7,0.7-0.7c0.4,0,0.7,0.3,0.7,0.7
							C65.3,263.9,64.9,264.2,64.6,264.2z"/>
					</g>
				</g>
			</g>
		</g>
	</g>
	<g style="clip-path:url(#SVGID_4_);">
		<g>
			<rect x="101.4" y="263" class="st26" width="28.4" height="2.9"/>
			<text transform="matrix(0.9856 0 0 1 101.4336 265.1763)" class="st5 st29 st115">Operations Centre</text>
			<g>
				<rect x="96.8" y="267.5" class="st26" width="31.1" height="23.6"/>
				<text transform="matrix(0.9856 0 0 1 96.8252 269.1426)"><tspan x="0" y="0" class="st3 st33 st114">ClaimSecure Inc.</tspan><tspan x="0" y="4" class="st3 st33 st114">40 Elm Street, Suite 225</tspan><tspan x="0" y="8" class="st3 st33 st114">Sudbury Ontario</tspan><tspan x="0" y="12.1" class="st3 st33 st114">P3C 0A2</tspan></text>
			</g>
		</g>
		<g>
			<path class="st0" d="M98.4,262.2c1,0,1.7,0.8,1.7,1.7c0,1-0.8,1.7-1.7,1.7c-1,0-1.7-0.8-1.7-1.7C96.7,263,97.5,262.2,98.4,262.2
				 M98.4,262c-1.1,0-2,0.9-2,2c0,1.1,0.9,2,2,2c1.1,0,2-0.9,2-2C100.4,262.9,99.5,262,98.4,262L98.4,262z"/>
			<g>
				<g>
					<g>
						<path class="st0" d="M99.3,263.5c0-0.5-0.4-0.9-0.9-0.9c-0.5,0-0.9,0.4-0.9,0.9c0,0.4,0.7,1.6,0.8,1.9c0,0,0,0,0,0s0,0,0,0
							C98.6,265,99.3,263.9,99.3,263.5z M98.4,264.2c-0.4,0-0.7-0.3-0.7-0.7c0-0.4,0.3-0.7,0.7-0.7c0.4,0,0.7,0.3,0.7,0.7
							C99.1,263.8,98.8,264.2,98.4,264.2z"/>
					</g>
				</g>
			</g>
		</g>
	</g>
</g>
<g>
	<path d="M208.9,273.5H23.3v-247h185.6V273.5z M23.6,273.3h185V26.8h-185V273.3z"/>
	<path class="st24" d="M209.5,0H22.6C15.6,0,10,5.6,10,12.6v274.9c0,6.9,5.6,12.6,12.6,12.6h186.9c6.9,0,12.6-5.6,12.6-12.6V12.6
		C222,5.6,216.4,0,209.5,0z M219.8,286.9c0,6-4.9,10.9-10.9,10.9H23.1c-6,0-10.9-4.9-10.9-10.9V13.1c0-6,4.9-10.9,10.9-10.9h185.8
		c6,0,10.9,4.9,10.9,10.9V286.9z"/>
	<path class="st24" d="M109.4,286.2c0,3.6,2.9,6.6,6.6,6.6c3.6,0,6.6-2.9,6.6-6.6c0-3.6-2.9-6.6-6.6-6.6
		C112.4,279.6,109.4,282.6,109.4,286.2z M122,286.2c0,3.3-2.7,6-6,6s-6-2.7-6-6c0-3.3,2.7-6,6-6S122,282.9,122,286.2z"/>
	<circle class="st24" cx="116.2" cy="13.3" r="1.5"/>
</g>
</svg>
