<svg version="1.1" id="Layer_1" xmlns="http://www.w3.org/2000/svg" xmlns:xlink="http://www.w3.org/1999/xlink" x="0px" y="0px"
	 viewBox="0 0 100 100" style="enable-background:new 0 0 100 100;" xml:space="preserve">
<style type="text/css">
	.iconemail0{fill:#F8B7B2;}
	.iconemail1{fill:none;stroke:#F8B7B2;stroke-width:3;stroke-miterlimit:10;}
</style>
<g>
	<path class="iconemail0" d="M50,0C22.4,0,0,22.4,0,50s22.4,50,50,50c21.9,0,40.5-14.1,47.3-33.7l0,0c0,0,0-0.1,0-0.1
		c0.2-0.5,0.3-0.9,0.5-1.4c0,0,0,0,0,0c1.5-4.7,2.2-9.7,2.2-14.8C100,22.4,77.6,0,50,0L50,0z M50,54c-2.4,0-4.8-0.6-7-1.9L7.2,30.6
		C14.6,14.3,31,3,50,3s35.4,11.3,42.8,27.6L57,52.1C54.8,53.4,52.4,54,50,54L50,54z M95.2,63L72.2,46.4L94,33.4c2,5.2,3,10.8,3,16.6
		C97,54.5,96.4,58.9,95.2,63L95.2,63z M4.8,63C3.6,58.8,3,54.5,3,50c0-5.9,1.1-11.5,3-16.6l21.7,13.1L4.8,63L4.8,63z M50,97
		C29.7,97,12.3,84,5.8,66l24.8-17.9l10.9,6.6c2.6,1.6,5.6,2.4,8.5,2.4s5.9-0.8,8.5-2.4l10.9-6.6L94.2,66C87.6,84.1,70.3,97,50,97
		L50,97z"/>
</g>
</svg>
